Informe-4/Rectificador de media onda/AC 250hz.csv

Record Length,2500,Points,35.00000015E-3,-24.00000021E-3,,Record Length,2500,Points,35.00000015E-3,-4.71999979,
Sample Interval,19.9999995E-6,s,35.02000123E-3,-24.00000021E-3,,Sample Interval,19.9999995E-6,s,35.02000123E-3,-4.63999987,
Trigger Point,-1.7500001E3,Samples,35.03999859E-3,-28.00000086E-3,,Trigger Point,-1.7500001E3,Samples,35.03999859E-3,-4.63999987,
,,,35.05999967E-3,-28.00000086E-3,,,,,35.05999967E-3,-4.55999994,
,,,35.08000076E-3,-30.00000119E-3,,,,,35.08000076E-3,-4.48000002,
,,,35.10000184E-3,-30.00000119E-3,,,,,35.10000184E-3,-4.40000010,
Source,CH1,,35.11999920E-3,-38.00000250E-3,,Source,CH2,,35.11999920E-3,-4.31999969,
Vertical Units,Volts,,35.14000028E-3,-38.00000250E-3,,Vertical Units,Volts,,35.14000028E-3,-4.23999977,
Vertical Scale,50.00000237E-3,,35.16000137E-3,-34.00000185E-3,,Vertical Scale,2.0000000,,35.16000137E-3,-4.15999985,
Vertical Offset,0,,35.17999873E-3,-36.00000218E-3,,Vertical Offset,0,,35.17999873E-3,-4.07999992,
Horizontal Units,s,,35.19999981E-3,-40.00000283E-3,,Horizontal Units,s,,35.19999981E-3,-4.00000000,
Horizontal Scale,4.99999987E-3,,35.22000089E-3,-40.00000283E-3,,Horizontal Scale,4.99999987E-3,,35.22000089E-3,-3.91999984,
Pt Fmt,Y,,35.24000198E-3,-44.00000349E-3,,Pt Fmt,Y,,35.24000198E-3,-3.75999999,
Yzero,80.000000000E-3,,35.25999933E-3,-48.00000042E-3,,Yzero,0.0,,35.25999933E-3,-3.67999983,
Probe Atten,1.000000,,35.28000042E-3,-48.00000042E-3,,Probe Atten,1.000000,,35.28000042E-3,-3.59999990,
,,,35.30000150E-3,-46.00000381E-3,,,,,35.30000150E-3,-3.43999982,
Note,TBS 1052B-EDU - 12:44:55 p.m.   19/02/2016,,35.31999886E-3,-46.00000381E-3,,Note,TBS 1052B-EDU - 12:44:55 p.m.   19/02/2016,,35.31999886E-3,-3.35999990,
,,,35.33999994E-3,-50.00000075E-3,,,,,35.33999994E-3,-3.19999981,
,,,35.36000103E-3,-52.00000107E-3,,,,,35.36000103E-3,-3.11999989,
,,,35.37999839E-3,-52.00000107E-3,,,,,35.37999839E-3,-2.96000004,
,,,35.39999947E-3,-54.00000140E-3,,,,,35.39999947E-3,-2.79999995,
,,,35.42000055E-3,-60.000002384E-3,,,,,35.42000055E-3,-2.6399999,
,,,35.44000164E-3,-58.000002056E-3,,,,,35.44000164E-3,-2.5599999,
,,,35.45999900E-3,-62.000002712E-3,,,,,35.45999900E-3,-2.3999999,
,,,35.48000008E-3,-64.000003040E-3,,,,,35.48000008E-3,-2.2400000,
,,,35.50000116E-3,-64.000003040E-3,,,,,35.50000116E-3,-2.1599998,
,,,35.51999852E-3,-64.000003040E-3,,,,,35.51999852E-3,-2.0000000,
,,,35.53999960E-3,-68.000003695E-3,,,,,35.53999960E-3,-1.8399999,
,,,35.56000069E-3,-70.000000298E-3,,,,,35.56000069E-3,-1.7600000,
,,,35.58000177E-3,-65.999999642E-3,,,,,35.58000177E-3,-1.5999999,
,,,35.59999913E-3,-70.000000298E-3,,,,,35.59999913E-3,-1.4399999,
,,,35.62000021E-3,-72.000004351E-3,,,,,35.62000021E-3,-1.2800000,
,,,35.64000130E-3,-76.000005007E-3,,,,,35.64000130E-3,-1.1200000,
,,,35.65999866E-3,-78.000001609E-3,,,,,35.65999866E-3,-959.999978542E-3,
,,,35.67999974E-3,-72.000004351E-3,,,,,35.67999974E-3,-799.999952316E-3,
,,,35.70000082E-3,-80.000005662E-3,,,,,35.70000082E-3,-639.999985695E-3,
,,,35.72000191E-3,-80.000005662E-3,,,,,35.72000191E-3,-479.999989271E-3,
,,,35.73999926E-3,-80.000005662E-3,,,,,35.73999926E-3,-319.99999285E-3,
,,,35.76000035E-3,-80.000005662E-3,,,,,35.76000035E-3,-159.99999642E-3,
,,,35.78000143E-3,-84.000006318E-3,,,,,35.78000143E-3,0.0,
,,,35.79999879E-3,-84.000006318E-3,,,,,35.79999879E-3,159.99999642E-3,
,,,35.81999987E-3,-84.000006318E-3,,,,,35.81999987E-3,319.99999285E-3,
,,,35.84000096E-3,-88.000006974E-3,,,,,35.84000096E-3,479.999989271E-3,
,,,35.85999832E-3,-92.000007629E-3,,,,,35.85999832E-3,639.999985695E-3,
,,,35.87999940E-3,-90.000003576E-3,,,,,35.87999940E-3,799.999952316E-3,
,,,35.90000048E-3,-94.000004232E-3,,,,,35.90000048E-3,959.999978542E-3,
,,,35.92000157E-3,-96.000000834E-3,,,,,35.92000157E-3,1.1200000,
,,,35.93999892E-3,-96.000000834E-3,,,,,35.93999892E-3,1.2800000,
,,,35.96000001E-3,-96.000000834E-3,,,,,35.96000001E-3,1.4399999,
,,,35.98000109E-3,-98.000004888E-3,,,,,35.98000109E-3,1.5999999,
,,,35.99999845E-3,-98.000004888E-3,,,,,35.99999845E-3,1.6799999,
,,,36.01999953E-3,-100.0000015E-3,,,,,36.01999953E-3,1.8399999,
,,,36.04000062E-3,-104.0000021E-3,,,,,36.04000062E-3,2.0000000,
,,,36.06000170E-3,-108.0000028E-3,,,,,36.06000170E-3,2.1599998,
,,,36.07999906E-3,-108.0000028E-3,,,,,36.07999906E-3,2.3199999,
,,,36.10000014E-3,-110.0000069E-3,,,,,36.10000014E-3,2.3999999,
,,,36.12000123E-3,-112.0000035E-3,,,,,36.12000123E-3,2.5599999,
,,,36.13999858E-3,-114.0000075E-3,,,,,36.13999858E-3,2.72000003,
,,,36.15999967E-3,-116.0000041E-3,,,,,36.15999967E-3,2.79999995,
,,,36.18000075E-3,-118.0000082E-3,,,,,36.18000075E-3,2.96000004,
,,,36.20000184E-3,-114.0000075E-3,,,,,36.20000184E-3,3.11999989,
,,,36.21999919E-3,-118.0000082E-3,,,,,36.21999919E-3,3.19999981,
,,,36.24000028E-3,-118.0000082E-3,,,,,36.24000028E-3,3.35999990,
,,,36.26000136E-3,-120.0000048E-3,,,,,36.26000136E-3,3.43999982,
,,,36.27999872E-3,-122.0000088E-3,,,,,36.27999872E-3,3.59999990,
,,,36.29999980E-3,-122.0000088E-3,,,,,36.29999980E-3,3.67999983,
,,,36.32000089E-3,-124.0000054E-3,,,,,36.32000089E-3,3.75999999,
,,,36.34000197E-3,-124.0000054E-3,,,,,36.34000197E-3,3.83999991,
,,,36.35999933E-3,-124.0000054E-3,,,,,36.35999933E-3,4.00000000,
,,,36.38000041E-3,-126.0000020E-3,,,,,36.38000041E-3,4.07999992,
,,,36.40000150E-3,-130.0000101E-3,,,,,36.40000150E-3,4.15999985,
,,,36.41999885E-3,-128.0000061E-3,,,,,36.41999885E-3,4.23999977,
,,,36.43999994E-3,-134.0000033E-3,,,,,36.43999994E-3,4.31999969,
,,,36.46000102E-3,-130.0000101E-3,,,,,36.46000102E-3,4.31999969,
,,,36.47999838E-3,-124.0000054E-3,,,,,36.47999838E-3,4.40000010,
,,,36.49999946E-3,-126.0000020E-3,,,,,36.49999946E-3,4.40000010,
,,,36.52000055E-3,-118.0000082E-3,,,,,36.52000055E-3,4.40000010,
,,,36.54000163E-3,-110.0000069E-3,,,,,36.54000163E-3,4.48000002,
,,,36.55999899E-3,-102.0000055E-3,,,,,36.55999899E-3,4.48000002,
,,,36.58000007E-3,-92.000007629E-3,,,,,36.58000007E-3,4.48000002,
,,,36.60000116E-3,-78.000001609E-3,,,,,36.60000116E-3,4.48000002,
,,,36.61999851E-3,-70.000000298E-3,,,,,36.61999851E-3,4.48000002,
,,,36.63999960E-3,-58.000002056E-3,,,,,36.63999960E-3,4.55999994,
,,,36.66000068E-3,-42.00000316E-3,,,,,36.66000068E-3,4.55999994,
,,,36.68000177E-3,-26.00000054E-3,,,,,36.68000177E-3,4.55999994,
,,,36.69999912E-3,-10.0000007E-3,,,,,36.69999912E-3,4.55999994,
,,,36.72000021E-3,-2.0000001E-3,,,,,36.72000021E-3,4.55999994,
,,,36.74000129E-3,22.00000174E-3,,,,,36.74000129E-3,4.55999994,
,,,36.75999865E-3,36.00000218E-3,,,,,36.75999865E-3,4.55999994,
,,,36.77999973E-3,50.00000075E-3,,,,,36.77999973E-3,4.63999987,
,,,36.80000082E-3,56.000001729E-3,,,,,36.80000082E-3,4.63999987,
,,,36.82000190E-3,76.000005007E-3,,,,,36.82000190E-3,4.63999987,
,,,36.83999926E-3,86.000002921E-3,,,,,36.83999926E-3,4.63999987,
,,,36.86000034E-3,98.000004888E-3,,,,,36.86000034E-3,4.63999987,
,,,36.88000143E-3,108.0000028E-3,,,,,36.88000143E-3,4.63999987,
,,,36.89999878E-3,120.0000048E-3,,,,,36.89999878E-3,4.71999979,
,,,36.91999987E-3,126.0000020E-3,,,,,36.91999987E-3,4.71999979,
,,,36.94000095E-3,130.0000101E-3,,,,,36.94000095E-3,4.71999979,
,,,36.95999831E-3,136.0000074E-3,,,,,36.95999831E-3,4.63999987,
,,,36.97999939E-3,140.0000006E-3,,,,,36.97999939E-3,4.63999987,
,,,37.00000048E-3,136.0000074E-3,,,,,37.00000048E-3,4.63999987,
,,,37.02000156E-3,142.0000046E-3,,,,,37.02000156E-3,4.63999987,
,,,37.03999892E-3,136.0000074E-3,,,,,37.03999892E-3,4.55999994,
,,,37.06000000E-3,142.0000046E-3,,,,,37.06000000E-3,4.55999994,
,,,37.08000109E-3,134.0000033E-3,,,,,37.08000109E-3,4.48000002,
,,,37.09999844E-3,134.0000033E-3,,,,,37.09999844E-3,4.40000010,
,,,37.11999953E-3,128.0000061E-3,,,,,37.11999953E-3,4.31999969,
,,,37.14000061E-3,130.0000101E-3,,,,,37.14000061E-3,4.23999977,
,,,37.16000170E-3,128.0000061E-3,,,,,37.16000170E-3,4.15999985,
,,,37.17999905E-3,128.0000061E-3,,,,,37.17999905E-3,4.00000000,
,,,37.20000014E-3,126.0000020E-3,,,,,37.20000014E-3,3.91999984,
,,,37.22000122E-3,124.0000054E-3,,,,,37.22000122E-3,3.83999991,
,,,37.23999858E-3,122.0000088E-3,,,,,37.23999858E-3,3.75999999,
,,,37.25999966E-3,116.0000041E-3,,,,,37.25999966E-3,3.67999983,
,,,37.28000075E-3,122.0000088E-3,,,,,37.28000075E-3,3.59999990,
,,,37.30000183E-3,114.0000075E-3,,,,,37.30000183E-3,3.43999982,
,,,37.31999919E-3,114.0000075E-3,,,,,37.31999919E-3,3.35999990,
,,,37.34000027E-3,112.0000035E-3,,,,,37.34000027E-3,3.19999981,
,,,37.36000136E-3,112.0000035E-3,,,,,37.36000136E-3,3.03999996,
,,,37.37999871E-3,108.0000028E-3,,,,,37.37999871E-3,2.96000004,
,,,37.39999980E-3,108.0000028E-3,,,,,37.39999980E-3,2.79999995,
,,,37.42000088E-3,106.0000062E-3,,,,,37.42000088E-3,2.72000003,
,,,37.43999824E-3,104.0000021E-3,,,,,37.43999824E-3,2.5599999,
,,,37.45999932E-3,104.0000021E-3,,,,,37.45999932E-3,2.3999999,
,,,37.48000041E-3,98.000004888E-3,,,,,37.48000041E-3,2.3199999,
,,,37.50000149E-3,100.0000015E-3,,,,,37.50000149E-3,2.1599998,
,,,37.51999885E-3,100.0000015E-3,,,,,37.51999885E-3,2.0000000,
,,,37.53999993E-3,90.000003576E-3,,,,,37.53999993E-3,1.8399999,
,,,37.56000102E-3,90.000003576E-3,,,,,37.56000102E-3,1.6799999,
,,,37.57999837E-3,92.000007629E-3,,,,,37.57999837E-3,1.5200000,
,,,37.59999946E-3,90.000003576E-3,,,,,37.59999946E-3,1.3600000,
,,,37.62000054E-3,90.000003576E-3,,,,,37.62000054E-3,1.2800000,
,,,37.64000162E-3,86.000002921E-3,,,,,37.64000162E-3,1.1200000,
,,,37.65999898E-3,86.000002921E-3,,,,,37.65999898E-3,959.999978542E-3,
,,,37.68000007E-3,84.000006318E-3,,,,,37.68000007E-3,799.999952316E-3,
,,,37.70000115E-3,78.000001609E-3,,,,,37.70000115E-3,639.999985695E-3,
,,,37.71999851E-3,80.000005662E-3,,,,,37.71999851E-3,479.999989271E-3,
,,,37.73999959E-3,74.000000954E-3,,,,,37.73999959E-3,319.99999285E-3,
,,,37.76000068E-3,76.000005007E-3,,,,,37.76000068E-3,159.99999642E-3,
,,,37.78000176E-3,76.000005007E-3,,,,,37.78000176E-3,0.0,
,,,37.79999912E-3,72.000004351E-3,,,,,37.79999912E-3,-159.99999642E-3,
,,,37.82000020E-3,74.000000954E-3,,,,,37.82000020E-3,-319.99999285E-3,
,,,37.84000129E-3,68.000003695E-3,,,,,37.84000129E-3,-479.999989271E-3,
,,,37.85999864E-3,70.000000298E-3,,,,,37.85999864E-3,-639.999985695E-3,
,,,37.87999973E-3,65.999999642E-3,,,,,37.87999973E-3,-799.999952316E-3,
,,,37.90000081E-3,68.000003695E-3,,,,,37.90000081E-3,-959.999978542E-3,
,,,37.92000189E-3,64.000003040E-3,,,,,37.92000189E-3,-1.1200000,
,,,37.93999925E-3,60.000002384E-3,,,,,37.93999925E-3,-1.2800000,
,,,37.96000034E-3,60.000002384E-3,,,,,37.96000034E-3,-1.4399999,
,,,37.98000142E-3,54.00000140E-3,,,,,37.98000142E-3,-1.5999999,
,,,37.99999878E-3,60.000002384E-3,,,,,37.99999878E-3,-1.7600000,
,,,38.01999986E-3,54.00000140E-3,,,,,38.01999986E-3,-1.8399999,
,,,38.04000095E-3,52.00000107E-3,,,,,38.04000095E-3,-2.0000000,
,,,38.05999830E-3,52.00000107E-3,,,,,38.05999830E-3,-2.1599998,
,,,38.07999939E-3,50.00000075E-3,,,,,38.07999939E-3,-2.3199999,
,,,38.10000047E-3,46.00000381E-3,,,,,38.10000047E-3,-2.3999999,
,,,38.12000155E-3,50.00000075E-3,,,,,38.12000155E-3,-2.5599999,
,,,38.13999891E-3,44.00000349E-3,,,,,38.13999891E-3,-2.72000003,
,,,38.16000000E-3,42.00000316E-3,,,,,38.16000000E-3,-2.87999988,
,,,38.18000108E-3,42.00000316E-3,,,,,38.18000108E-3,-2.96000004,
,,,38.19999844E-3,40.00000283E-3,,,,,38.19999844E-3,-3.11999989,
,,,38.21999952E-3,38.00000250E-3,,,,,38.21999952E-3,-3.19999981,
,,,38.24000061E-3,36.00000218E-3,,,,,38.24000061E-3,-3.35999990,
,,,38.26000169E-3,34.00000185E-3,,,,,38.26000169E-3,-3.43999982,
,,,38.27999905E-3,36.00000218E-3,,,,,38.27999905E-3,-3.51999998,
,,,38.30000013E-3,30.00000119E-3,,,,,38.30000013E-3,-3.67999983,
,,,38.32000121E-3,32.00000152E-3,,,,,38.32000121E-3,-3.75999999,
,,,38.33999857E-3,28.00000086E-3,,,,,38.33999857E-3,-3.91999984,
,,,38.35999966E-3,22.00000174E-3,,,,,38.35999966E-3,-4.00000000,
,,,38.38000074E-3,24.00000021E-3,,,,,38.38000074E-3,-4.07999992,
,,,38.40000182E-3,22.00000174E-3,,,,,38.40000182E-3,-4.15999985,
,,,38.41999918E-3,22.00000174E-3,,,,,38.41999918E-3,-4.23999977,
,,,38.44000027E-3,20.0000014E-3,,,,,38.44000027E-3,-4.31999969,
,,,38.46000135E-3,18.0000011E-3,,,,,38.46000135E-3,-4.40000010,
,,,38.47999871E-3,16.0000008E-3,,,,,38.47999871E-3,-4.48000002,
,,,38.49999979E-3,16.0000008E-3,,,,,38.49999979E-3,-4.55999994,
,,,38.52000087E-3,20.0000014E-3,,,,,38.52000087E-3,-4.63999987,
,,,38.53999823E-3,12.0000001E-3,,,,,38.53999823E-3,-4.63999987,
,,,38.55999932E-3,12.0000001E-3,,,,,38.55999932E-3,-4.71999979,
,,,38.58000040E-3,10.0000007E-3,,,,,38.58000040E-3,-4.71999979,
,,,38.60000148E-3,8.000000380E-3,,,,,38.60000148E-3,-4.79999971,
,,,38.61999884E-3,6.00000005E-3,,,,,38.61999884E-3,-4.88000011,
,,,38.63999993E-3,0.0,,,,,38.63999993E-3,-4.88000011,
,,,38.66000101E-3,0.0,,,,,38.66000101E-3,-4.96000004,
,,,38.67999837E-3,-2.0000001E-3,,,,,38.67999837E-3,-4.96000004,
,,,38.69999945E-3,4.00000019E-3,,,,,38.69999945E-3,-4.96000004,
,,,38.72000054E-3,-6.00000005E-3,,,,,38.72000054E-3,-4.96000004,
,,,38.74000162E-3,-6.00000005E-3,,,,,38.74000162E-3,-4.96000004,
,,,38.75999898E-3,-4.00000019E-3,,,,,38.75999898E-3,-5.03999996,
,,,38.78000006E-3,-8.000000380E-3,,,,,38.78000006E-3,-5.03999996,
,,,38.80000114E-3,-8.000000380E-3,,,,,38.80000114E-3,-5.03999996,
,,,38.81999850E-3,-8.000000380E-3,,,,,38.81999850E-3,-4.96000004,
,,,38.83999959E-3,-12.0000001E-3,,,,,38.83999959E-3,-4.96000004,
,,,38.86000067E-3,-8.000000380E-3,,,,,38.86000067E-3,-4.96000004,
,,,38.88000175E-3,-14.0000004E-3,,,,,38.88000175E-3,-4.96000004,
,,,38.89999911E-3,-18.0000011E-3,,,,,38.89999911E-3,-4.88000011,
,,,38.92000020E-3,-18.0000011E-3,,,,,38.92000020E-3,-4.88000011,
,,,38.94000128E-3,-22.00000174E-3,,,,,38.94000128E-3,-4.88000011,
,,,38.95999864E-3,-24.00000021E-3,,,,,38.95999864E-3,-4.79999971,
,,,38.97999972E-3,-24.00000021E-3,,,,,38.97999972E-3,-4.79999971,
,,,39.00000080E-3,-30.00000119E-3,,,,,39.00000080E-3,-4.71999979,
,,,39.02000189E-3,-24.00000021E-3,,,,,39.02000189E-3,-4.63999987,
,,,39.03999925E-3,-28.00000086E-3,,,,,39.03999925E-3,-4.63999987,
,,,39.06000033E-3,-30.00000119E-3,,,,,39.06000033E-3,-4.55999994,
,,,39.08000141E-3,-26.00000054E-3,,,,,39.08000141E-3,-4.48000002,
,,,39.09999877E-3,-32.00000152E-3,,,,,39.09999877E-3,-4.48000002,
,,,39.11999986E-3,-32.00000152E-3,,,,,39.11999986E-3,-4.31999969,
,,,39.14000094E-3,-36.00000218E-3,,,,,39.14000094E-3,-4.23999977,
,,,39.15999830E-3,-36.00000218E-3,,,,,39.15999830E-3,-4.15999985,
,,,39.17999938E-3,-40.00000283E-3,,,,,39.17999938E-3,-4.07999992,
,,,39.20000046E-3,-38.00000250E-3,,,,,39.20000046E-3,-4.00000000,
,,,39.22000155E-3,-44.00000349E-3,,,,,39.22000155E-3,-3.91999984,
,,,39.23999891E-3,-44.00000349E-3,,,,,39.23999891E-3,-3.75999999,
,,,39.25999999E-3,-44.00000349E-3,,,,,39.25999999E-3,-3.67999983,
,,,39.28000107E-3,-46.00000381E-3,,,,,39.28000107E-3,-3.51999998,
,,,39.29999843E-3,-46.00000381E-3,,,,,39.29999843E-3,-3.43999982,
,,,39.31999952E-3,-52.00000107E-3,,,,,39.31999952E-3,-3.35999990,
,,,39.34000060E-3,-50.00000075E-3,,,,,39.34000060E-3,-3.19999981,
,,,39.36000168E-3,-50.00000075E-3,,,,,39.36000168E-3,-3.11999989,
,,,39.37999904E-3,-56.000001729E-3,,,,,39.37999904E-3,-2.96000004,
,,,39.40000013E-3,-54.00000140E-3,,,,,39.40000013E-3,-2.79999995,
,,,39.42000121E-3,-58.000002056E-3,,,,,39.42000121E-3,-2.72000003,
,,,39.43999857E-3,-60.000002384E-3,,,,,39.43999857E-3,-2.5599999,
,,,39.45999965E-3,-62.000002712E-3,,,,,39.45999965E-3,-2.3999999,
,,,39.48000073E-3,-62.000002712E-3,,,,,39.48000073E-3,-2.2400000,
,,,39.50000182E-3,-60.000002384E-3,,,,,39.50000182E-3,-2.1599998,
,,,39.51999918E-3,-64.000003040E-3,,,,,39.51999918E-3,-2.0000000,
,,,39.54000026E-3,-64.000003040E-3,,,,,39.54000026E-3,-1.8399999,
,,,39.56000134E-3,-65.999999642E-3,,,,,39.56000134E-3,-1.7600000,
,,,39.57999870E-3,-70.000000298E-3,,,,,39.57999870E-3,-1.5999999,
,,,39.59999979E-3,-74.000000954E-3,,,,,39.59999979E-3,-1.4399999,
,,,39.62000087E-3,-72.000004351E-3,,,,,39.62000087E-3,-1.2800000,
,,,39.63999823E-3,-76.000005007E-3,,,,,39.63999823E-3,-1.1200000,
,,,39.65999931E-3,-78.000001609E-3,,,,,39.65999931E-3,-959.999978542E-3,
,,,39.68000039E-3,-76.000005007E-3,,,,,39.68000039E-3,-799.999952316E-3,
,,,39.70000148E-3,-78.000001609E-3,,,,,39.70000148E-3,-639.999985695E-3,
,,,39.71999884E-3,-78.000001609E-3,,,,,39.71999884E-3,-479.999989271E-3,
,,,39.73999992E-3,-82.000002265E-3,,,,,39.73999992E-3,-319.99999285E-3,
,,,39.76000100E-3,-80.000005662E-3,,,,,39.76000100E-3,-159.99999642E-3,
,,,39.77999836E-3,-84.000006318E-3,,,,,39.77999836E-3,0.0,
,,,39.79999945E-3,-86.000002921E-3,,,,,39.79999945E-3,159.99999642E-3,
,,,39.82000053E-3,-86.000002921E-3,,,,,39.82000053E-3,319.99999285E-3,
,,,39.84000161E-3,-86.000002921E-3,,,,,39.84000161E-3,479.999989271E-3,
,,,39.85999897E-3,-94.000004232E-3,,,,,39.85999897E-3,639.999985695E-3,
,,,39.88000005E-3,-90.000003576E-3,,,,,39.88000005E-3,799.999952316E-3,
,,,39.90000114E-3,-92.000007629E-3,,,,,39.90000114E-3,959.999978542E-3,
,,,39.91999850E-3,-94.000004232E-3,,,,,39.91999850E-3,1.1200000,
,,,39.93999958E-3,-94.000004232E-3,,,,,39.93999958E-3,1.2800000,
,,,39.96000066E-3,-100.0000015E-3,,,,,39.96000066E-3,1.3600000,
,,,39.98000175E-3,-100.0000015E-3,,,,,39.98000175E-3,1.5999999,
,,,39.99999911E-3,-102.0000055E-3,,,,,39.99999911E-3,1.7600000,
,,,40.02000019E-3,-100.0000015E-3,,,,,40.02000019E-3,1.8399999,
,,,40.04000127E-3,-102.0000055E-3,,,,,40.04000127E-3,2.0000000,
,,,40.05999863E-3,-108.0000028E-3,,,,,40.05999863E-3,2.1599998,
,,,40.07999972E-3,-104.0000021E-3,,,,,40.07999972E-3,2.3199999,
,,,40.10000080E-3,-108.0000028E-3,,,,,40.10000080E-3,2.3999999,
,,,40.11999816E-3,-110.0000069E-3,,,,,40.11999816E-3,2.5599999,
,,,40.13999924E-3,-110.0000069E-3,,,,,40.13999924E-3,2.72000003,
,,,40.16000032E-3,-114.0000075E-3,,,,,40.16000032E-3,2.79999995,
,,,40.18000141E-3,-112.0000035E-3,,,,,40.18000141E-3,2.96000004,
,,,40.19999877E-3,-112.0000035E-3,,,,,40.19999877E-3,3.11999989,
,,,40.21999985E-3,-120.0000048E-3,,,,,40.21999985E-3,3.19999981,
,,,40.24000093E-3,-118.0000082E-3,,,,,40.24000093E-3,3.35999990,
,,,40.25999829E-3,-120.0000048E-3,,,,,40.25999829E-3,3.43999982,
,,,40.27999938E-3,-122.0000088E-3,,,,,40.27999938E-3,3.59999990,
,,,40.30000046E-3,-122.0000088E-3,,,,,40.30000046E-3,3.59999990,
,,,40.32000154E-3,-124.0000054E-3,,,,,40.32000154E-3,3.75999999,
,,,40.33999890E-3,-126.0000020E-3,,,,,40.33999890E-3,3.83999991,
,,,40.35999998E-3,-126.0000020E-3,,,,,40.35999998E-3,4.00000000,
,,,40.38000107E-3,-126.0000020E-3,,,,,40.38000107E-3,4.07999992,
,,,40.39999843E-3,-128.0000061E-3,,,,,40.39999843E-3,4.15999985,
,,,40.41999951E-3,-131.9999993E-3,,,,,40.41999951E-3,4.23999977,
,,,40.44000059E-3,-131.9999993E-3,,,,,40.44000059E-3,4.31999969,
,,,40.46000168E-3,-128.0000061E-3,,,,,40.46000168E-3,4.31999969,
,,,40.47999904E-3,-126.0000020E-3,,,,,40.47999904E-3,4.40000010,
,,,40.50000012E-3,-124.0000054E-3,,,,,40.50000012E-3,4.40000010,
,,,40.52000120E-3,-120.0000048E-3,,,,,40.52000120E-3,4.40000010,
,,,40.53999856E-3,-108.0000028E-3,,,,,40.53999856E-3,4.48000002,
,,,40.55999964E-3,-102.0000055E-3,,,,,40.55999964E-3,4.48000002,
,,,40.58000073E-3,-92.000007629E-3,,,,,40.58000073E-3,4.48000002,
,,,40.60000181E-3,-80.000005662E-3,,,,,40.60000181E-3,4.48000002,
,,,40.61999917E-3,-70.000000298E-3,,,,,40.61999917E-3,4.48000002,
,,,40.64000025E-3,-58.000002056E-3,,,,,40.64000025E-3,4.55999994,
,,,40.66000134E-3,-36.00000218E-3,,,,,40.66000134E-3,4.55999994,
,,,40.67999870E-3,-22.00000174E-3,,,,,40.67999870E-3,4.55999994,
,,,40.69999978E-3,-10.0000007E-3,,,,,40.69999978E-3,4.55999994,
,,,40.72000086E-3,4.00000019E-3,,,,,40.72000086E-3,4.55999994,
,,,40.73999822E-3,20.0000014E-3,,,,,40.73999822E-3,4.55999994,
,,,40.75999931E-3,36.00000218E-3,,,,,40.75999931E-3,4.63999987,
,,,40.78000039E-3,52.00000107E-3,,,,,40.78000039E-3,4.63999987,
,,,40.80000147E-3,64.000003040E-3,,,,,40.80000147E-3,4.63999987,
,,,40.81999883E-3,78.000001609E-3,,,,,40.81999883E-3,4.63999987,
,,,40.83999991E-3,82.000002265E-3,,,,,40.83999991E-3,4.63999987,
,,,40.86000100E-3,104.0000021E-3,,,,,40.86000100E-3,4.63999987,
,,,40.87999836E-3,106.0000062E-3,,,,,40.87999836E-3,4.63999987,
