Informe-4/Rectificador de media onda/AC 500hz.csv

Record Length,2500,Points,47.49999940E-3,-14.3999998E-3,,Record Length,2500,Points,47.49999940E-3,-4.71999979,
Sample Interval,9.999999747E-6,s,47.50999808E-3,-13.5999992E-3,,Sample Interval,9.999999747E-6,s,47.50999808E-3,-4.63999987,
Trigger Point,-4.75000029E3,Samples,47.52000049E-3,-12.7999997E-3,,Trigger Point,-4.75000029E3,Samples,47.52000049E-3,-4.63999987,
,,,47.52999917E-3,-13.5999992E-3,,,,,47.52999917E-3,-4.55999994,
,,,47.53999785E-3,-11.1999996E-3,,,,,47.53999785E-3,-4.48000002,
,,,47.55000025E-3,-15.1999993E-3,,,,,47.55000025E-3,-4.40000010,
Source,CH1,,47.55999893E-3,-13.5999992E-3,,Source,CH2,,47.55999893E-3,-4.31999969,
Vertical Units,Volts,,47.56999761E-3,-15.1999993E-3,,Vertical Units,Volts,,47.56999761E-3,-4.23999977,
Vertical Scale,19.9999995E-3,,47.58000001E-3,-18.4000004E-3,,Vertical Scale,2.0000000,,47.58000001E-3,-4.15999985,
Vertical Offset,0,,47.58999869E-3,-18.4000004E-3,,Vertical Offset,0,,47.58999869E-3,-4.07999992,
Horizontal Units,s,,47.60000110E-3,-17.5999999E-3,,Horizontal Units,s,,47.60000110E-3,-4.00000000,
Horizontal Scale,2.4999999E-3,,47.60999978E-3,-21.59999870E-3,,Horizontal Scale,2.4999999E-3,,47.60999978E-3,-3.83999991,
Pt Fmt,Y,,47.61999846E-3,-21.59999870E-3,,Pt Fmt,Y,,47.61999846E-3,-3.75999999,
Yzero,80.000000000E-3,,47.63000086E-3,-21.59999870E-3,,Yzero,0.0,,47.63000086E-3,-3.67999983,
Probe Atten,1.000000,,47.63999954E-3,-19.9999996E-3,,Probe Atten,1.000000,,47.63999954E-3,-3.51999998,
,,,47.64999822E-3,-21.59999870E-3,,,,,47.64999822E-3,-3.43999982,
Note,TBS 1052B-EDU - 12:46:00 p.m.   19/02/2016,,47.66000062E-3,-25.59999935E-3,,Note,TBS 1052B-EDU - 12:46:00 p.m.   19/02/2016,,47.66000062E-3,-3.27999997,
,,,47.66999930E-3,-24.79999885E-3,,,,,47.66999930E-3,-3.19999981,
,,,47.67999798E-3,-24.00000021E-3,,,,,47.67999798E-3,-3.11999989,
,,,47.69000039E-3,-24.00000021E-3,,,,,47.69000039E-3,-2.96000004,
,,,47.69999906E-3,-23.19999970E-3,,,,,47.69999906E-3,-2.79999995,
,,,47.70999774E-3,-19.9999996E-3,,,,,47.70999774E-3,-2.6399999,
,,,47.72000015E-3,-28.79999951E-3,,,,,47.72000015E-3,-2.4800000,
,,,47.72999883E-3,-27.99999900E-3,,,,,47.72999883E-3,-2.3999999,
,,,47.74000123E-3,-30.39999865E-3,,,,,47.74000123E-3,-2.2400000,
,,,47.74999991E-3,-31.99999779E-3,,,,,47.74999991E-3,-2.0799999,
,,,47.75999859E-3,-31.99999779E-3,,,,,47.75999859E-3,-1.9200000,
,,,47.77000099E-3,-32.80000016E-3,,,,,47.77000099E-3,-1.8399999,
,,,47.77999967E-3,-32.80000016E-3,,,,,47.77999967E-3,-1.6799999,
,,,47.78999835E-3,-35.19999981E-3,,,,,47.78999835E-3,-1.5200000,
,,,47.80000076E-3,-34.39999744E-3,,,,,47.80000076E-3,-1.3600000,
,,,47.80999944E-3,-36.80000082E-3,,,,,47.80999944E-3,-1.1999999,
,,,47.81999812E-3,-36.80000082E-3,,,,,47.81999812E-3,-1.0400000,
,,,47.83000052E-3,-37.59999946E-3,,,,,47.83000052E-3,-879.999995232E-3,
,,,47.83999920E-3,-35.99999845E-3,,,,,47.83999920E-3,-719.999969006E-3,
,,,47.84999788E-3,-38.39999810E-3,,,,,47.84999788E-3,-560.000002384E-3,
,,,47.86000028E-3,-39.20000046E-3,,,,,47.86000028E-3,-479.999989271E-3,
,,,47.86999896E-3,-39.99999911E-3,,,,,47.86999896E-3,-319.99999285E-3,
,,,47.87999764E-3,-43.99999976E-3,,,,,47.87999764E-3,-159.99999642E-3,
,,,47.89000005E-3,-41.60000011E-3,,,,,47.89000005E-3,79.999998212E-3,
,,,47.89999872E-3,-40.79999775E-3,,,,,47.89999872E-3,159.99999642E-3,
,,,47.91000113E-3,-45.59999704E-3,,,,,47.91000113E-3,319.99999285E-3,
,,,47.91999981E-3,-46.39999941E-3,,,,,47.91999981E-3,479.999989271E-3,
,,,47.92999849E-3,-43.99999976E-3,,,,,47.92999849E-3,639.999985695E-3,
,,,47.94000089E-3,-43.19999740E-3,,,,,47.94000089E-3,799.999952316E-3,
,,,47.94999957E-3,-47.19999805E-3,,,,,47.94999957E-3,959.999978542E-3,
,,,47.95999825E-3,-48.00000042E-3,,,,,47.95999825E-3,1.1200000,
,,,47.97000065E-3,-47.19999805E-3,,,,,47.97000065E-3,1.2800000,
,,,47.97999933E-3,-48.00000042E-3,,,,,47.97999933E-3,1.4399999,
,,,47.98999801E-3,-49.59999770E-3,,,,,47.98999801E-3,1.5999999,
,,,48.00000042E-3,-50.40000007E-3,,,,,48.00000042E-3,1.6799999,
,,,48.00999910E-3,-53.59999835E-3,,,,,48.00999910E-3,1.9200000,
,,,48.01999778E-3,-50.40000007E-3,,,,,48.01999778E-3,2.0799999,
,,,48.03000018E-3,-52.79999971E-3,,,,,48.03000018E-3,2.1599998,
,,,48.03999886E-3,-56.800000370E-3,,,,,48.03999886E-3,2.3199999,
,,,48.04999754E-3,-54.39999700E-3,,,,,48.04999754E-3,2.4800000,
,,,48.05999994E-3,-55.999998003E-3,,,,,48.05999994E-3,2.6399999,
,,,48.06999862E-3,-55.199999362E-3,,,,,48.06999862E-3,2.72000003,
,,,48.08000103E-3,-55.199999362E-3,,,,,48.08000103E-3,2.87999988,
,,,48.08999971E-3,-57.599999011E-3,,,,,48.08999971E-3,2.96000004,
,,,48.09999838E-3,-60.799997300E-3,,,,,48.09999838E-3,3.11999989,
,,,48.11000079E-3,-58.399997652E-3,,,,,48.11000079E-3,3.27999997,
,,,48.11999947E-3,-57.599999011E-3,,,,,48.11999947E-3,3.35999990,
,,,48.12999815E-3,-62.399998307E-3,,,,,48.12999815E-3,3.43999982,
,,,48.14000055E-3,-61.599999666E-3,,,,,48.14000055E-3,3.59999990,
,,,48.14999923E-3,-59.999998659E-3,,,,,48.14999923E-3,3.67999983,
,,,48.15999791E-3,-61.599999666E-3,,,,,48.15999791E-3,3.75999999,
,,,48.17000031E-3,-63.199996948E-3,,,,,48.17000031E-3,3.83999991,
,,,48.17999899E-3,-62.399998307E-3,,,,,48.17999899E-3,4.00000000,
,,,48.18999767E-3,-65.600000322E-3,,,,,48.18999767E-3,4.07999992,
,,,48.20000008E-3,-63.999995589E-3,,,,,48.20000008E-3,4.15999985,
,,,48.20999876E-3,-64.800001681E-3,,,,,48.20999876E-3,4.23999977,
,,,48.22000116E-3,-68.799994886E-3,,,,,48.22000116E-3,4.31999969,
,,,48.22999984E-3,-67.199997604E-3,,,,,48.22999984E-3,4.40000010,
,,,48.23999852E-3,-69.600000978E-3,,,,,48.23999852E-3,4.40000010,
,,,48.25000092E-3,-63.199996948E-3,,,,,48.25000092E-3,4.40000010,
,,,48.25999960E-3,-64.800001681E-3,,,,,48.25999960E-3,4.48000002,
,,,48.26999828E-3,-59.999998659E-3,,,,,48.26999828E-3,4.48000002,
,,,48.28000069E-3,-55.199999362E-3,,,,,48.28000069E-3,4.48000002,
,,,48.28999937E-3,-53.59999835E-3,,,,,48.28999937E-3,4.55999994,
,,,48.29999804E-3,-50.40000007E-3,,,,,48.29999804E-3,4.55999994,
,,,48.31000045E-3,-42.39999875E-3,,,,,48.31000045E-3,4.55999994,
,,,48.31999913E-3,-35.19999981E-3,,,,,48.31999913E-3,4.55999994,
,,,48.32999781E-3,-31.99999779E-3,,,,,48.32999781E-3,4.55999994,
,,,48.34000021E-3,-21.59999870E-3,,,,,48.34000021E-3,4.55999994,
,,,48.34999889E-3,-14.3999998E-3,,,,,48.34999889E-3,4.55999994,
,,,48.35999757E-3,-8.799999952E-3,,,,,48.35999757E-3,4.55999994,
,,,48.36999997E-3,-799.999979790E-6,,,,,48.36999997E-3,4.55999994,
,,,48.37999865E-3,5.59999980E-3,,,,,48.37999865E-3,4.63999987,
,,,48.39000106E-3,14.3999998E-3,,,,,48.39000106E-3,4.55999994,
,,,48.39999974E-3,21.59999870E-3,,,,,48.39999974E-3,4.63999987,
,,,48.40999842E-3,27.99999900E-3,,,,,48.40999842E-3,4.63999987,
,,,48.42000082E-3,33.59999880E-3,,,,,48.42000082E-3,4.63999987,
,,,48.42999950E-3,37.59999946E-3,,,,,48.42999950E-3,4.63999987,
,,,48.43999818E-3,44.79999840E-3,,,,,48.43999818E-3,4.55999994,
,,,48.45000058E-3,51.99999735E-3,,,,,48.45000058E-3,4.63999987,
,,,48.45999926E-3,55.199999362E-3,,,,,48.45999926E-3,4.63999987,
,,,48.46999794E-3,61.599999666E-3,,,,,48.46999794E-3,4.63999987,
,,,48.48000035E-3,63.999995589E-3,,,,,48.48000035E-3,4.63999987,
,,,48.48999903E-3,63.199996948E-3,,,,,48.48999903E-3,4.55999994,
,,,48.49999771E-3,68.799994886E-3,,,,,48.49999771E-3,4.55999994,
,,,48.51000011E-3,68.799994886E-3,,,,,48.51000011E-3,4.55999994,
,,,48.51999879E-3,69.600000978E-3,,,,,48.51999879E-3,4.55999994,
,,,48.53000119E-3,69.600000978E-3,,,,,48.53000119E-3,4.48000002,
,,,48.53999987E-3,69.600000978E-3,,,,,48.53999987E-3,4.48000002,
,,,48.54999855E-3,67.199997604E-3,,,,,48.54999855E-3,4.40000010,
,,,48.56000096E-3,62.399998307E-3,,,,,48.56000096E-3,4.31999969,
,,,48.56999964E-3,63.999995589E-3,,,,,48.56999964E-3,4.23999977,
,,,48.57999831E-3,65.600000322E-3,,,,,48.57999831E-3,4.15999985,
,,,48.59000072E-3,63.999995589E-3,,,,,48.59000072E-3,4.00000000,
,,,48.59999940E-3,63.999995589E-3,,,,,48.59999940E-3,3.91999984,
,,,48.60999808E-3,62.399998307E-3,,,,,48.60999808E-3,3.83999991,
,,,48.62000048E-3,62.399998307E-3,,,,,48.62000048E-3,3.75999999,
,,,48.62999916E-3,62.399998307E-3,,,,,48.62999916E-3,3.59999990,
,,,48.63999784E-3,59.200000018E-3,,,,,48.63999784E-3,3.59999990,
,,,48.65000024E-3,59.200000018E-3,,,,,48.65000024E-3,3.43999982,
,,,48.65999892E-3,59.999998659E-3,,,,,48.65999892E-3,3.27999997,
,,,48.66999760E-3,57.599999011E-3,,,,,48.66999760E-3,3.19999981,
,,,48.68000001E-3,54.39999700E-3,,,,,48.68000001E-3,3.03999996,
,,,48.68999869E-3,55.999998003E-3,,,,,48.68999869E-3,2.96000004,
,,,48.70000109E-3,55.999998003E-3,,,,,48.70000109E-3,2.79999995,
,,,48.70999977E-3,54.39999700E-3,,,,,48.70999977E-3,2.6399999,
,,,48.71999845E-3,54.39999700E-3,,,,,48.71999845E-3,2.5599999,
,,,48.73000085E-3,52.79999971E-3,,,,,48.73000085E-3,2.3999999,
,,,48.73999953E-3,50.40000007E-3,,,,,48.73999953E-3,2.3199999,
,,,48.74999821E-3,48.79999906E-3,,,,,48.74999821E-3,2.0799999,
,,,48.76000062E-3,49.59999770E-3,,,,,48.76000062E-3,1.9200000,
,,,48.76999930E-3,48.00000042E-3,,,,,48.76999930E-3,1.8399999,
,,,48.77999797E-3,48.79999906E-3,,,,,48.77999797E-3,1.6799999,
,,,48.79000038E-3,48.79999906E-3,,,,,48.79000038E-3,1.5200000,
,,,48.79999906E-3,44.79999840E-3,,,,,48.79999906E-3,1.3600000,
,,,48.80999774E-3,42.39999875E-3,,,,,48.80999774E-3,1.1999999,
,,,48.82000014E-3,45.59999704E-3,,,,,48.82000014E-3,1.0400000,
,,,48.82999882E-3,42.39999875E-3,,,,,48.82999882E-3,879.999995232E-3,
,,,48.84000123E-3,45.59999704E-3,,,,,48.84000123E-3,719.999969006E-3,
,,,48.84999990E-3,40.79999775E-3,,,,,48.84999990E-3,560.000002384E-3,
,,,48.85999858E-3,39.20000046E-3,,,,,48.85999858E-3,479.999989271E-3,
,,,48.87000099E-3,41.60000011E-3,,,,,48.87000099E-3,239.99999464E-3,
,,,48.87999967E-3,39.99999911E-3,,,,,48.87999967E-3,79.999998212E-3,
,,,48.88999835E-3,39.99999911E-3,,,,,48.88999835E-3,-79.999998212E-3,
,,,48.90000075E-3,39.99999911E-3,,,,,48.90000075E-3,-239.99999464E-3,
,,,48.90999943E-3,36.80000082E-3,,,,,48.90999943E-3,-319.99999285E-3,
,,,48.91999811E-3,34.39999744E-3,,,,,48.91999811E-3,-560.000002384E-3,
,,,48.93000051E-3,33.59999880E-3,,,,,48.93000051E-3,-639.999985695E-3,
,,,48.93999919E-3,34.39999744E-3,,,,,48.93999919E-3,-879.999995232E-3,
,,,48.94999787E-3,35.19999981E-3,,,,,48.94999787E-3,-959.999978542E-3,
,,,48.96000028E-3,30.39999865E-3,,,,,48.96000028E-3,-1.1200000,
,,,48.96999896E-3,31.19999915E-3,,,,,48.96999896E-3,-1.2800000,
,,,48.97999763E-3,31.19999915E-3,,,,,48.97999763E-3,-1.4399999,
,,,48.99000004E-3,29.60000001E-3,,,,,48.99000004E-3,-1.5999999,
,,,48.99999872E-3,29.60000001E-3,,,,,48.99999872E-3,-1.7600000,
,,,49.01000112E-3,27.99999900E-3,,,,,49.01000112E-3,-1.8399999,
,,,49.01999980E-3,27.19999850E-3,,,,,49.01999980E-3,-2.0000000,
,,,49.02999848E-3,25.59999935E-3,,,,,49.02999848E-3,-2.1599998,
,,,49.04000089E-3,25.59999935E-3,,,,,49.04000089E-3,-2.3199999,
,,,49.04999956E-3,24.79999885E-3,,,,,49.04999956E-3,-2.4800000,
,,,49.05999824E-3,23.19999970E-3,,,,,49.05999824E-3,-2.5599999,
,,,49.07000065E-3,24.00000021E-3,,,,,49.07000065E-3,-2.72000003,
,,,49.07999933E-3,23.19999970E-3,,,,,49.07999933E-3,-2.87999988,
,,,49.08999801E-3,22.39999920E-3,,,,,49.08999801E-3,-2.96000004,
,,,49.10000041E-3,20.80000006E-3,,,,,49.10000041E-3,-3.11999989,
,,,49.10999909E-3,19.9999996E-3,,,,,49.10999909E-3,-3.19999981,
,,,49.11999777E-3,19.9999996E-3,,,,,49.11999777E-3,-3.35999990,
,,,49.13000017E-3,20.80000006E-3,,,,,49.13000017E-3,-3.43999982,
,,,49.13999885E-3,15.9999989E-3,,,,,49.13999885E-3,-3.59999990,
,,,49.14999753E-3,15.1999993E-3,,,,,49.14999753E-3,-3.67999983,
,,,49.15999994E-3,12.7999997E-3,,,,,49.15999994E-3,-3.75999999,
,,,49.16999862E-3,14.3999998E-3,,,,,49.16999862E-3,-3.91999984,
,,,49.18000102E-3,17.5999999E-3,,,,,49.18000102E-3,-4.00000000,
,,,49.18999970E-3,13.5999992E-3,,,,,49.18999970E-3,-4.07999992,
,,,49.19999838E-3,12.7999997E-3,,,,,49.19999838E-3,-4.15999985,
,,,49.21000078E-3,14.3999998E-3,,,,,49.21000078E-3,-4.23999977,
,,,49.21999946E-3,8.799999952E-3,,,,,49.21999946E-3,-4.31999969,
,,,49.22999814E-3,11.1999996E-3,,,,,49.22999814E-3,-4.40000010,
,,,49.24000055E-3,9.599999525E-3,,,,,49.24000055E-3,-4.48000002,
,,,49.24999923E-3,6.39999984E-3,,,,,49.24999923E-3,-4.55999994,
,,,49.25999790E-3,6.39999984E-3,,,,,49.25999790E-3,-4.63999987,
,,,49.27000031E-3,7.999999449E-3,,,,,49.27000031E-3,-4.71999979,
,,,49.27999899E-3,6.39999984E-3,,,,,49.27999899E-3,-4.71999979,
,,,49.28999767E-3,4.79999976E-3,,,,,49.28999767E-3,-4.71999979,
,,,49.30000007E-3,3.19999992E-3,,,,,49.30000007E-3,-4.79999971,
,,,49.30999875E-3,4.79999976E-3,,,,,49.30999875E-3,-4.88000011,
,,,49.32000116E-3,6.39999984E-3,,,,,49.32000116E-3,-4.88000011,
,,,49.32999983E-3,3.19999992E-3,,,,,49.32999983E-3,-4.96000004,
,,,49.33999851E-3,0.0,,,,,49.33999851E-3,-4.96000004,
,,,49.35000092E-3,-799.999979790E-6,,,,,49.35000092E-3,-4.96000004,
,,,49.35999960E-3,0.0,,,,,49.35999960E-3,-4.96000004,
,,,49.36999828E-3,4.79999976E-3,,,,,49.36999828E-3,-5.03999996,
,,,49.38000068E-3,-2.3999999E-3,,,,,49.38000068E-3,-5.03999996,
,,,49.38999936E-3,0.0,,,,,49.38999936E-3,-5.03999996,
,,,49.39999804E-3,-3.19999992E-3,,,,,49.39999804E-3,-4.96000004,
,,,49.41000044E-3,-3.99999972E-3,,,,,49.41000044E-3,-4.96000004,
,,,49.41999912E-3,-7.19999988E-3,,,,,49.41999912E-3,-4.96000004,
,,,49.42999780E-3,-7.19999988E-3,,,,,49.42999780E-3,-4.96000004,
,,,49.44000021E-3,-5.59999980E-3,,,,,49.44000021E-3,-4.96000004,
,,,49.44999889E-3,-9.599999525E-3,,,,,49.44999889E-3,-4.96000004,
,,,49.45999756E-3,-8.799999952E-3,,,,,49.45999756E-3,-4.88000011,
,,,49.46999997E-3,-8.799999952E-3,,,,,49.46999997E-3,-4.88000011,
,,,49.47999865E-3,-12.7999997E-3,,,,,49.47999865E-3,-4.79999971,
,,,49.49000105E-3,-9.599999525E-3,,,,,49.49000105E-3,-4.71999979,
,,,49.49999973E-3,-11.1999996E-3,,,,,49.49999973E-3,-4.71999979,
,,,49.50999841E-3,-11.1999996E-3,,,,,49.50999841E-3,-4.63999987,
,,,49.52000082E-3,-11.1999996E-3,,,,,49.52000082E-3,-4.63999987,
,,,49.52999949E-3,-12.7999997E-3,,,,,49.52999949E-3,-4.55999994,
,,,49.53999817E-3,-12.7999997E-3,,,,,49.53999817E-3,-4.48000002,
,,,49.55000058E-3,-17.5999999E-3,,,,,49.55000058E-3,-4.40000010,
,,,49.55999926E-3,-17.5999999E-3,,,,,49.55999926E-3,-4.31999969,
,,,49.56999794E-3,-16.7999994E-3,,,,,49.56999794E-3,-4.23999977,
,,,49.58000034E-3,-20.80000006E-3,,,,,49.58000034E-3,-4.15999985,
,,,49.58999902E-3,-19.9999996E-3,,,,,49.58999902E-3,-4.07999992,
,,,49.59999770E-3,-18.4000004E-3,,,,,49.59999770E-3,-4.00000000,
,,,49.61000010E-3,-17.5999999E-3,,,,,49.61000010E-3,-3.83999991,
,,,49.61999878E-3,-18.4000004E-3,,,,,49.61999878E-3,-3.75999999,
,,,49.63000119E-3,-19.1999990E-3,,,,,49.63000119E-3,-3.67999983,
,,,49.63999987E-3,-24.00000021E-3,,,,,49.63999987E-3,-3.51999998,
,,,49.64999855E-3,-23.19999970E-3,,,,,49.64999855E-3,-3.43999982,
,,,49.66000095E-3,-26.39999986E-3,,,,,49.66000095E-3,-3.27999997,
,,,49.66999963E-3,-22.39999920E-3,,,,,49.66999963E-3,-3.19999981,
,,,49.67999831E-3,-27.19999850E-3,,,,,49.67999831E-3,-3.03999996,
,,,49.69000071E-3,-26.39999986E-3,,,,,49.69000071E-3,-2.96000004,
,,,49.69999939E-3,-24.00000021E-3,,,,,49.69999939E-3,-2.79999995,
,,,49.70999807E-3,-28.79999951E-3,,,,,49.70999807E-3,-2.6399999,
,,,49.72000048E-3,-31.19999915E-3,,,,,49.72000048E-3,-2.4800000,
,,,49.72999915E-3,-30.39999865E-3,,,,,49.72999915E-3,-2.3999999,
,,,49.73999783E-3,-30.39999865E-3,,,,,49.73999783E-3,-2.2400000,
,,,49.75000024E-3,-27.99999900E-3,,,,,49.75000024E-3,-2.0799999,
,,,49.75999892E-3,-32.80000016E-3,,,,,49.75999892E-3,-1.9200000,
,,,49.76999760E-3,-35.99999845E-3,,,,,49.76999760E-3,-1.8399999,
,,,49.78000000E-3,-34.39999744E-3,,,,,49.78000000E-3,-1.6799999,
,,,49.78999868E-3,-31.99999779E-3,,,,,49.78999868E-3,-1.5200000,
,,,49.80000108E-3,-36.80000082E-3,,,,,49.80000108E-3,-1.3600000,
,,,49.80999976E-3,-33.59999880E-3,,,,,49.80999976E-3,-1.1999999,
,,,49.81999844E-3,-35.19999981E-3,,,,,49.81999844E-3,-1.0400000,
,,,49.83000085E-3,-39.99999911E-3,,,,,49.83000085E-3,-879.999995232E-3,
,,,49.83999953E-3,-36.80000082E-3,,,,,49.83999953E-3,-719.999969006E-3,
,,,49.84999821E-3,-39.20000046E-3,,,,,49.84999821E-3,-639.999985695E-3,
,,,49.86000061E-3,-38.39999810E-3,,,,,49.86000061E-3,-479.999989271E-3,
,,,49.86999929E-3,-39.20000046E-3,,,,,49.86999929E-3,-319.99999285E-3,
,,,49.87999797E-3,-39.20000046E-3,,,,,49.87999797E-3,-159.99999642E-3,
,,,49.89000037E-3,-45.59999704E-3,,,,,49.89000037E-3,0.0,
,,,49.89999905E-3,-43.19999740E-3,,,,,49.89999905E-3,239.99999464E-3,
,,,49.90999773E-3,-44.79999840E-3,,,,,49.90999773E-3,399.99997616E-3,
,,,49.92000014E-3,-45.59999704E-3,,,,,49.92000014E-3,479.999989271E-3,
,,,49.92999882E-3,-48.00000042E-3,,,,,49.92999882E-3,639.999985695E-3,
,,,49.93999749E-3,-46.39999941E-3,,,,,49.93999749E-3,799.999952316E-3,
,,,49.94999990E-3,-46.39999941E-3,,,,,49.94999990E-3,959.999978542E-3,
,,,49.95999858E-3,-48.79999906E-3,,,,,49.95999858E-3,1.1200000,
,,,49.97000098E-3,-48.00000042E-3,,,,,49.97000098E-3,1.2800000,
,,,49.97999966E-3,-47.19999805E-3,,,,,49.97999966E-3,1.4399999,
,,,49.98999834E-3,-49.59999770E-3,,,,,49.98999834E-3,1.5999999,
,,,50.00000075E-3,-50.40000007E-3,,,,,50.00000075E-3,1.7600000,
,,,50.00999942E-3,-50.40000007E-3,,,,,50.00999942E-3,1.9200000,
,,,50.01999810E-3,-51.99999735E-3,,,,,50.01999810E-3,2.0000000,
,,,50.03000051E-3,-53.59999835E-3,,,,,50.03000051E-3,2.2400000,
,,,50.03999919E-3,-52.79999971E-3,,,,,50.03999919E-3,2.3199999,
,,,50.04999787E-3,-55.999998003E-3,,,,,50.04999787E-3,2.3999999,
,,,50.06000027E-3,-55.999998003E-3,,,,,50.06000027E-3,2.6399999,
,,,50.06999895E-3,-57.599999011E-3,,,,,50.06999895E-3,2.72000003,
,,,50.07999763E-3,-59.200000018E-3,,,,,50.07999763E-3,2.87999988,
,,,50.09000003E-3,-58.399997652E-3,,,,,50.09000003E-3,2.96000004,
,,,50.09999871E-3,-60.799997300E-3,,,,,50.09999871E-3,3.11999989,
,,,50.11000112E-3,-59.200000018E-3,,,,,50.11000112E-3,3.27999997,
,,,50.11999980E-3,-59.200000018E-3,,,,,50.11999980E-3,3.35999990,
,,,50.12999848E-3,-59.999998659E-3,,,,,50.12999848E-3,3.43999982,
,,,50.14000088E-3,-60.799997300E-3,,,,,50.14000088E-3,3.59999990,
,,,50.14999956E-3,-63.199996948E-3,,,,,50.14999956E-3,3.67999983,
,,,50.15999824E-3,-63.999995589E-3,,,,,50.15999824E-3,3.75999999,
,,,50.17000064E-3,-63.999995589E-3,,,,,50.17000064E-3,3.83999991,
,,,50.17999932E-3,-65.600000322E-3,,,,,50.17999932E-3,4.00000000,
,,,50.18999800E-3,-67.199997604E-3,,,,,50.18999800E-3,4.07999992,
,,,50.20000041E-3,-65.600000322E-3,,,,,50.20000041E-3,4.15999985,
,,,50.20999908E-3,-68.799994886E-3,,,,,50.20999908E-3,4.23999977,
,,,50.21999776E-3,-70.399999619E-3,,,,,50.21999776E-3,4.31999969,
,,,50.23000017E-3,-67.199997604E-3,,,,,50.23000017E-3,4.40000010,
,,,50.23999885E-3,-64.800001681E-3,,,,,50.23999885E-3,4.40000010,
,,,50.24999753E-3,-65.600000322E-3,,,,,50.24999753E-3,4.40000010,
,,,50.25999993E-3,-61.599999666E-3,,,,,50.25999993E-3,4.48000002,
,,,50.26999861E-3,-63.199996948E-3,,,,,50.26999861E-3,4.48000002,
,,,50.28000101E-3,-60.799997300E-3,,,,,50.28000101E-3,4.48000002,
,,,50.28999969E-3,-55.199999362E-3,,,,,50.28999969E-3,4.55999994,
,,,50.29999837E-3,-48.79999906E-3,,,,,50.29999837E-3,4.55999994,
,,,50.31000078E-3,-45.59999704E-3,,,,,50.31000078E-3,4.55999994,
,,,50.31999946E-3,-39.20000046E-3,,,,,50.31999946E-3,4.55999994,
,,,50.32999814E-3,-32.80000016E-3,,,,,50.32999814E-3,4.55999994,
,,,50.34000054E-3,-24.79999885E-3,,,,,50.34000054E-3,4.55999994,
,,,50.34999922E-3,-19.9999996E-3,,,,,50.34999922E-3,4.55999994,
,,,50.35999790E-3,-12.7999997E-3,,,,,50.35999790E-3,4.55999994,
,,,50.37000030E-3,-3.19999992E-3,,,,,50.37000030E-3,4.55999994,
,,,50.37999898E-3,6.39999984E-3,,,,,50.37999898E-3,4.55999994,
,,,50.38999766E-3,15.1999993E-3,,,,,50.38999766E-3,4.55999994,
,,,50.40000007E-3,20.80000006E-3,,,,,50.40000007E-3,4.63999987,
,,,50.40999874E-3,28.79999951E-3,,,,,50.40999874E-3,4.63999987,
,,,50.42000115E-3,31.99999779E-3,,,,,50.42000115E-3,4.63999987,
,,,50.42999983E-3,40.79999775E-3,,,,,50.42999983E-3,4.63999987,
,,,50.43999851E-3,47.19999805E-3,,,,,50.43999851E-3,4.63999987,
,,,50.45000091E-3,53.59999835E-3,,,,,50.45000091E-3,4.63999987,
