Informe-4/Rectificador de media onda/AC 50hz.csv

Record Length,2500,Points,9.999999776E-3,140.0000006E-3,,Record Length,2500,Points,9.999999776E-3,-1.6799999,
Sample Interval,39.99999899E-6,s,10.0400001E-3,159.99999642E-3,,Sample Interval,39.99999899E-6,s,10.0400001E-3,-1.7600000,
Trigger Point,-250.00000073,Samples,10.0799995E-3,140.0000006E-3,,Trigger Point,-250.00000073,Samples,10.0799995E-3,-1.8399999,
,,,10.1199998E-3,140.0000006E-3,,,,,10.1199998E-3,-1.8399999,
,,,10.1600001E-3,140.0000006E-3,,,,,10.1600001E-3,-1.9200000,
,,,10.1999994E-3,140.0000006E-3,,,,,10.1999994E-3,-1.9200000,
Source,CH1,,10.2399997E-3,119.9999973E-3,,Source,CH2,,10.2399997E-3,-2.0000000,
Vertical Units,Volts,,10.2800000E-3,119.9999973E-3,,Vertical Units,Volts,,10.2800000E-3,-2.0799999,
Vertical Scale,499.999988824E-3,,10.3199994E-3,119.9999973E-3,,Vertical Scale,2.0000000,,10.3199994E-3,-2.1599998,
Vertical Offset,0,,10.3599997E-3,119.9999973E-3,,Vertical Offset,0,,10.3599997E-3,-2.1599998,
Horizontal Units,s,,10.4000000E-3,119.9999973E-3,,Horizontal Units,s,,10.4000000E-3,-2.2400000,
Horizontal Scale,9.999999747E-3,,10.4399994E-3,119.9999973E-3,,Horizontal Scale,9.999999747E-3,,10.4399994E-3,-2.3199999,
Pt Fmt,Y,,10.4799997E-3,99.999994040E-3,,Pt Fmt,Y,,10.4799997E-3,-2.3999999,
Yzero,80.000000000E-3,,10.5200000E-3,99.999994040E-3,,Yzero,0.0,,10.5200000E-3,-2.3999999,
Probe Atten,1.000000,,10.5599994E-3,99.999994040E-3,,Probe Atten,1.000000,,10.5599994E-3,-2.4800000,
,,,10.5999997E-3,99.999994040E-3,,,,,10.5999997E-3,-2.5599999,
Note,TBS 1052B-EDU - 12:43:34 p.m.   19/02/2016,,10.6400000E-3,99.999994040E-3,,Note,TBS 1052B-EDU - 12:43:34 p.m.   19/02/2016,,10.6400000E-3,-2.5599999,
,,,10.6799994E-3,99.999994040E-3,,,,,10.6799994E-3,-2.6399999,
,,,10.7199997E-3,79.999998212E-3,,,,,10.7199997E-3,-2.72000003,
,,,10.7600000E-3,79.999998212E-3,,,,,10.7600000E-3,-2.72000003,
,,,10.7999993E-3,79.999998212E-3,,,,,10.7999993E-3,-2.79999995,
,,,10.8399997E-3,79.999998212E-3,,,,,10.8399997E-3,-2.87999988,
,,,10.8800000E-3,79.999998212E-3,,,,,10.8800000E-3,-2.87999988,
,,,10.9199993E-3,79.999998212E-3,,,,,10.9199993E-3,-2.96000004,
,,,10.9599996E-3,59.999998659E-3,,,,,10.9599996E-3,-3.03999996,
,,,10.9999999E-3,59.999998659E-3,,,,,10.9999999E-3,-3.11999989,
,,,11.0399993E-3,59.999998659E-3,,,,,11.0399993E-3,-3.11999989,
,,,11.0799996E-3,59.999998659E-3,,,,,11.0799996E-3,-3.19999981,
,,,11.1199999E-3,59.999998659E-3,,,,,11.1199999E-3,-3.19999981,
,,,11.1599993E-3,59.999998659E-3,,,,,11.1599993E-3,-3.27999997,
,,,11.1999996E-3,59.999998659E-3,,,,,11.1999996E-3,-3.35999990,
,,,11.2399999E-3,39.99999911E-3,,,,,11.2399999E-3,-3.35999990,
,,,11.2800002E-3,39.99999911E-3,,,,,11.2800002E-3,-3.35999990,
,,,11.3199996E-3,39.99999911E-3,,,,,11.3199996E-3,-3.43999982,
,,,11.3599999E-3,39.99999911E-3,,,,,11.3599999E-3,-3.51999998,
,,,11.4000002E-3,39.99999911E-3,,,,,11.4000002E-3,-3.51999998,
,,,11.4399996E-3,39.99999911E-3,,,,,11.4399996E-3,-3.59999990,
,,,11.4799999E-3,19.9999996E-3,,,,,11.4799999E-3,-3.59999990,
,,,11.5200002E-3,19.9999996E-3,,,,,11.5200002E-3,-3.67999983,
,,,11.5599995E-3,19.9999996E-3,,,,,11.5599995E-3,-3.75999999,
,,,11.5999999E-3,19.9999996E-3,,,,,11.5999999E-3,-3.75999999,
,,,11.6400002E-3,19.9999996E-3,,,,,11.6400002E-3,-3.83999991,
,,,11.6799995E-3,0.0,,,,,11.6799995E-3,-3.83999991,
,,,11.7199998E-3,0.0,,,,,11.7199998E-3,-3.91999984,
,,,11.7600001E-3,0.0,,,,,11.7600001E-3,-3.91999984,
,,,11.7999995E-3,0.0,,,,,11.7999995E-3,-4.00000000,
,,,11.8399998E-3,0.0,,,,,11.8399998E-3,-4.00000000,
,,,11.8800001E-3,0.0,,,,,11.8800001E-3,-4.07999992,
,,,11.9199995E-3,0.0,,,,,11.9199995E-3,-4.07999992,
,,,11.9599998E-3,0.0,,,,,11.9599998E-3,-4.15999985,
,,,12.0000001E-3,-19.9999996E-3,,,,,12.0000001E-3,-4.15999985,
,,,12.0399995E-3,0.0,,,,,12.0399995E-3,-4.15999985,
,,,12.0799998E-3,-19.9999996E-3,,,,,12.0799998E-3,-4.23999977,
,,,12.1200001E-3,-19.9999996E-3,,,,,12.1200001E-3,-4.23999977,
,,,12.1599995E-3,-19.9999996E-3,,,,,12.1599995E-3,-4.31999969,
,,,12.1999998E-3,-19.9999996E-3,,,,,12.1999998E-3,-4.31999969,
,,,12.2400001E-3,-19.9999996E-3,,,,,12.2400001E-3,-4.40000010,
,,,12.2799994E-3,-19.9999996E-3,,,,,12.2799994E-3,-4.40000010,
,,,12.3199997E-3,-39.99999911E-3,,,,,12.3199997E-3,-4.40000010,
,,,12.3600001E-3,-39.99999911E-3,,,,,12.3600001E-3,-4.48000002,
,,,12.3999994E-3,-39.99999911E-3,,,,,12.3999994E-3,-4.48000002,
,,,12.4399997E-3,-39.99999911E-3,,,,,12.4399997E-3,-4.48000002,
,,,12.4800000E-3,-59.999998659E-3,,,,,12.4800000E-3,-4.55999994,
,,,12.5199994E-3,-59.999998659E-3,,,,,12.5199994E-3,-4.55999994,
,,,12.5599997E-3,-39.99999911E-3,,,,,12.5599997E-3,-4.55999994,
,,,12.6000000E-3,-59.999998659E-3,,,,,12.6000000E-3,-4.63999987,
,,,12.6399994E-3,-59.999998659E-3,,,,,12.6399994E-3,-4.63999987,
,,,12.6799997E-3,-59.999998659E-3,,,,,12.6799997E-3,-4.63999987,
,,,12.7200000E-3,-59.999998659E-3,,,,,12.7200000E-3,-4.71999979,
,,,12.7599994E-3,-79.999998212E-3,,,,,12.7599994E-3,-4.71999979,
,,,12.7999997E-3,-59.999998659E-3,,,,,12.7999997E-3,-4.71999979,
,,,12.8400000E-3,-79.999998212E-3,,,,,12.8400000E-3,-4.71999979,
,,,12.8799994E-3,-79.999998212E-3,,,,,12.8799994E-3,-4.71999979,
,,,12.9199997E-3,-79.999998212E-3,,,,,12.9199997E-3,-4.79999971,
,,,12.9600000E-3,-79.999998212E-3,,,,,12.9600000E-3,-4.79999971,
,,,12.9999993E-3,-79.999998212E-3,,,,,12.9999993E-3,-4.79999971,
,,,13.0399996E-3,-79.999998212E-3,,,,,13.0399996E-3,-4.79999971,
,,,13.0799999E-3,-99.999994040E-3,,,,,13.0799999E-3,-4.88000011,
,,,13.1199993E-3,-99.999994040E-3,,,,,13.1199993E-3,-4.88000011,
,,,13.1599996E-3,-99.999994040E-3,,,,,13.1599996E-3,-4.88000011,
,,,13.1999999E-3,-99.999994040E-3,,,,,13.1999999E-3,-4.88000011,
,,,13.2399993E-3,-99.999994040E-3,,,,,13.2399993E-3,-4.88000011,
,,,13.2799996E-3,-119.9999973E-3,,,,,13.2799996E-3,-4.96000004,
,,,13.3199999E-3,-99.999994040E-3,,,,,13.3199999E-3,-4.96000004,
,,,13.3599993E-3,-99.999994040E-3,,,,,13.3599993E-3,-4.96000004,
,,,13.3999996E-3,-119.9999973E-3,,,,,13.3999996E-3,-4.96000004,
,,,13.4399999E-3,-119.9999973E-3,,,,,13.4399999E-3,-4.96000004,
,,,13.4799993E-3,-119.9999973E-3,,,,,13.4799993E-3,-4.96000004,
,,,13.5199996E-3,-119.9999973E-3,,,,,13.5199996E-3,-4.96000004,
,,,13.5599999E-3,-119.9999973E-3,,,,,13.5599999E-3,-4.96000004,
,,,13.5999992E-3,-119.9999973E-3,,,,,13.5999992E-3,-4.96000004,
,,,13.6399996E-3,-140.0000006E-3,,,,,13.6399996E-3,-5.03999996,
,,,13.6799999E-3,-140.0000006E-3,,,,,13.6799999E-3,-5.03999996,
,,,13.7199992E-3,-140.0000006E-3,,,,,13.7199992E-3,-5.03999996,
,,,13.7599995E-3,-140.0000006E-3,,,,,13.7599995E-3,-5.03999996,
,,,13.7999998E-3,-140.0000006E-3,,,,,13.7999998E-3,-5.03999996,
,,,13.8399992E-3,-140.0000006E-3,,,,,13.8399992E-3,-5.03999996,
,,,13.8799995E-3,-159.99999642E-3,,,,,13.8799995E-3,-5.03999996,
,,,13.9199998E-3,-140.0000006E-3,,,,,13.9199998E-3,-5.03999996,
,,,13.9600001E-3,-159.99999642E-3,,,,,13.9600001E-3,-5.03999996,
,,,13.9999995E-3,-159.99999642E-3,,,,,13.9999995E-3,-5.03999996,
,,,14.0399998E-3,-159.99999642E-3,,,,,14.0399998E-3,-5.03999996,
,,,14.0800001E-3,-159.99999642E-3,,,,,14.0800001E-3,-5.03999996,
,,,14.1199995E-3,-159.99999642E-3,,,,,14.1199995E-3,-5.03999996,
,,,14.1599998E-3,-159.99999642E-3,,,,,14.1599998E-3,-4.96000004,
,,,14.2000001E-3,-179.99999225E-3,,,,,14.2000001E-3,-5.03999996,
,,,14.2399995E-3,-179.99999225E-3,,,,,14.2399995E-3,-4.96000004,
,,,14.2799998E-3,-159.99999642E-3,,,,,14.2799998E-3,-4.96000004,
,,,14.3200001E-3,-179.99999225E-3,,,,,14.3200001E-3,-4.96000004,
,,,14.3599994E-3,-179.99999225E-3,,,,,14.3599994E-3,-4.96000004,
,,,14.3999998E-3,-179.99999225E-3,,,,,14.3999998E-3,-4.96000004,
,,,14.4400001E-3,-179.99999225E-3,,,,,14.4400001E-3,-4.96000004,
,,,14.4799994E-3,-179.99999225E-3,,,,,14.4799994E-3,-4.96000004,
,,,14.5199997E-3,-179.99999225E-3,,,,,14.5199997E-3,-4.96000004,
,,,14.5600000E-3,-179.99999225E-3,,,,,14.5600000E-3,-4.96000004,
,,,14.5999994E-3,-199.99998808E-3,,,,,14.5999994E-3,-4.88000011,
,,,14.6399997E-3,-179.99999225E-3,,,,,14.6399997E-3,-4.88000011,
,,,14.6800000E-3,-199.99998808E-3,,,,,14.6800000E-3,-4.88000011,
,,,14.7199994E-3,-199.99998808E-3,,,,,14.7199994E-3,-4.88000011,
,,,14.7599997E-3,-199.99998808E-3,,,,,14.7599997E-3,-4.88000011,
,,,14.8000000E-3,-199.99998808E-3,,,,,14.8000000E-3,-4.79999971,
,,,14.8399994E-3,-199.99998808E-3,,,,,14.8399994E-3,-4.79999971,
,,,14.8799997E-3,-219.99999881E-3,,,,,14.8799997E-3,-4.79999971,
,,,14.9200000E-3,-199.99998808E-3,,,,,14.9200000E-3,-4.71999979,
,,,14.9599994E-3,-219.99999881E-3,,,,,14.9599994E-3,-4.71999979,
,,,14.9999997E-3,-219.99999881E-3,,,,,14.9999997E-3,-4.71999979,
,,,15.0400000E-3,-219.99999881E-3,,,,,15.0400000E-3,-4.71999979,
,,,15.0799993E-3,-219.99999881E-3,,,,,15.0799993E-3,-4.63999987,
,,,15.1199996E-3,-219.99999881E-3,,,,,15.1199996E-3,-4.63999987,
,,,15.1600000E-3,-219.99999881E-3,,,,,15.1600000E-3,-4.63999987,
,,,15.1999993E-3,-239.99999464E-3,,,,,15.1999993E-3,-4.63999987,
,,,15.2399996E-3,-239.99999464E-3,,,,,15.2399996E-3,-4.63999987,
,,,15.2799999E-3,-219.99999881E-3,,,,,15.2799999E-3,-4.55999994,
,,,15.3199993E-3,-239.99999464E-3,,,,,15.3199993E-3,-4.55999994,
,,,15.3599996E-3,-239.99999464E-3,,,,,15.3599996E-3,-4.48000002,
,,,15.3999999E-3,-239.99999464E-3,,,,,15.3999999E-3,-4.48000002,
,,,15.4399993E-3,-239.99999464E-3,,,,,15.4399993E-3,-4.48000002,
,,,15.4799996E-3,-239.99999464E-3,,,,,15.4799996E-3,-4.48000002,
,,,15.5199999E-3,-239.99999464E-3,,,,,15.5199999E-3,-4.40000010,
,,,15.5599993E-3,-259.99999046E-3,,,,,15.5599993E-3,-4.40000010,
,,,15.5999996E-3,-259.99999046E-3,,,,,15.5999996E-3,-4.31999969,
,,,15.6399999E-3,-259.99999046E-3,,,,,15.6399999E-3,-4.31999969,
,,,15.6800002E-3,-259.99999046E-3,,,,,15.6800002E-3,-4.23999977,
,,,15.7200005E-3,-280.00000119E-3,,,,,15.7200005E-3,-4.23999977,
,,,15.7599989E-3,-259.99999046E-3,,,,,15.7599989E-3,-4.23999977,
,,,15.7999992E-3,-259.99999046E-3,,,,,15.7999992E-3,-4.15999985,
,,,15.8399995E-3,-280.00000119E-3,,,,,15.8399995E-3,-4.15999985,
,,,15.8799998E-3,-280.00000119E-3,,,,,15.8799998E-3,-4.07999992,
,,,15.9200002E-3,-280.00000119E-3,,,,,15.9200002E-3,-4.07999992,
,,,15.9600005E-3,-280.00000119E-3,,,,,15.9600005E-3,-4.07999992,
,,,15.9999989E-3,-280.00000119E-3,,,,,15.9999989E-3,-4.00000000,
,,,16.0399992E-3,-280.00000119E-3,,,,,16.0399992E-3,-3.91999984,
,,,16.0799995E-3,-280.00000119E-3,,,,,16.0799995E-3,-3.91999984,
,,,16.1199998E-3,-280.00000119E-3,,,,,16.1199998E-3,-3.91999984,
,,,16.1600001E-3,-299.99998212E-3,,,,,16.1600001E-3,-3.83999991,
,,,16.2000004E-3,-299.99998212E-3,,,,,16.2000004E-3,-3.83999991,
,,,16.2399989E-3,-299.99998212E-3,,,,,16.2399989E-3,-3.75999999,
,,,16.2799992E-3,-280.00000119E-3,,,,,16.2799992E-3,-3.75999999,
,,,16.3199995E-3,-299.99998212E-3,,,,,16.3199995E-3,-3.67999983,
,,,16.3599998E-3,-299.99998212E-3,,,,,16.3599998E-3,-3.59999990,
,,,16.4000001E-3,-299.99998212E-3,,,,,16.4000001E-3,-3.59999990,
,,,16.4400004E-3,-299.99998212E-3,,,,,16.4400004E-3,-3.51999998,
,,,16.4799988E-3,-319.99999285E-3,,,,,16.4799988E-3,-3.43999982,
,,,16.5199991E-3,-299.99998212E-3,,,,,16.5199991E-3,-3.43999982,
,,,16.5599994E-3,-299.99998212E-3,,,,,16.5599994E-3,-3.35999990,
,,,16.5999997E-3,-319.99999285E-3,,,,,16.5999997E-3,-3.35999990,
,,,16.6400000E-3,-319.99999285E-3,,,,,16.6400000E-3,-3.27999997,
,,,16.6800003E-3,-319.99999285E-3,,,,,16.6800003E-3,-3.27999997,
,,,16.7199988E-3,-319.99999285E-3,,,,,16.7199988E-3,-3.19999981,
,,,16.7599991E-3,-319.99999285E-3,,,,,16.7599991E-3,-3.11999989,
,,,16.7999994E-3,-319.99999285E-3,,,,,16.7999994E-3,-3.11999989,
,,,16.8399997E-3,-319.99999285E-3,,,,,16.8399997E-3,-3.03999996,
,,,16.8800000E-3,-340.00000358E-3,,,,,16.8800000E-3,-3.03999996,
,,,16.9200003E-3,-340.00000358E-3,,,,,16.9200003E-3,-2.96000004,
,,,16.9599988E-3,-340.00000358E-3,,,,,16.9599988E-3,-2.87999988,
,,,16.9999991E-3,-340.00000358E-3,,,,,16.9999991E-3,-2.87999988,
,,,17.0399994E-3,-340.00000358E-3,,,,,17.0399994E-3,-2.79999995,
,,,17.0799997E-3,-340.00000358E-3,,,,,17.0799997E-3,-2.72000003,
,,,17.1200000E-3,-340.00000358E-3,,,,,17.1200000E-3,-2.6399999,
,,,17.1600003E-3,-340.00000358E-3,,,,,17.1600003E-3,-2.6399999,
,,,17.1999987E-3,-340.00000358E-3,,,,,17.1999987E-3,-2.5599999,
,,,17.2399990E-3,-340.00000358E-3,,,,,17.2399990E-3,-2.4800000,
,,,17.2799993E-3,-359.99998450E-3,,,,,17.2799993E-3,-2.4800000,
,,,17.3199996E-3,-340.00000358E-3,,,,,17.3199996E-3,-2.3999999,
,,,17.3599999E-3,-340.00000358E-3,,,,,17.3599999E-3,-2.3999999,
,,,17.4000002E-3,-359.99998450E-3,,,,,17.4000002E-3,-2.3199999,
,,,17.4399987E-3,-359.99998450E-3,,,,,17.4399987E-3,-2.2400000,
,,,17.4799990E-3,-359.99998450E-3,,,,,17.4799990E-3,-2.2400000,
,,,17.5199993E-3,-359.99998450E-3,,,,,17.5199993E-3,-2.1599998,
,,,17.5599996E-3,-379.99999523E-3,,,,,17.5599996E-3,-2.0799999,
,,,17.5999999E-3,-359.99998450E-3,,,,,17.5999999E-3,-2.0000000,
,,,17.6400002E-3,-359.99998450E-3,,,,,17.6400002E-3,-1.9200000,
,,,17.6800005E-3,-379.99999523E-3,,,,,17.6800005E-3,-1.9200000,
,,,17.7199990E-3,-379.99999523E-3,,,,,17.7199990E-3,-1.8399999,
,,,17.7599993E-3,-379.99999523E-3,,,,,17.7599993E-3,-1.7600000,
,,,17.7999996E-3,-379.99999523E-3,,,,,17.7999996E-3,-1.7600000,
,,,17.8399999E-3,-379.99999523E-3,,,,,17.8399999E-3,-1.6799999,
,,,17.8800002E-3,-379.99999523E-3,,,,,17.8800002E-3,-1.5999999,
,,,17.9200005E-3,-379.99999523E-3,,,,,17.9200005E-3,-1.5200000,
,,,17.9599989E-3,-379.99999523E-3,,,,,17.9599989E-3,-1.5200000,
,,,17.9999992E-3,-379.99999523E-3,,,,,17.9999992E-3,-1.4399999,
,,,18.0399995E-3,-379.99999523E-3,,,,,18.0399995E-3,-1.3600000,
,,,18.0799998E-3,-399.99997616E-3,,,,,18.0799998E-3,-1.2800000,
,,,18.1200001E-3,-399.99997616E-3,,,,,18.1200001E-3,-1.1999999,
,,,18.1600004E-3,-399.99997616E-3,,,,,18.1600004E-3,-1.1999999,
,,,18.1999989E-3,-399.99997616E-3,,,,,18.1999989E-3,-1.1200000,
,,,18.2399992E-3,-379.99999523E-3,,,,,18.2399992E-3,-1.0400000,
,,,18.2799995E-3,-399.99997616E-3,,,,,18.2799995E-3,-1.0400000,
,,,18.3199998E-3,-399.99997616E-3,,,,,18.3199998E-3,-959.999978542E-3,
,,,18.3600001E-3,-399.99997616E-3,,,,,18.3600001E-3,-879.999995232E-3,
,,,18.4000004E-3,-399.99997616E-3,,,,,18.4000004E-3,-799.999952316E-3,
,,,18.4399989E-3,-399.99997616E-3,,,,,18.4399989E-3,-799.999952316E-3,
,,,18.4799992E-3,-399.99997616E-3,,,,,18.4799992E-3,-719.999969006E-3,
,,,18.5199995E-3,-419.999986887E-3,,,,,18.5199995E-3,-639.999985695E-3,
,,,18.5599998E-3,-419.999986887E-3,,,,,18.5599998E-3,-560.000002384E-3,
,,,18.6000001E-3,-419.999986887E-3,,,,,18.6000001E-3,-560.000002384E-3,
,,,18.6400004E-3,-419.999986887E-3,,,,,18.6400004E-3,-479.999989271E-3,
,,,18.6799988E-3,-419.999986887E-3,,,,,18.6799988E-3,-399.99997616E-3,
,,,18.7199991E-3,-419.999986887E-3,,,,,18.7199991E-3,-319.99999285E-3,
,,,18.7599994E-3,-419.999986887E-3,,,,,18.7599994E-3,-239.99999464E-3,
,,,18.7999997E-3,-419.999986887E-3,,,,,18.7999997E-3,-159.99999642E-3,
,,,18.8400000E-3,-439.999997616E-3,,,,,18.8400000E-3,-79.999998212E-3,
,,,18.8800003E-3,-439.999997616E-3,,,,,18.8800003E-3,-79.999998212E-3,
,,,18.9199988E-3,-419.999986887E-3,,,,,18.9199988E-3,0.0,
,,,18.9599991E-3,-439.999997616E-3,,,,,18.9599991E-3,79.999998212E-3,
,,,18.9999994E-3,-439.999997616E-3,,,,,18.9999994E-3,159.99999642E-3,
,,,19.0399997E-3,-439.999997616E-3,,,,,19.0399997E-3,159.99999642E-3,
,,,19.0800000E-3,-439.999997616E-3,,,,,19.0800000E-3,239.99999464E-3,
,,,19.1200003E-3,-439.999997616E-3,,,,,19.1200003E-3,319.99999285E-3,
,,,19.1599987E-3,-439.999997616E-3,,,,,19.1599987E-3,399.99997616E-3,
,,,19.1999990E-3,-439.999997616E-3,,,,,19.1999990E-3,399.99997616E-3,
,,,19.2399994E-3,-439.999997616E-3,,,,,19.2399994E-3,479.999989271E-3,
,,,19.2799997E-3,-439.999997616E-3,,,,,19.2799997E-3,560.000002384E-3,
,,,19.3200000E-3,-439.999997616E-3,,,,,19.3200000E-3,639.999985695E-3,
,,,19.3600003E-3,-439.999997616E-3,,,,,19.3600003E-3,719.999969006E-3,
,,,19.3999987E-3,-459.999978542E-3,,,,,19.3999987E-3,799.999952316E-3,
,,,19.4399990E-3,-459.999978542E-3,,,,,19.4399990E-3,799.999952316E-3,
,,,19.4799993E-3,-459.999978542E-3,,,,,19.4799993E-3,879.999995232E-3,
,,,19.5199996E-3,-459.999978542E-3,,,,,19.5199996E-3,959.999978542E-3,
,,,19.5599999E-3,-459.999978542E-3,,,,,19.5599999E-3,959.999978542E-3,
,,,19.6000002E-3,-459.999978542E-3,,,,,19.6000002E-3,1.0400000,
,,,19.6399987E-3,-459.999978542E-3,,,,,19.6399987E-3,1.1200000,
,,,19.6799990E-3,-479.999989271E-3,,,,,19.6799990E-3,1.1999999,
,,,19.7199993E-3,-479.999989271E-3,,,,,19.7199993E-3,1.2800000,
,,,19.7599996E-3,-479.999989271E-3,,,,,19.7599996E-3,1.3600000,
,,,19.7999999E-3,-479.999989271E-3,,,,,19.7999999E-3,1.4399999,
,,,19.8400002E-3,-479.999989271E-3,,,,,19.8400002E-3,1.4399999,
,,,19.8799986E-3,-479.999989271E-3,,,,,19.8799986E-3,1.5200000,
,,,19.9199989E-3,-479.999989271E-3,,,,,19.9199989E-3,1.5200000,
,,,19.9599992E-3,-479.999989271E-3,,,,,19.9599992E-3,1.5999999,
,,,19.9999996E-3,-479.999989271E-3,,,,,19.9999996E-3,1.6799999,
,,,20.0399999E-3,-479.999989271E-3,,,,,20.0399999E-3,1.7600000,
,,,20.0800002E-3,-500.000000000E-3,,,,,20.0800002E-3,1.7600000,
,,,20.11999860E-3,-500.000000000E-3,,,,,20.11999860E-3,1.8399999,
,,,20.15999891E-3,-479.999989271E-3,,,,,20.15999891E-3,1.9200000,
,,,20.19999921E-3,-479.999989271E-3,,,,,20.19999921E-3,2.0000000,
,,,20.23999952E-3,-500.000000000E-3,,,,,20.23999952E-3,2.0799999,
,,,20.27999982E-3,-500.000000000E-3,,,,,20.27999982E-3,2.0799999,
,,,20.32000013E-3,-500.000000000E-3,,,,,20.32000013E-3,2.1599998,
,,,20.36000043E-3,-500.000000000E-3,,,,,20.36000043E-3,2.2400000,
,,,20.39999887E-3,-500.000000000E-3,,,,,20.39999887E-3,2.2400000,
,,,20.43999918E-3,-500.000000000E-3,,,,,20.43999918E-3,2.3199999,
,,,20.47999948E-3,-500.000000000E-3,,,,,20.47999948E-3,2.3999999,
,,,20.51999979E-3,-500.000000000E-3,,,,,20.51999979E-3,2.3999999,
,,,20.56000009E-3,-500.000000000E-3,,,,,20.56000009E-3,2.4800000,
,,,20.60000040E-3,-500.000000000E-3,,,,,20.60000040E-3,2.5599999,
,,,20.63999884E-3,-500.000000000E-3,,,,,20.63999884E-3,2.6399999,
,,,20.67999914E-3,-500.000000000E-3,,,,,20.67999914E-3,2.6399999,
,,,20.71999945E-3,-500.000000000E-3,,,,,20.71999945E-3,2.72000003,
,,,20.75999975E-3,-500.000000000E-3,,,,,20.75999975E-3,2.72000003,
,,,20.80000006E-3,-500.000000000E-3,,,,,20.80000006E-3,2.79999995,
,,,20.84000036E-3,-519.999980927E-3,,,,,20.84000036E-3,2.87999988,
,,,20.87999880E-3,-500.000000000E-3,,,,,20.87999880E-3,2.87999988,
,,,20.91999911E-3,-500.000000000E-3,,,,,20.91999911E-3,2.96000004,
,,,20.95999941E-3,-519.999980927E-3,,,,,20.95999941E-3,3.03999996,
,,,20.99999972E-3,-519.999980927E-3,,,,,20.99999972E-3,3.03999996,
,,,21.04000002E-3,-519.999980927E-3,,,,,21.04000002E-3,3.11999989,
,,,21.08000033E-3,-519.999980927E-3,,,,,21.08000033E-3,3.11999989,
,,,21.11999877E-3,-519.999980927E-3,,,,,21.11999877E-3,3.19999981,
,,,21.15999907E-3,-519.999980927E-3,,,,,21.15999907E-3,3.27999997,
,,,21.19999938E-3,-519.999980927E-3,,,,,21.19999938E-3,3.35999990,
,,,21.23999968E-3,-519.999980927E-3,,,,,21.23999968E-3,3.35999990,
,,,21.27999999E-3,-519.999980927E-3,,,,,21.27999999E-3,3.35999990,
,,,21.32000029E-3,-519.999980927E-3,,,,,21.32000029E-3,3.43999982,
,,,21.35999873E-3,-539.999961853E-3,,,,,21.35999873E-3,3.51999998,
,,,21.39999904E-3,-539.999961853E-3,,,,,21.39999904E-3,3.51999998,
,,,21.43999934E-3,-539.999961853E-3,,,,,21.43999934E-3,3.59999990,
,,,21.47999965E-3,-539.999961853E-3,,,,,21.47999965E-3,3.59999990,
,,,21.51999995E-3,-519.999980927E-3,,,,,21.51999995E-3,3.59999990,
,,,21.56000026E-3,-539.999961853E-3,,,,,21.56000026E-3,3.67999983,
,,,21.59999870E-3,-519.999980927E-3,,,,,21.59999870E-3,3.67999983,
,,,21.63999900E-3,-519.999980927E-3,,,,,21.63999900E-3,3.67999983,
,,,21.67999931E-3,-519.999980927E-3,,,,,21.67999931E-3,3.67999983,
,,,21.71999961E-3,-500.000000000E-3,,,,,21.71999961E-3,3.67999983,
,,,21.75999992E-3,-500.000000000E-3,,,,,21.75999992E-3,3.75999999,
,,,21.80000022E-3,-479.999989271E-3,,,,,21.80000022E-3,3.75999999,
,,,21.83999866E-3,-459.999978542E-3,,,,,21.83999866E-3,3.75999999,
,,,21.87999897E-3,-439.999997616E-3,,,,,21.87999897E-3,3.75999999,
,,,21.91999927E-3,-419.999986887E-3,,,,,21.91999927E-3,3.83999991,
