Informe-4/Rectificador de media onda/DC 100hz.csv

Record Length,2500,Points,9.999999776E-3,3.59999990,,Record Length,2500,Points,9.999999776E-3,1.7600000,
Sample Interval,39.99999899E-6,s,10.0400001E-3,3.59999990,,Sample Interval,39.99999899E-6,s,10.0400001E-3,1.8399999,
Trigger Point,-250.00000073,Samples,10.0799995E-3,3.59999990,,Trigger Point,-250.00000073,Samples,10.0799995E-3,2.0000000,
,,,10.1199998E-3,3.59999990,,,,,10.1199998E-3,2.0799999,
,,,10.1600001E-3,3.59999990,,,,,10.1600001E-3,2.2400000,
,,,10.1999994E-3,3.59999990,,,,,10.1999994E-3,2.3199999,
Source,CH1,,10.2399997E-3,3.59999990,,Source,CH2,,10.2399997E-3,2.4800000,
Vertical Units,Volts,,10.2800000E-3,3.59999990,,Vertical Units,Volts,,10.2800000E-3,2.5599999,
Vertical Scale,2.0000000,,10.3199994E-3,3.59999990,,Vertical Scale,2.0000000,,10.3199994E-3,2.6399999,
Vertical Offset,0,,10.3599997E-3,3.59999990,,Vertical Offset,0,,10.3599997E-3,2.72000003,
Horizontal Units,s,,10.4000000E-3,3.59999990,,Horizontal Units,s,,10.4000000E-3,2.87999988,
Horizontal Scale,9.999999747E-3,,10.4399994E-3,3.59999990,,Horizontal Scale,9.999999747E-3,,10.4399994E-3,2.96000004,
Pt Fmt,Y,,10.4799997E-3,3.59999990,,Pt Fmt,Y,,10.4799997E-3,3.03999996,
Yzero,80.000000000E-3,,10.5200000E-3,3.59999990,,Yzero,0.0,,10.5200000E-3,3.11999989,
Probe Atten,1.000000,,10.5599994E-3,3.59999990,,Probe Atten,1.000000,,10.5599994E-3,3.27999997,
,,,10.5999997E-3,3.59999990,,,,,10.5999997E-3,3.35999990,
Note,TBS 1052B-EDU - 12:31:08 p.m.   19/02/2016,,10.6400000E-3,3.59999990,,Note,TBS 1052B-EDU - 12:31:08 p.m.   19/02/2016,,10.6400000E-3,3.43999982,
,,,10.6799994E-3,3.59999990,,,,,10.6799994E-3,3.59999990,
,,,10.7199997E-3,3.59999990,,,,,10.7199997E-3,3.59999990,
,,,10.7600000E-3,3.59999990,,,,,10.7600000E-3,3.75999999,
,,,10.7999993E-3,3.59999990,,,,,10.7999993E-3,3.83999991,
,,,10.8399997E-3,3.59999990,,,,,10.8399997E-3,3.83999991,
,,,10.8800000E-3,3.59999990,,,,,10.8800000E-3,3.91999984,
,,,10.9199993E-3,3.59999990,,,,,10.9199993E-3,4.00000000,
,,,10.9599996E-3,3.51999998,,,,,10.9599996E-3,4.07999992,
,,,10.9999999E-3,3.59999990,,,,,10.9999999E-3,4.15999985,
,,,11.0399993E-3,3.59999990,,,,,11.0399993E-3,4.15999985,
,,,11.0799996E-3,3.51999998,,,,,11.0799996E-3,4.15999985,
,,,11.1199999E-3,3.59999990,,,,,11.1199999E-3,4.15999985,
,,,11.1599993E-3,3.59999990,,,,,11.1599993E-3,4.23999977,
,,,11.1999996E-3,3.59999990,,,,,11.1999996E-3,4.23999977,
,,,11.2399999E-3,3.59999990,,,,,11.2399999E-3,4.23999977,
,,,11.2800002E-3,3.59999990,,,,,11.2800002E-3,4.31999969,
,,,11.3199996E-3,3.59999990,,,,,11.3199996E-3,4.31999969,
,,,11.3599999E-3,3.59999990,,,,,11.3599999E-3,4.31999969,
,,,11.4000002E-3,3.67999983,,,,,11.4000002E-3,4.31999969,
,,,11.4399996E-3,3.75999999,,,,,11.4399996E-3,4.31999969,
,,,11.4799999E-3,3.75999999,,,,,11.4799999E-3,4.40000010,
,,,11.5200002E-3,3.75999999,,,,,11.5200002E-3,4.48000002,
,,,11.5599995E-3,3.83999991,,,,,11.5599995E-3,4.48000002,
,,,11.5999999E-3,3.83999991,,,,,11.5999999E-3,4.55999994,
,,,11.6400002E-3,3.91999984,,,,,11.6400002E-3,4.55999994,
,,,11.6799995E-3,3.91999984,,,,,11.6799995E-3,4.55999994,
,,,11.7199998E-3,3.91999984,,,,,11.7199998E-3,4.55999994,
,,,11.7600001E-3,4.00000000,,,,,11.7600001E-3,4.55999994,
,,,11.7999995E-3,4.00000000,,,,,11.7999995E-3,4.63999987,
,,,11.8399998E-3,4.00000000,,,,,11.8399998E-3,4.63999987,
,,,11.8800001E-3,4.00000000,,,,,11.8800001E-3,4.63999987,
,,,11.9199995E-3,4.07999992,,,,,11.9199995E-3,4.71999979,
,,,11.9599998E-3,4.07999992,,,,,11.9599998E-3,4.71999979,
,,,12.0000001E-3,4.07999992,,,,,12.0000001E-3,4.71999979,
,,,12.0399995E-3,4.15999985,,,,,12.0399995E-3,4.79999971,
,,,12.0799998E-3,4.15999985,,,,,12.0799998E-3,4.79999971,
,,,12.1200001E-3,4.15999985,,,,,12.1200001E-3,4.79999971,
,,,12.1599995E-3,4.15999985,,,,,12.1599995E-3,4.79999971,
,,,12.1999998E-3,4.15999985,,,,,12.1999998E-3,4.79999971,
,,,12.2400001E-3,4.15999985,,,,,12.2400001E-3,4.79999971,
,,,12.2799994E-3,4.15999985,,,,,12.2799994E-3,4.79999971,
,,,12.3199997E-3,4.15999985,,,,,12.3199997E-3,4.79999971,
,,,12.3600001E-3,4.15999985,,,,,12.3600001E-3,4.79999971,
,,,12.3999994E-3,4.23999977,,,,,12.3999994E-3,4.79999971,
,,,12.4399997E-3,4.15999985,,,,,12.4399997E-3,4.71999979,
,,,12.4800000E-3,4.23999977,,,,,12.4800000E-3,4.71999979,
,,,12.5199994E-3,4.15999985,,,,,12.5199994E-3,4.63999987,
,,,12.5599997E-3,4.23999977,,,,,12.5599997E-3,4.63999987,
,,,12.6000000E-3,4.23999977,,,,,12.6000000E-3,4.55999994,
,,,12.6399994E-3,4.15999985,,,,,12.6399994E-3,4.55999994,
,,,12.6799997E-3,4.15999985,,,,,12.6799997E-3,4.48000002,
,,,12.7200000E-3,4.15999985,,,,,12.7200000E-3,4.40000010,
,,,12.7599994E-3,4.15999985,,,,,12.7599994E-3,4.40000010,
,,,12.7999997E-3,4.23999977,,,,,12.7999997E-3,4.31999969,
,,,12.8400000E-3,4.15999985,,,,,12.8400000E-3,4.23999977,
,,,12.8799994E-3,4.15999985,,,,,12.8799994E-3,4.15999985,
,,,12.9199997E-3,4.15999985,,,,,12.9199997E-3,4.07999992,
,,,12.9600000E-3,4.15999985,,,,,12.9600000E-3,4.00000000,
,,,12.9999993E-3,4.15999985,,,,,12.9999993E-3,3.91999984,
,,,13.0399996E-3,4.15999985,,,,,13.0399996E-3,3.83999991,
,,,13.0799999E-3,4.15999985,,,,,13.0799999E-3,3.75999999,
,,,13.1199993E-3,4.15999985,,,,,13.1199993E-3,3.67999983,
,,,13.1599996E-3,4.15999985,,,,,13.1599996E-3,3.67999983,
,,,13.1999999E-3,4.15999985,,,,,13.1999999E-3,3.51999998,
,,,13.2399993E-3,4.15999985,,,,,13.2399993E-3,3.43999982,
,,,13.2799996E-3,4.15999985,,,,,13.2799996E-3,3.35999990,
,,,13.3199999E-3,4.15999985,,,,,13.3199999E-3,3.27999997,
,,,13.3599993E-3,4.15999985,,,,,13.3599993E-3,3.11999989,
,,,13.3999996E-3,4.15999985,,,,,13.3999996E-3,3.03999996,
,,,13.4399999E-3,4.15999985,,,,,13.4399999E-3,2.87999988,
,,,13.4799993E-3,4.15999985,,,,,13.4799993E-3,2.87999988,
,,,13.5199996E-3,4.07999992,,,,,13.5199996E-3,2.79999995,
,,,13.5599999E-3,4.15999985,,,,,13.5599999E-3,2.6399999,
,,,13.5999992E-3,4.15999985,,,,,13.5999992E-3,2.4800000,
,,,13.6399996E-3,4.07999992,,,,,13.6399996E-3,2.3999999,
,,,13.6799999E-3,4.07999992,,,,,13.6799999E-3,2.3199999,
,,,13.7199992E-3,4.07999992,,,,,13.7199992E-3,2.1599998,
,,,13.7599995E-3,4.15999985,,,,,13.7599995E-3,2.0799999,
,,,13.7999998E-3,4.15999985,,,,,13.7999998E-3,2.0000000,
,,,13.8399992E-3,4.15999985,,,,,13.8399992E-3,1.8399999,
,,,13.8799995E-3,4.07999992,,,,,13.8799995E-3,1.6799999,
,,,13.9199998E-3,4.07999992,,,,,13.9199998E-3,1.5999999,
,,,13.9600001E-3,4.07999992,,,,,13.9600001E-3,1.5200000,
,,,13.9999995E-3,4.07999992,,,,,13.9999995E-3,1.3600000,
,,,14.0399998E-3,4.07999992,,,,,14.0399998E-3,1.2800000,
,,,14.0800001E-3,4.07999992,,,,,14.0800001E-3,1.1200000,
,,,14.1199995E-3,4.07999992,,,,,14.1199995E-3,959.999978542E-3,
,,,14.1599998E-3,4.07999992,,,,,14.1599998E-3,879.999995232E-3,
,,,14.2000001E-3,4.07999992,,,,,14.2000001E-3,799.999952316E-3,
,,,14.2399995E-3,4.07999992,,,,,14.2399995E-3,639.999985695E-3,
,,,14.2799998E-3,4.07999992,,,,,14.2799998E-3,479.999989271E-3,
,,,14.3200001E-3,4.07999992,,,,,14.3200001E-3,319.99999285E-3,
,,,14.3599994E-3,4.07999992,,,,,14.3599994E-3,239.99999464E-3,
,,,14.3999998E-3,4.00000000,,,,,14.3999998E-3,159.99999642E-3,
,,,14.4400001E-3,4.00000000,,,,,14.4400001E-3,0.0,
,,,14.4799994E-3,4.07999992,,,,,14.4799994E-3,-159.99999642E-3,
,,,14.5199997E-3,4.07999992,,,,,14.5199997E-3,-239.99999464E-3,
,,,14.5600000E-3,4.00000000,,,,,14.5600000E-3,-399.99997616E-3,
,,,14.5999994E-3,4.00000000,,,,,14.5999994E-3,-560.000002384E-3,
,,,14.6399997E-3,4.00000000,,,,,14.6399997E-3,-639.999985695E-3,
,,,14.6800000E-3,4.07999992,,,,,14.6800000E-3,-799.999952316E-3,
,,,14.7199994E-3,4.07999992,,,,,14.7199994E-3,-879.999995232E-3,
,,,14.7599997E-3,4.00000000,,,,,14.7599997E-3,-1.0400000,
,,,14.8000000E-3,4.00000000,,,,,14.8000000E-3,-1.1200000,
,,,14.8399994E-3,4.00000000,,,,,14.8399994E-3,-1.2800000,
,,,14.8799997E-3,4.00000000,,,,,14.8799997E-3,-1.3600000,
,,,14.9200000E-3,4.00000000,,,,,14.9200000E-3,-1.5200000,
,,,14.9599994E-3,4.00000000,,,,,14.9599994E-3,-1.6799999,
,,,14.9999997E-3,4.00000000,,,,,14.9999997E-3,-1.7600000,
,,,15.0400000E-3,4.00000000,,,,,15.0400000E-3,-1.8399999,
,,,15.0799993E-3,4.00000000,,,,,15.0799993E-3,-1.9200000,
,,,15.1199996E-3,4.00000000,,,,,15.1199996E-3,-2.0799999,
,,,15.1600000E-3,4.00000000,,,,,15.1600000E-3,-2.1599998,
,,,15.1999993E-3,4.00000000,,,,,15.1999993E-3,-2.3199999,
,,,15.2399996E-3,4.00000000,,,,,15.2399996E-3,-2.3999999,
,,,15.2799999E-3,4.00000000,,,,,15.2799999E-3,-2.5599999,
,,,15.3199993E-3,4.00000000,,,,,15.3199993E-3,-2.6399999,
,,,15.3599996E-3,4.00000000,,,,,15.3599996E-3,-2.79999995,
,,,15.3999999E-3,4.00000000,,,,,15.3999999E-3,-2.87999988,
,,,15.4399993E-3,3.91999984,,,,,15.4399993E-3,-2.96000004,
,,,15.4799996E-3,4.00000000,,,,,15.4799996E-3,-3.03999996,
,,,15.5199999E-3,3.91999984,,,,,15.5199999E-3,-3.19999981,
,,,15.5599993E-3,4.00000000,,,,,15.5599993E-3,-3.27999997,
,,,15.5999996E-3,3.91999984,,,,,15.5999996E-3,-3.35999990,
,,,15.6399999E-3,3.91999984,,,,,15.6399999E-3,-3.43999982,
,,,15.6800002E-3,4.00000000,,,,,15.6800002E-3,-3.59999990,
,,,15.7200005E-3,3.91999984,,,,,15.7200005E-3,-3.67999983,
,,,15.7599989E-3,4.00000000,,,,,15.7599989E-3,-3.75999999,
,,,15.7999992E-3,4.00000000,,,,,15.7999992E-3,-3.83999991,
,,,15.8399995E-3,3.91999984,,,,,15.8399995E-3,-3.91999984,
,,,15.8799998E-3,4.00000000,,,,,15.8799998E-3,-4.00000000,
,,,15.9200002E-3,3.91999984,,,,,15.9200002E-3,-4.00000000,
,,,15.9600005E-3,3.91999984,,,,,15.9600005E-3,-4.07999992,
,,,15.9999989E-3,3.91999984,,,,,15.9999989E-3,-4.23999977,
,,,16.0399992E-3,3.91999984,,,,,16.0399992E-3,-4.23999977,
,,,16.0799995E-3,3.91999984,,,,,16.0799995E-3,-4.31999969,
,,,16.1199998E-3,3.91999984,,,,,16.1199998E-3,-4.40000010,
,,,16.1600001E-3,3.91999984,,,,,16.1600001E-3,-4.48000002,
,,,16.2000004E-3,3.91999984,,,,,16.2000004E-3,-4.48000002,
,,,16.2399989E-3,3.91999984,,,,,16.2399989E-3,-4.55999994,
,,,16.2799992E-3,3.91999984,,,,,16.2799992E-3,-4.63999987,
,,,16.3199995E-3,3.91999984,,,,,16.3199995E-3,-4.63999987,
,,,16.3599998E-3,3.91999984,,,,,16.3599998E-3,-4.71999979,
,,,16.4000001E-3,3.91999984,,,,,16.4000001E-3,-4.71999979,
,,,16.4400004E-3,3.83999991,,,,,16.4400004E-3,-4.71999979,
,,,16.4799988E-3,3.91999984,,,,,16.4799988E-3,-4.79999971,
,,,16.5199991E-3,3.91999984,,,,,16.5199991E-3,-4.79999971,
,,,16.5599994E-3,3.83999991,,,,,16.5599994E-3,-4.88000011,
,,,16.5999997E-3,3.91999984,,,,,16.5999997E-3,-4.96000004,
,,,16.6400000E-3,3.83999991,,,,,16.6400000E-3,-4.96000004,
,,,16.6800003E-3,3.83999991,,,,,16.6800003E-3,-4.96000004,
,,,16.7199988E-3,3.91999984,,,,,16.7199988E-3,-4.96000004,
,,,16.7599991E-3,3.83999991,,,,,16.7599991E-3,-4.96000004,
,,,16.7999994E-3,3.83999991,,,,,16.7999994E-3,-4.96000004,
,,,16.8399997E-3,3.83999991,,,,,16.8399997E-3,-5.03999996,
,,,16.8800000E-3,3.83999991,,,,,16.8800000E-3,-4.96000004,
,,,16.9200003E-3,3.83999991,,,,,16.9200003E-3,-5.03999996,
,,,16.9599988E-3,3.83999991,,,,,16.9599988E-3,-5.03999996,
,,,16.9999991E-3,3.83999991,,,,,16.9999991E-3,-4.96000004,
,,,17.0399994E-3,3.83999991,,,,,17.0399994E-3,-5.03999996,
,,,17.0799997E-3,3.75999999,,,,,17.0799997E-3,-4.96000004,
,,,17.1200000E-3,3.83999991,,,,,17.1200000E-3,-5.03999996,
,,,17.1600003E-3,3.83999991,,,,,17.1600003E-3,-4.96000004,
,,,17.1999987E-3,3.83999991,,,,,17.1999987E-3,-4.96000004,
,,,17.2399990E-3,3.83999991,,,,,17.2399990E-3,-4.96000004,
,,,17.2799993E-3,3.83999991,,,,,17.2799993E-3,-4.88000011,
,,,17.3199996E-3,3.83999991,,,,,17.3199996E-3,-4.88000011,
,,,17.3599999E-3,3.83999991,,,,,17.3599999E-3,-4.88000011,
,,,17.4000002E-3,3.83999991,,,,,17.4000002E-3,-4.79999971,
,,,17.4399987E-3,3.83999991,,,,,17.4399987E-3,-4.79999971,
,,,17.4799990E-3,3.75999999,,,,,17.4799990E-3,-4.71999979,
,,,17.5199993E-3,3.83999991,,,,,17.5199993E-3,-4.71999979,
,,,17.5599996E-3,3.75999999,,,,,17.5599996E-3,-4.63999987,
,,,17.5999999E-3,3.75999999,,,,,17.5999999E-3,-4.63999987,
,,,17.6400002E-3,3.75999999,,,,,17.6400002E-3,-4.55999994,
,,,17.6800005E-3,3.75999999,,,,,17.6800005E-3,-4.48000002,
,,,17.7199990E-3,3.75999999,,,,,17.7199990E-3,-4.40000010,
,,,17.7599993E-3,3.75999999,,,,,17.7599993E-3,-4.40000010,
,,,17.7999996E-3,3.75999999,,,,,17.7999996E-3,-4.31999969,
,,,17.8399999E-3,3.83999991,,,,,17.8399999E-3,-4.23999977,
,,,17.8800002E-3,3.75999999,,,,,17.8800002E-3,-4.23999977,
,,,17.9200005E-3,3.75999999,,,,,17.9200005E-3,-4.07999992,
,,,17.9599989E-3,3.75999999,,,,,17.9599989E-3,-4.00000000,
,,,17.9999992E-3,3.75999999,,,,,17.9999992E-3,-4.00000000,
,,,18.0399995E-3,3.75999999,,,,,18.0399995E-3,-3.83999991,
,,,18.0799998E-3,3.75999999,,,,,18.0799998E-3,-3.83999991,
,,,18.1200001E-3,3.75999999,,,,,18.1200001E-3,-3.67999983,
,,,18.1600004E-3,3.75999999,,,,,18.1600004E-3,-3.59999990,
,,,18.1999989E-3,3.75999999,,,,,18.1999989E-3,-3.59999990,
,,,18.2399992E-3,3.75999999,,,,,18.2399992E-3,-3.43999982,
,,,18.2799995E-3,3.75999999,,,,,18.2799995E-3,-3.35999990,
,,,18.3199998E-3,3.75999999,,,,,18.3199998E-3,-3.27999997,
,,,18.3600001E-3,3.75999999,,,,,18.3600001E-3,-3.11999989,
,,,18.4000004E-3,3.75999999,,,,,18.4000004E-3,-3.11999989,
,,,18.4399989E-3,3.75999999,,,,,18.4399989E-3,-2.87999988,
,,,18.4799992E-3,3.75999999,,,,,18.4799992E-3,-2.87999988,
,,,18.5199995E-3,3.75999999,,,,,18.5199995E-3,-2.72000003,
,,,18.5599998E-3,3.67999983,,,,,18.5599998E-3,-2.6399999,
,,,18.6000001E-3,3.75999999,,,,,18.6000001E-3,-2.5599999,
,,,18.6400004E-3,3.67999983,,,,,18.6400004E-3,-2.3999999,
,,,18.6799988E-3,3.75999999,,,,,18.6799988E-3,-2.3199999,
,,,18.7199991E-3,3.67999983,,,,,18.7199991E-3,-2.1599998,
,,,18.7599994E-3,3.75999999,,,,,18.7599994E-3,-2.0799999,
,,,18.7999997E-3,3.67999983,,,,,18.7999997E-3,-1.9200000,
,,,18.8400000E-3,3.67999983,,,,,18.8400000E-3,-1.8399999,
,,,18.8800003E-3,3.75999999,,,,,18.8800003E-3,-1.7600000,
,,,18.9199988E-3,3.67999983,,,,,18.9199988E-3,-1.6799999,
,,,18.9599991E-3,3.67999983,,,,,18.9599991E-3,-1.5200000,
,,,18.9999994E-3,3.67999983,,,,,18.9999994E-3,-1.4399999,
,,,19.0399997E-3,3.67999983,,,,,19.0399997E-3,-1.2800000,
,,,19.0800000E-3,3.67999983,,,,,19.0800000E-3,-1.1200000,
,,,19.1200003E-3,3.67999983,,,,,19.1200003E-3,-1.0400000,
,,,19.1599987E-3,3.67999983,,,,,19.1599987E-3,-879.999995232E-3,
,,,19.1999990E-3,3.67999983,,,,,19.1999990E-3,-719.999969006E-3,
,,,19.2399994E-3,3.67999983,,,,,19.2399994E-3,-639.999985695E-3,
,,,19.2799997E-3,3.67999983,,,,,19.2799997E-3,-560.000002384E-3,
,,,19.3200000E-3,3.67999983,,,,,19.3200000E-3,-399.99997616E-3,
,,,19.3600003E-3,3.59999990,,,,,19.3600003E-3,-239.99999464E-3,
,,,19.3999987E-3,3.67999983,,,,,19.3999987E-3,-79.999998212E-3,
,,,19.4399990E-3,3.67999983,,,,,19.4399990E-3,0.0,
,,,19.4799993E-3,3.59999990,,,,,19.4799993E-3,159.99999642E-3,
,,,19.5199996E-3,3.59999990,,,,,19.5199996E-3,239.99999464E-3,
,,,19.5599999E-3,3.67999983,,,,,19.5599999E-3,399.99997616E-3,
,,,19.6000002E-3,3.59999990,,,,,19.6000002E-3,479.999989271E-3,
,,,19.6399987E-3,3.59999990,,,,,19.6399987E-3,639.999985695E-3,
,,,19.6799990E-3,3.59999990,,,,,19.6799990E-3,799.999952316E-3,
,,,19.7199993E-3,3.59999990,,,,,19.7199993E-3,879.999995232E-3,
,,,19.7599996E-3,3.59999990,,,,,19.7599996E-3,1.0400000,
,,,19.7999999E-3,3.59999990,,,,,19.7999999E-3,1.1200000,
,,,19.8400002E-3,3.59999990,,,,,19.8400002E-3,1.2800000,
,,,19.8799986E-3,3.59999990,,,,,19.8799986E-3,1.3600000,
,,,19.9199989E-3,3.59999990,,,,,19.9199989E-3,1.5200000,
,,,19.9599992E-3,3.59999990,,,,,19.9599992E-3,1.5999999,
,,,19.9999996E-3,3.59999990,,,,,19.9999996E-3,1.7600000,
,,,20.0399999E-3,3.59999990,,,,,20.0399999E-3,1.8399999,
,,,20.0800002E-3,3.59999990,,,,,20.0800002E-3,2.0000000,
,,,20.11999860E-3,3.59999990,,,,,20.11999860E-3,2.1599998,
,,,20.15999891E-3,3.59999990,,,,,20.15999891E-3,2.2400000,
,,,20.19999921E-3,3.59999990,,,,,20.19999921E-3,2.3199999,
,,,20.23999952E-3,3.59999990,,,,,20.23999952E-3,2.4800000,
,,,20.27999982E-3,3.59999990,,,,,20.27999982E-3,2.5599999,
,,,20.32000013E-3,3.59999990,,,,,20.32000013E-3,2.6399999,
,,,20.36000043E-3,3.59999990,,,,,20.36000043E-3,2.79999995,
,,,20.39999887E-3,3.59999990,,,,,20.39999887E-3,2.87999988,
,,,20.43999918E-3,3.59999990,,,,,20.43999918E-3,2.96000004,
,,,20.47999948E-3,3.59999990,,,,,20.47999948E-3,3.03999996,
,,,20.51999979E-3,3.59999990,,,,,20.51999979E-3,3.11999989,
,,,20.56000009E-3,3.59999990,,,,,20.56000009E-3,3.27999997,
,,,20.60000040E-3,3.59999990,,,,,20.60000040E-3,3.35999990,
,,,20.63999884E-3,3.59999990,,,,,20.63999884E-3,3.43999982,
,,,20.67999914E-3,3.59999990,,,,,20.67999914E-3,3.51999998,
,,,20.71999945E-3,3.59999990,,,,,20.71999945E-3,3.67999983,
,,,20.75999975E-3,3.59999990,,,,,20.75999975E-3,3.67999983,
,,,20.80000006E-3,3.59999990,,,,,20.80000006E-3,3.75999999,
,,,20.84000036E-3,3.59999990,,,,,20.84000036E-3,3.83999991,
,,,20.87999880E-3,3.59999990,,,,,20.87999880E-3,3.91999984,
,,,20.91999911E-3,3.59999990,,,,,20.91999911E-3,4.00000000,
,,,20.95999941E-3,3.59999990,,,,,20.95999941E-3,4.07999992,
,,,20.99999972E-3,3.51999998,,,,,20.99999972E-3,4.07999992,
,,,21.04000002E-3,3.51999998,,,,,21.04000002E-3,4.15999985,
,,,21.08000033E-3,3.59999990,,,,,21.08000033E-3,4.15999985,
,,,21.11999877E-3,3.59999990,,,,,21.11999877E-3,4.15999985,
,,,21.15999907E-3,3.59999990,,,,,21.15999907E-3,4.23999977,
,,,21.19999938E-3,3.59999990,,,,,21.19999938E-3,4.23999977,
,,,21.23999968E-3,3.59999990,,,,,21.23999968E-3,4.23999977,
,,,21.27999999E-3,3.67999983,,,,,21.27999999E-3,4.23999977,
,,,21.32000029E-3,3.67999983,,,,,21.32000029E-3,4.31999969,
,,,21.35999873E-3,3.67999983,,,,,21.35999873E-3,4.31999969,
,,,21.39999904E-3,3.67999983,,,,,21.39999904E-3,4.40000010,
,,,21.43999934E-3,3.67999983,,,,,21.43999934E-3,4.40000010,
,,,21.47999965E-3,3.75999999,,,,,21.47999965E-3,4.40000010,
,,,21.51999995E-3,3.75999999,,,,,21.51999995E-3,4.48000002,
,,,21.56000026E-3,3.75999999,,,,,21.56000026E-3,4.48000002,
,,,21.59999870E-3,3.83999991,,,,,21.59999870E-3,4.48000002,
,,,21.63999900E-3,3.91999984,,,,,21.63999900E-3,4.55999994,
,,,21.67999931E-3,3.91999984,,,,,21.67999931E-3,4.55999994,
,,,21.71999961E-3,3.91999984,,,,,21.71999961E-3,4.55999994,
,,,21.75999992E-3,4.00000000,,,,,21.75999992E-3,4.63999987,
,,,21.80000022E-3,4.00000000,,,,,21.80000022E-3,4.63999987,
,,,21.83999866E-3,4.00000000,,,,,21.83999866E-3,4.63999987,
,,,21.87999897E-3,4.07999992,,,,,21.87999897E-3,4.71999979,
,,,21.91999927E-3,4.07999992,,,,,21.91999927E-3,4.71999979,
,,,21.95999958E-3,4.07999992,,,,,21.95999958E-3,4.71999979,
,,,21.99999988E-3,4.07999992,,,,,21.99999988E-3,4.71999979,
,,,22.04000019E-3,4.15999985,,,,,22.04000019E-3,4.71999979,
,,,22.07999863E-3,4.15999985,,,,,22.07999863E-3,4.79999971,
,,,22.11999893E-3,4.15999985,,,,,22.11999893E-3,4.79999971,
,,,22.15999924E-3,4.15999985,,,,,22.15999924E-3,4.79999971,
,,,22.19999954E-3,4.15999985,,,,,22.19999954E-3,4.79999971,
,,,22.23999985E-3,4.23999977,,,,,22.23999985E-3,4.79999971,
,,,22.28000015E-3,4.23999977,,,,,22.28000015E-3,4.79999971,
,,,22.31999859E-3,4.23999977,,,,,22.31999859E-3,4.79999971,
,,,22.35999890E-3,4.23999977,,,,,22.35999890E-3,4.79999971,
,,,22.39999920E-3,4.23999977,,,,,22.39999920E-3,4.79999971,
,,,22.43999951E-3,4.23999977,,,,,22.43999951E-3,4.71999979,
,,,22.47999981E-3,4.15999985,,,,,22.47999981E-3,4.71999979,
,,,22.52000012E-3,4.23999977,,,,,22.52000012E-3,4.71999979,
,,,22.55999856E-3,4.23999977,,,,,22.55999856E-3,4.63999987,
,,,22.59999886E-3,4.15999985,,,,,22.59999886E-3,4.55999994,
,,,22.63999917E-3,4.23999977,,,,,22.63999917E-3,4.55999994,
,,,22.67999947E-3,4.15999985,,,,,22.67999947E-3,4.48000002,
,,,22.71999978E-3,4.15999985,,,,,22.71999978E-3,4.40000010,
,,,22.76000008E-3,4.23999977,,,,,22.76000008E-3,4.31999969,
,,,22.79999852E-3,4.15999985,,,,,22.79999852E-3,4.31999969,
,,,22.83999883E-3,4.15999985,,,,,22.83999883E-3,4.15999985,
,,,22.87999913E-3,4.15999985,,,,,22.87999913E-3,4.07999992,
,,,22.91999944E-3,4.15999985,,,,,22.91999944E-3,4.07999992,
,,,22.95999974E-3,4.15999985,,,,,22.95999974E-3,4.00000000,
,,,23.00000004E-3,4.15999985,,,,,23.00000004E-3,3.91999984,
,,,23.04000035E-3,4.15999985,,,,,23.04000035E-3,3.83999991,
,,,23.07999879E-3,4.15999985,,,,,23.07999879E-3,3.75999999,
