Informe-4/Rectificador de media onda/DC 50hz.csv

Record Length,2500,Points,-64.999997616E-3,3.59999990,,Record Length,2500,Points,-64.999997616E-3,-4.71999979,
Sample Interval,99.999997474E-6,s,-64.899995923E-3,3.51999998,,Sample Interval,99.999997474E-6,s,-64.899995923E-3,-4.63999987,
Trigger Point,649.999992579,Samples,-64.799994230E-3,3.51999998,,Trigger Point,649.999992579,Samples,-64.799994230E-3,-4.55999994,
,,,-64.699999988E-3,3.51999998,,,,,-64.699999988E-3,-4.55999994,
,,,-64.599998295E-3,3.51999998,,,,,-64.599998295E-3,-4.48000002,
,,,-64.499996603E-3,3.51999998,,,,,-64.499996603E-3,-4.40000010,
Source,CH1,,-64.399994910E-3,3.43999982,,Source,CH2,,-64.399994910E-3,-4.31999969,
Vertical Units,Volts,,-64.300000668E-3,3.43999982,,Vertical Units,Volts,,-64.300000668E-3,-4.23999977,
Vertical Scale,2.0000000,,-64.199998975E-3,3.51999998,,Vertical Scale,2.0000000,,-64.199998975E-3,-4.07999992,
Vertical Offset,0,,-64.099997282E-3,3.43999982,,Vertical Offset,0,,-64.099997282E-3,-4.07999992,
Horizontal Units,s,,-63.999995589E-3,3.43999982,,Horizontal Units,s,,-63.999995589E-3,-4.00000000,
Horizontal Scale,24.99999937E-3,,-63.900001347E-3,3.43999982,,Horizontal Scale,24.99999937E-3,,-63.900001347E-3,-3.83999991,
Pt Fmt,Y,,-63.799999654E-3,3.43999982,,Pt Fmt,Y,,-63.799999654E-3,-3.75999999,
Yzero,80.000000000E-3,,-63.699997962E-3,3.43999982,,Yzero,0.0,,-63.699997962E-3,-3.59999990,
Probe Atten,1.000000,,-63.599996269E-3,3.43999982,,Probe Atten,1.000000,,-63.599996269E-3,-3.51999998,
,,,-63.499994576E-3,3.43999982,,,,,-63.499994576E-3,-3.43999982,
Note,TBS 1052B-EDU - 12:30:20 p.m.   19/02/2016,,-63.400000334E-3,3.43999982,,Note,TBS 1052B-EDU - 12:30:20 p.m.   19/02/2016,,-63.400000334E-3,-3.27999997,
,,,-63.299998641E-3,3.43999982,,,,,-63.299998641E-3,-3.19999981,
,,,-63.199996948E-3,3.43999982,,,,,-63.199996948E-3,-3.11999989,
,,,-63.099995255E-3,3.43999982,,,,,-63.099995255E-3,-2.96000004,
,,,-63.000001013E-3,3.35999990,,,,,-63.000001013E-3,-2.79999995,
,,,-62.899999321E-3,3.35999990,,,,,-62.899999321E-3,-2.6399999,
,,,-62.799997628E-3,3.35999990,,,,,-62.799997628E-3,-2.5599999,
,,,-62.699995935E-3,3.35999990,,,,,-62.699995935E-3,-2.3999999,
,,,-62.599994242E-3,3.35999990,,,,,-62.599994242E-3,-2.2400000,
,,,-62.499996275E-3,3.35999990,,,,,-62.499996275E-3,-2.0799999,
,,,-62.399998307E-3,3.35999990,,,,,-62.399998307E-3,-1.9200000,
,,,-62.299996614E-3,3.35999990,,,,,-62.299996614E-3,-1.7600000,
,,,-62.199998647E-3,3.35999990,,,,,-62.199998647E-3,-1.6799999,
,,,-62.099996954E-3,3.35999990,,,,,-62.099996954E-3,-1.5200000,
,,,-61.999998987E-3,3.35999990,,,,,-61.999998987E-3,-1.3600000,
,,,-61.899997294E-3,3.35999990,,,,,-61.899997294E-3,-1.1999999,
,,,-61.799999326E-3,3.27999997,,,,,-61.799999326E-3,-1.0400000,
,,,-61.699997634E-3,3.27999997,,,,,-61.699997634E-3,-879.999995232E-3,
,,,-61.599995941E-3,3.27999997,,,,,-61.599995941E-3,-719.999969006E-3,
,,,-61.499997973E-3,3.27999997,,,,,-61.499997973E-3,-560.000002384E-3,
,,,-61.399996281E-3,3.27999997,,,,,-61.399996281E-3,-479.999989271E-3,
,,,-61.299998313E-3,3.27999997,,,,,-61.299998313E-3,-319.99999285E-3,
,,,-61.199996620E-3,3.19999981,,,,,-61.199996620E-3,-79.999998212E-3,
,,,-61.099998653E-3,3.27999997,,,,,-61.099998653E-3,0.0,
,,,-60.999996960E-3,3.27999997,,,,,-60.999996960E-3,159.99999642E-3,
,,,-60.899998993E-3,3.27999997,,,,,-60.899998993E-3,319.99999285E-3,
,,,-60.799997300E-3,3.19999981,,,,,-60.799997300E-3,479.999989271E-3,
,,,-60.699999332E-3,3.27999997,,,,,-60.699999332E-3,639.999985695E-3,
,,,-60.599997640E-3,3.19999981,,,,,-60.599997640E-3,799.999952316E-3,
,,,-60.499995947E-3,3.19999981,,,,,-60.499995947E-3,1.0400000,
,,,-60.399997979E-3,3.19999981,,,,,-60.399997979E-3,1.1200000,
,,,-60.299996287E-3,3.19999981,,,,,-60.299996287E-3,1.2800000,
,,,-60.199998319E-3,3.19999981,,,,,-60.199998319E-3,1.4399999,
,,,-60.099996626E-3,3.19999981,,,,,-60.099996626E-3,1.5999999,
,,,-59.999998659E-3,3.19999981,,,,,-59.999998659E-3,1.7600000,
,,,-59.899996966E-3,3.19999981,,,,,-59.899996966E-3,1.8399999,
,,,-59.799998999E-3,3.19999981,,,,,-59.799998999E-3,2.0799999,
,,,-59.699997306E-3,3.11999989,,,,,-59.699997306E-3,2.2400000,
,,,-59.599999338E-3,3.19999981,,,,,-59.599999338E-3,2.3199999,
,,,-59.499997646E-3,3.19999981,,,,,-59.499997646E-3,2.4800000,
,,,-59.399995953E-3,3.19999981,,,,,-59.399995953E-3,2.6399999,
,,,-59.299997985E-3,3.11999989,,,,,-59.299997985E-3,2.72000003,
,,,-59.199996293E-3,3.11999989,,,,,-59.199996293E-3,2.87999988,
,,,-59.099998325E-3,3.11999989,,,,,-59.099998325E-3,3.03999996,
,,,-58.999996632E-3,3.11999989,,,,,-58.999996632E-3,3.11999989,
,,,-58.899998665E-3,3.11999989,,,,,-58.899998665E-3,3.27999997,
,,,-58.799996972E-3,3.11999989,,,,,-58.799996972E-3,3.35999990,
,,,-58.699999005E-3,3.11999989,,,,,-58.699999005E-3,3.51999998,
,,,-58.599997312E-3,3.11999989,,,,,-58.599997312E-3,3.59999990,
,,,-58.499999344E-3,3.11999989,,,,,-58.499999344E-3,3.67999983,
,,,-58.399997652E-3,3.11999989,,,,,-58.399997652E-3,3.67999983,
,,,-58.299995959E-3,3.03999996,,,,,-58.299995959E-3,3.67999983,
,,,-58.199997991E-3,3.11999989,,,,,-58.199997991E-3,3.75999999,
,,,-58.099996299E-3,3.19999981,,,,,-58.099996299E-3,3.83999991,
,,,-57.999998331E-3,3.19999981,,,,,-57.999998331E-3,3.91999984,
,,,-57.899996638E-3,3.27999997,,,,,-57.899996638E-3,3.91999984,
,,,-57.799998671E-3,3.35999990,,,,,-57.799998671E-3,4.00000000,
,,,-57.699996978E-3,3.35999990,,,,,-57.699996978E-3,4.07999992,
,,,-57.599999011E-3,3.51999998,,,,,-57.599999011E-3,4.07999992,
,,,-57.499997318E-3,3.51999998,,,,,-57.499997318E-3,4.15999985,
,,,-57.399999350E-3,3.59999990,,,,,-57.399999350E-3,4.23999977,
,,,-57.299997658E-3,3.59999990,,,,,-57.299997658E-3,4.31999969,
,,,-57.199995965E-3,3.67999983,,,,,-57.199995965E-3,4.40000010,
,,,-57.099997997E-3,3.75999999,,,,,-57.099997997E-3,4.48000002,
,,,-56.999996305E-3,3.83999991,,,,,-56.999996305E-3,4.55999994,
,,,-56.899998337E-3,3.91999984,,,,,-56.899998337E-3,4.55999994,
,,,-56.799996644E-3,3.91999984,,,,,-56.799996644E-3,4.55999994,
,,,-56.699998677E-3,4.00000000,,,,,-56.699998677E-3,4.63999987,
,,,-56.599996984E-3,4.07999992,,,,,-56.599996984E-3,4.71999979,
,,,-56.499999017E-3,4.07999992,,,,,-56.499999017E-3,4.71999979,
,,,-56.399997324E-3,4.07999992,,,,,-56.399997324E-3,4.79999971,
,,,-56.299999356E-3,4.15999985,,,,,-56.299999356E-3,4.79999971,
,,,-56.199997663E-3,4.15999985,,,,,-56.199997663E-3,4.88000011,
,,,-56.099999696E-3,4.23999977,,,,,-56.099999696E-3,4.88000011,
,,,-55.999998003E-3,4.23999977,,,,,-55.999998003E-3,4.88000011,
,,,-55.899996310E-3,4.23999977,,,,,-55.899996310E-3,4.88000011,
,,,-55.799998343E-3,4.31999969,,,,,-55.799998343E-3,4.88000011,
,,,-55.699996650E-3,4.31999969,,,,,-55.699996650E-3,4.88000011,
,,,-55.599998683E-3,4.31999969,,,,,-55.599998683E-3,4.88000011,
,,,-55.499996990E-3,4.31999969,,,,,-55.499996990E-3,4.88000011,
,,,-55.399999022E-3,4.31999969,,,,,-55.399999022E-3,4.88000011,
,,,-55.299997330E-3,4.31999969,,,,,-55.299997330E-3,4.79999971,
,,,-55.199999362E-3,4.31999969,,,,,-55.199999362E-3,4.79999971,
,,,-55.099997669E-3,4.31999969,,,,,-55.099997669E-3,4.79999971,
,,,-54.999999702E-3,4.31999969,,,,,-54.999999702E-3,4.71999979,
,,,-54.899998009E-3,4.31999969,,,,,-54.899998009E-3,4.63999987,
,,,-54.799996316E-3,4.23999977,,,,,-54.799996316E-3,4.55999994,
,,,-54.699998349E-3,4.31999969,,,,,-54.699998349E-3,4.55999994,
,,,-54.599996656E-3,4.23999977,,,,,-54.599996656E-3,4.40000010,
,,,-54.49999869E-3,4.23999977,,,,,-54.49999869E-3,4.40000010,
,,,-54.39999700E-3,4.23999977,,,,,-54.39999700E-3,4.31999969,
,,,-54.29999903E-3,4.23999977,,,,,-54.29999903E-3,4.23999977,
,,,-54.19999734E-3,4.23999977,,,,,-54.19999734E-3,4.15999985,
,,,-54.09999937E-3,4.23999977,,,,,-54.09999937E-3,4.00000000,
,,,-53.99999768E-3,4.23999977,,,,,-53.99999768E-3,3.83999991,
,,,-53.89999971E-3,4.23999977,,,,,-53.89999971E-3,3.75999999,
,,,-53.79999802E-3,4.23999977,,,,,-53.79999802E-3,3.75999999,
,,,-53.69999632E-3,4.23999977,,,,,-53.69999632E-3,3.67999983,
,,,-53.59999835E-3,4.23999977,,,,,-53.59999835E-3,3.51999998,
,,,-53.49999666E-3,4.23999977,,,,,-53.49999666E-3,3.35999990,
,,,-53.39999869E-3,4.15999985,,,,,-53.39999869E-3,3.27999997,
,,,-53.29999700E-3,4.15999985,,,,,-53.29999700E-3,3.11999989,
,,,-53.19999903E-3,4.15999985,,,,,-53.19999903E-3,3.03999996,
,,,-53.09999734E-3,4.15999985,,,,,-53.09999734E-3,2.96000004,
,,,-52.99999937E-3,4.15999985,,,,,-52.99999937E-3,2.79999995,
,,,-52.89999768E-3,4.15999985,,,,,-52.89999768E-3,2.6399999,
,,,-52.79999971E-3,4.15999985,,,,,-52.79999971E-3,2.4800000,
,,,-52.69999802E-3,4.15999985,,,,,-52.69999802E-3,2.3999999,
,,,-52.59999633E-3,4.15999985,,,,,-52.59999633E-3,2.3199999,
,,,-52.49999836E-3,4.07999992,,,,,-52.49999836E-3,2.1599998,
,,,-52.39999667E-3,4.07999992,,,,,-52.39999667E-3,2.0000000,
,,,-52.29999870E-3,4.07999992,,,,,-52.29999870E-3,1.8399999,
,,,-52.19999701E-3,4.07999992,,,,,-52.19999701E-3,1.6799999,
,,,-52.09999904E-3,4.07999992,,,,,-52.09999904E-3,1.5200000,
,,,-51.99999735E-3,4.07999992,,,,,-51.99999735E-3,1.3600000,
,,,-51.89999938E-3,4.00000000,,,,,-51.89999938E-3,1.1999999,
,,,-51.79999769E-3,4.07999992,,,,,-51.79999769E-3,1.0400000,
,,,-51.69999972E-3,4.00000000,,,,,-51.69999972E-3,879.999995232E-3,
,,,-51.59999803E-3,4.00000000,,,,,-51.59999803E-3,719.999969006E-3,
,,,-51.49999633E-3,4.00000000,,,,,-51.49999633E-3,560.000002384E-3,
,,,-51.39999837E-3,4.00000000,,,,,-51.39999837E-3,399.99997616E-3,
,,,-51.29999667E-3,4.00000000,,,,,-51.29999667E-3,239.99999464E-3,
,,,-51.19999871E-3,4.00000000,,,,,-51.19999871E-3,79.999998212E-3,
,,,-51.09999701E-3,4.00000000,,,,,-51.09999701E-3,0.0,
,,,-50.99999905E-3,4.00000000,,,,,-50.99999905E-3,-239.99999464E-3,
,,,-50.89999735E-3,4.00000000,,,,,-50.89999735E-3,-399.99997616E-3,
,,,-50.79999939E-3,4.00000000,,,,,-50.79999939E-3,-560.000002384E-3,
,,,-50.69999769E-3,4.00000000,,,,,-50.69999769E-3,-639.999985695E-3,
,,,-50.59999973E-3,3.91999984,,,,,-50.59999973E-3,-799.999952316E-3,
,,,-50.49999803E-3,3.91999984,,,,,-50.49999803E-3,-1.0400000,
,,,-50.39999634E-3,3.91999984,,,,,-50.39999634E-3,-1.1200000,
,,,-50.29999837E-3,3.91999984,,,,,-50.29999837E-3,-1.3600000,
,,,-50.19999668E-3,3.91999984,,,,,-50.19999668E-3,-1.4399999,
,,,-50.09999871E-3,3.91999984,,,,,-50.09999871E-3,-1.6799999,
,,,-49.99999702E-3,3.91999984,,,,,-49.99999702E-3,-1.7600000,
,,,-49.89999905E-3,3.91999984,,,,,-49.89999905E-3,-1.8399999,
,,,-49.79999736E-3,3.83999991,,,,,-49.79999736E-3,-2.0000000,
,,,-49.69999939E-3,3.83999991,,,,,-49.69999939E-3,-2.1599998,
,,,-49.59999770E-3,3.83999991,,,,,-49.59999770E-3,-2.3199999,
,,,-49.49999973E-3,3.83999991,,,,,-49.49999973E-3,-2.4800000,
,,,-49.39999804E-3,3.83999991,,,,,-49.39999804E-3,-2.5599999,
,,,-49.29999635E-3,3.83999991,,,,,-49.29999635E-3,-2.72000003,
,,,-49.19999838E-3,3.75999999,,,,,-49.19999838E-3,-2.87999988,
,,,-49.09999669E-3,3.83999991,,,,,-49.09999669E-3,-3.03999996,
,,,-48.99999872E-3,3.75999999,,,,,-48.99999872E-3,-3.11999989,
,,,-48.89999703E-3,3.75999999,,,,,-48.89999703E-3,-3.27999997,
,,,-48.79999906E-3,3.83999991,,,,,-48.79999906E-3,-3.35999990,
,,,-48.69999737E-3,3.75999999,,,,,-48.69999737E-3,-3.51999998,
,,,-48.59999940E-3,3.75999999,,,,,-48.59999940E-3,-3.67999983,
,,,-48.49999771E-3,3.75999999,,,,,-48.49999771E-3,-3.75999999,
,,,-48.39999974E-3,3.75999999,,,,,-48.39999974E-3,-3.83999991,
,,,-48.29999804E-3,3.75999999,,,,,-48.29999804E-3,-3.91999984,
,,,-48.19999635E-3,3.75999999,,,,,-48.19999635E-3,-4.00000000,
,,,-48.09999838E-3,3.75999999,,,,,-48.09999838E-3,-4.07999992,
,,,-47.99999669E-3,3.75999999,,,,,-47.99999669E-3,-4.23999977,
,,,-47.89999872E-3,3.67999983,,,,,-47.89999872E-3,-4.23999977,
,,,-47.79999703E-3,3.75999999,,,,,-47.79999703E-3,-4.40000010,
,,,-47.69999906E-3,3.67999983,,,,,-47.69999906E-3,-4.48000002,
,,,-47.59999737E-3,3.67999983,,,,,-47.59999737E-3,-4.48000002,
,,,-47.49999940E-3,3.67999983,,,,,-47.49999940E-3,-4.55999994,
,,,-47.39999771E-3,3.67999983,,,,,-47.39999771E-3,-4.63999987,
,,,-47.29999974E-3,3.67999983,,,,,-47.29999974E-3,-4.71999979,
,,,-47.19999805E-3,3.67999983,,,,,-47.19999805E-3,-4.71999979,
,,,-47.09999636E-3,3.67999983,,,,,-47.09999636E-3,-4.71999979,
,,,-46.99999839E-3,3.67999983,,,,,-46.99999839E-3,-4.88000011,
,,,-46.89999670E-3,3.67999983,,,,,-46.89999670E-3,-4.88000011,
,,,-46.79999873E-3,3.67999983,,,,,-46.79999873E-3,-4.88000011,
,,,-46.69999704E-3,3.59999990,,,,,-46.69999704E-3,-4.96000004,
,,,-46.59999907E-3,3.59999990,,,,,-46.59999907E-3,-4.96000004,
,,,-46.49999738E-3,3.59999990,,,,,-46.49999738E-3,-4.96000004,
,,,-46.39999941E-3,3.59999990,,,,,-46.39999941E-3,-4.96000004,
,,,-46.29999772E-3,3.59999990,,,,,-46.29999772E-3,-4.96000004,
,,,-46.19999975E-3,3.59999990,,,,,-46.19999975E-3,-4.96000004,
,,,-46.09999806E-3,3.59999990,,,,,-46.09999806E-3,-5.03999996,
,,,-45.99999636E-3,3.59999990,,,,,-45.99999636E-3,-5.03999996,
,,,-45.89999840E-3,3.59999990,,,,,-45.89999840E-3,-5.03999996,
,,,-45.79999670E-3,3.59999990,,,,,-45.79999670E-3,-4.96000004,
,,,-45.69999874E-3,3.59999990,,,,,-45.69999874E-3,-4.96000004,
,,,-45.59999704E-3,3.59999990,,,,,-45.59999704E-3,-4.96000004,
,,,-45.49999908E-3,3.59999990,,,,,-45.49999908E-3,-4.96000004,
,,,-45.39999738E-3,3.59999990,,,,,-45.39999738E-3,-4.88000011,
,,,-45.29999942E-3,3.59999990,,,,,-45.29999942E-3,-4.79999971,
,,,-45.19999772E-3,3.51999998,,,,,-45.19999772E-3,-4.79999971,
,,,-45.09999976E-3,3.51999998,,,,,-45.09999976E-3,-4.71999979,
,,,-44.99999806E-3,3.51999998,,,,,-44.99999806E-3,-4.71999979,
,,,-44.89999637E-3,3.51999998,,,,,-44.89999637E-3,-4.63999987,
,,,-44.79999840E-3,3.51999998,,,,,-44.79999840E-3,-4.63999987,
,,,-44.69999671E-3,3.59999990,,,,,-44.69999671E-3,-4.55999994,
,,,-44.59999874E-3,3.51999998,,,,,-44.59999874E-3,-4.48000002,
,,,-44.49999705E-3,3.51999998,,,,,-44.49999705E-3,-4.31999969,
,,,-44.39999908E-3,3.51999998,,,,,-44.39999908E-3,-4.23999977,
,,,-44.29999739E-3,3.51999998,,,,,-44.29999739E-3,-4.23999977,
,,,-44.19999942E-3,3.43999982,,,,,-44.19999942E-3,-4.15999985,
,,,-44.09999773E-3,3.43999982,,,,,-44.09999773E-3,-4.07999992,
,,,-43.99999976E-3,3.43999982,,,,,-43.99999976E-3,-4.00000000,
,,,-43.89999807E-3,3.43999982,,,,,-43.89999807E-3,-3.83999991,
,,,-43.79999638E-3,3.43999982,,,,,-43.79999638E-3,-3.83999991,
,,,-43.69999841E-3,3.43999982,,,,,-43.69999841E-3,-3.67999983,
,,,-43.59999672E-3,3.43999982,,,,,-43.59999672E-3,-3.51999998,
,,,-43.49999875E-3,3.43999982,,,,,-43.49999875E-3,-3.43999982,
,,,-43.39999706E-3,3.35999990,,,,,-43.39999706E-3,-3.27999997,
,,,-43.29999909E-3,3.35999990,,,,,-43.29999909E-3,-3.11999989,
,,,-43.19999740E-3,3.35999990,,,,,-43.19999740E-3,-3.03999996,
,,,-43.09999943E-3,3.35999990,,,,,-43.09999943E-3,-2.96000004,
,,,-42.99999774E-3,3.35999990,,,,,-42.99999774E-3,-2.72000003,
,,,-42.89999977E-3,3.35999990,,,,,-42.89999977E-3,-2.6399999,
,,,-42.79999807E-3,3.35999990,,,,,-42.79999807E-3,-2.4800000,
,,,-42.69999638E-3,3.35999990,,,,,-42.69999638E-3,-2.3999999,
,,,-42.59999841E-3,3.35999990,,,,,-42.59999841E-3,-2.2400000,
,,,-42.49999672E-3,3.35999990,,,,,-42.49999672E-3,-2.0799999,
,,,-42.39999875E-3,3.35999990,,,,,-42.39999875E-3,-1.9200000,
,,,-42.29999706E-3,3.35999990,,,,,-42.29999706E-3,-1.8399999,
,,,-42.19999909E-3,3.27999997,,,,,-42.19999909E-3,-1.6799999,
,,,-42.09999740E-3,3.35999990,,,,,-42.09999740E-3,-1.5200000,
,,,-41.99999943E-3,3.35999990,,,,,-41.99999943E-3,-1.3600000,
,,,-41.89999774E-3,3.35999990,,,,,-41.89999774E-3,-1.1999999,
,,,-41.79999977E-3,3.27999997,,,,,-41.79999977E-3,-1.0400000,
,,,-41.69999808E-3,3.27999997,,,,,-41.69999808E-3,-879.999995232E-3,
,,,-41.59999639E-3,3.27999997,,,,,-41.59999639E-3,-719.999969006E-3,
,,,-41.49999842E-3,3.27999997,,,,,-41.49999842E-3,-560.000002384E-3,
,,,-41.39999673E-3,3.27999997,,,,,-41.39999673E-3,-399.99997616E-3,
,,,-41.29999876E-3,3.27999997,,,,,-41.29999876E-3,-319.99999285E-3,
,,,-41.19999707E-3,3.27999997,,,,,-41.19999707E-3,-79.999998212E-3,
,,,-41.09999910E-3,3.27999997,,,,,-41.09999910E-3,79.999998212E-3,
,,,-40.99999741E-3,3.19999981,,,,,-40.99999741E-3,239.99999464E-3,
,,,-40.89999944E-3,3.27999997,,,,,-40.89999944E-3,399.99997616E-3,
,,,-40.79999775E-3,3.27999997,,,,,-40.79999775E-3,560.000002384E-3,
,,,-40.69999978E-3,3.19999981,,,,,-40.69999978E-3,639.999985695E-3,
,,,-40.59999809E-3,3.19999981,,,,,-40.59999809E-3,879.999995232E-3,
,,,-40.49999639E-3,3.19999981,,,,,-40.49999639E-3,959.999978542E-3,
,,,-40.39999843E-3,3.27999997,,,,,-40.39999843E-3,1.1200000,
,,,-40.29999673E-3,3.19999981,,,,,-40.29999673E-3,1.2800000,
,,,-40.19999877E-3,3.19999981,,,,,-40.19999877E-3,1.4399999,
,,,-40.09999707E-3,3.19999981,,,,,-40.09999707E-3,1.5999999,
,,,-39.99999911E-3,3.19999981,,,,,-39.99999911E-3,1.7600000,
,,,-39.89999741E-3,3.11999989,,,,,-39.89999741E-3,1.9200000,
,,,-39.79999945E-3,3.19999981,,,,,-39.79999945E-3,2.0799999,
,,,-39.69999775E-3,3.19999981,,,,,-39.69999775E-3,2.2400000,
,,,-39.59999979E-3,3.19999981,,,,,-39.59999979E-3,2.3199999,
,,,-39.49999809E-3,3.11999989,,,,,-39.49999809E-3,2.4800000,
,,,-39.39999640E-3,3.11999989,,,,,-39.39999640E-3,2.6399999,
,,,-39.29999843E-3,3.11999989,,,,,-39.29999843E-3,2.72000003,
,,,-39.19999674E-3,3.11999989,,,,,-39.19999674E-3,2.87999988,
,,,-39.09999877E-3,3.11999989,,,,,-39.09999877E-3,3.03999996,
,,,-38.99999708E-3,3.11999989,,,,,-38.99999708E-3,3.11999989,
,,,-38.89999911E-3,3.11999989,,,,,-38.89999911E-3,3.19999981,
,,,-38.79999742E-3,3.11999989,,,,,-38.79999742E-3,3.35999990,
,,,-38.69999945E-3,3.11999989,,,,,-38.69999945E-3,3.43999982,
,,,-38.59999776E-3,3.11999989,,,,,-38.59999776E-3,3.59999990,
,,,-38.49999979E-3,3.11999989,,,,,-38.49999979E-3,3.67999983,
,,,-38.39999810E-3,3.03999996,,,,,-38.39999810E-3,3.67999983,
,,,-38.30000013E-3,3.11999989,,,,,-38.30000013E-3,3.75999999,
,,,-38.19999844E-3,3.11999989,,,,,-38.19999844E-3,3.75999999,
,,,-38.09999675E-3,3.19999981,,,,,-38.09999675E-3,3.75999999,
,,,-37.99999878E-3,3.19999981,,,,,-37.99999878E-3,3.83999991,
,,,-37.89999709E-3,3.27999997,,,,,-37.89999709E-3,3.91999984,
,,,-37.79999912E-3,3.35999990,,,,,-37.79999912E-3,4.00000000,
,,,-37.69999743E-3,3.35999990,,,,,-37.69999743E-3,4.07999992,
,,,-37.59999946E-3,3.51999998,,,,,-37.59999946E-3,4.15999985,
,,,-37.49999776E-3,3.59999990,,,,,-37.49999776E-3,4.15999985,
,,,-37.39999980E-3,3.59999990,,,,,-37.39999980E-3,4.31999969,
,,,-37.29999810E-3,3.59999990,,,,,-37.29999810E-3,4.31999969,
,,,-37.20000014E-3,3.67999983,,,,,-37.20000014E-3,4.40000010,
,,,-37.09999844E-3,3.75999999,,,,,-37.09999844E-3,4.48000002,
,,,-36.99999675E-3,3.83999991,,,,,-36.99999675E-3,4.48000002,
,,,-36.89999878E-3,3.91999984,,,,,-36.89999878E-3,4.55999994,
,,,-36.79999709E-3,4.00000000,,,,,-36.79999709E-3,4.55999994,
,,,-36.69999912E-3,4.00000000,,,,,-36.69999912E-3,4.63999987,
,,,-36.59999743E-3,4.07999992,,,,,-36.59999743E-3,4.71999979,
,,,-36.49999946E-3,4.07999992,,,,,-36.49999946E-3,4.79999971,
,,,-36.39999777E-3,4.15999985,,,,,-36.39999777E-3,4.79999971,
,,,-36.29999980E-3,4.15999985,,,,,-36.29999980E-3,4.79999971,
,,,-36.19999811E-3,4.23999977,,,,,-36.19999811E-3,4.79999971,
,,,-36.10000014E-3,4.23999977,,,,,-36.10000014E-3,4.88000011,
,,,-35.99999845E-3,4.23999977,,,,,-35.99999845E-3,4.88000011,
,,,-35.89999676E-3,4.31999969,,,,,-35.89999676E-3,4.88000011,
,,,-35.79999879E-3,4.31999969,,,,,-35.79999879E-3,4.88000011,
,,,-35.69999710E-3,4.31999969,,,,,-35.69999710E-3,4.88000011,
,,,-35.59999913E-3,4.31999969,,,,,-35.59999913E-3,4.88000011,
,,,-35.49999744E-3,4.31999969,,,,,-35.49999744E-3,4.88000011,
,,,-35.39999947E-3,4.31999969,,,,,-35.39999947E-3,4.88000011,
,,,-35.29999778E-3,4.31999969,,,,,-35.29999778E-3,4.79999971,
,,,-35.19999981E-3,4.31999969,,,,,-35.19999981E-3,4.79999971,
,,,-35.09999812E-3,4.31999969,,,,,-35.09999812E-3,4.79999971,
,,,-35.00000015E-3,4.31999969,,,,,-35.00000015E-3,4.71999979,
,,,-34.89999846E-3,4.31999969,,,,,-34.89999846E-3,4.63999987,
,,,-34.79999676E-3,4.31999969,,,,,-34.79999676E-3,4.55999994,
,,,-34.69999880E-3,4.23999977,,,,,-34.69999880E-3,4.55999994,
,,,-34.59999710E-3,4.23999977,,,,,-34.59999710E-3,4.48000002,
