Informe-2/Continua/RLC/1 H 25HZ 400 Ohm 0,1 muF (amortiguado).csv

Record Length,2500,Points,-440.000003437E-6,4.00000019E-3,
Sample Interval,3.99999999E-6,s,-436.000002082E-6,6.00000005E-3,
Trigger Point,110.0000011,Samples,-432.000000728E-6,2.0000001E-3,
,,,-427.999999374E-6,0.0,
,,,-423.999998020E-6,2.0000001E-3,
,,,-419.999996666E-6,2.0000001E-3,
Source,CH1,,-415.999995312E-6,2.0000001E-3,
Vertical Units,Volts,,-411.999993958E-6,0.0,
Vertical Scale,50.00000237E-3,,-407.999992603E-6,2.0000001E-3,
Vertical Offset,0,,-403.999991249E-6,2.0000001E-3,
Horizontal Units,s,,-399.99998990E-6,2.0000001E-3,
Horizontal Scale,1.000000E-3,,-396.00001764E-6,2.0000001E-3,
Pt Fmt,Y,,-392.00001629E-6,2.0000001E-3,
Yzero,-40.00000000E-3,,-388.00001494E-6,2.0000001E-3,
Probe Atten,1.000000,,-384.00001358E-6,2.0000001E-3,
,,,-380.00001223E-6,2.0000001E-3,
Note,TBS 1052B-EDU - 10:31:18 a.m.   10/02/2016,,-376.00001087E-6,2.0000001E-3,
,,,-372.00000952E-6,2.0000001E-3,
,,,-368.00000817E-6,2.0000001E-3,
,,,-364.00000681E-6,2.0000001E-3,
,,,-360.00000546E-6,2.0000001E-3,
,,,-356.00000410E-6,2.0000001E-3,
,,,-352.00000275E-6,2.0000001E-3,
,,,-348.00000140E-6,2.0000001E-3,
,,,-344.00000004E-6,2.0000001E-3,
,,,-339.99999869E-6,2.0000001E-3,
,,,-335.99999733E-6,2.0000001E-3,
,,,-331.99999598E-6,2.0000001E-3,
,,,-327.99999462E-6,2.0000001E-3,
,,,-323.99999327E-6,2.0000001E-3,
,,,-319.99999192E-6,2.0000001E-3,
,,,-315.99999056E-6,2.0000001E-3,
,,,-311.99998921E-6,0.0,
,,,-308.00001696E-6,0.0,
,,,-304.00001560E-6,2.0000001E-3,
,,,-300.00001425E-6,2.0000001E-3,
,,,-296.00001290E-6,2.0000001E-3,
,,,-292.00001154E-6,2.0000001E-3,
,,,-288.00001019E-6,2.0000001E-3,
,,,-284.00000883E-6,4.00000019E-3,
,,,-280.00000748E-6,2.0000001E-3,
,,,-276.00000612E-6,2.0000001E-3,
,,,-272.00000477E-6,2.0000001E-3,
,,,-268.00000342E-6,2.0000001E-3,
,,,-264.00000206E-6,2.0000001E-3,
,,,-260.00000071E-6,0.0,
,,,-255.99999935E-6,2.0000001E-3,
,,,-251.99999800E-6,2.0000001E-3,
,,,-247.99999665E-6,2.0000001E-3,
,,,-244.00000984E-6,2.0000001E-3,
,,,-240.00000849E-6,2.0000001E-3,
,,,-236.00000713E-6,2.0000001E-3,
,,,-232.00000578E-6,2.0000001E-3,
,,,-228.00000443E-6,2.0000001E-3,
,,,-224.00000307E-6,0.0,
,,,-220.00000172E-6,2.0000001E-3,
,,,-216.00000036E-6,4.00000019E-3,
,,,-211.99999901E-6,0.0,
,,,-207.99999766E-6,2.0000001E-3,
,,,-204.00001085E-6,2.0000001E-3,
,,,-200.00000950E-6,0.0,
,,,-196.00000815E-6,2.0000001E-3,
,,,-192.00000679E-6,2.0000001E-3,
,,,-188.00000544E-6,2.0000001E-3,
,,,-184.00000408E-6,2.0000001E-3,
,,,-180.00000273E-6,2.0000001E-3,
,,,-176.00000137E-6,4.00000019E-3,
,,,-172.00000002E-6,2.0000001E-3,
,,,-167.99999867E-6,0.0,
,,,-163.99999731E-6,2.0000001E-3,
,,,-160.00001051E-6,2.0000001E-3,
,,,-156.00000916E-6,0.0,
,,,-152.00000780E-6,2.0000001E-3,
,,,-148.0000064E-6,2.0000001E-3,
,,,-144.0000051E-6,0.0,
,,,-140.0000037E-6,2.0000001E-3,
,,,-136.0000024E-6,2.0000001E-3,
,,,-132.0000010E-6,2.0000001E-3,
,,,-127.9999997E-6,2.0000001E-3,
,,,-123.9999983E-6,2.0000001E-3,
,,,-120.0000042E-6,0.0,
,,,-116.0000029E-6,2.0000001E-3,
,,,-112.0000015E-6,0.0,
,,,-108.0000075E-6,0.0,
,,,-104.0000061E-6,4.00000019E-3,
,,,-100.0000047E-6,2.0000001E-3,
,,,-96.000003396E-6,2.0000001E-3,
,,,-92.000002041E-6,0.0,
,,,-88.000000687E-6,0.0,
,,,-84.000006609E-6,0.0,
,,,-80.000005255E-6,2.0000001E-3,
,,,-76.000003901E-6,0.0,
,,,-72.000002547E-6,4.00000019E-3,
,,,-68.000001193E-6,2.0000001E-3,
,,,-64.000007114E-6,0.0,
,,,-60.000005760E-6,2.0000001E-3,
,,,-56.000004406E-6,2.0000001E-3,
,,,-52.00000305E-6,2.0000001E-3,
,,,-48.00000534E-6,0.0,
,,,-44.00000398E-6,2.0000001E-3,
,,,-40.00000627E-6,2.0000001E-3,
,,,-36.00000491E-6,0.0,
,,,-32.00000356E-6,0.0,
,,,-28.00000402E-6,0.0,
,,,-24.00000449E-6,0.0,
,,,-20.0000050E-6,0.0,
,,,-16.0000054E-6,2.0000001E-3,
,,,-12.0000041E-6,0.0,
,,,-8.000004527E-6,2.0000001E-3,
,,,-4.00000454E-6,0.0,
,,,-4.54747349E-12,0.0,
,,,3.99999544E-6,2.0000001E-3,
,,,7.999995432E-6,4.00000019E-3,
,,,11.9999950E-6,4.00000019E-3,
,,,15.9999945E-6,4.00000019E-3,
,,,19.9999959E-6,8.000000380E-3,
,,,23.99999539E-6,10.0000007E-3,
,,,27.99999493E-6,10.0000007E-3,
,,,31.99999628E-6,10.0000007E-3,
,,,35.99999400E-6,12.0000001E-3,
,,,39.99999535E-6,12.0000001E-3,
,,,43.99999671E-6,12.0000001E-3,
,,,47.99999442E-6,16.0000008E-3,
,,,51.99999578E-6,16.0000008E-3,
,,,55.999997130E-6,18.0000011E-3,
,,,59.999994846E-6,20.0000014E-3,
,,,63.999992562E-6,18.0000011E-3,
,,,67.999993917E-6,22.00000174E-3,
,,,71.999995271E-6,22.00000174E-3,
,,,75.999996625E-6,24.00000021E-3,
,,,79.999997979E-6,24.00000021E-3,
,,,83.999992057E-6,26.00000054E-3,
,,,87.999993411E-6,26.00000054E-3,
,,,91.999994766E-6,28.00000086E-3,
,,,95.999996120E-6,28.00000086E-3,
,,,99.999997474E-6,32.00000152E-3,
,,,103.9999916E-6,28.00000086E-3,
,,,107.9999929E-6,30.00000119E-3,
,,,111.9999943E-6,34.00000185E-3,
,,,115.9999956E-6,34.00000185E-3,
,,,119.9999970E-6,36.00000218E-3,
,,,123.9999983E-6,36.00000218E-3,
,,,127.9999997E-6,36.00000218E-3,
,,,132.0000010E-6,40.00000283E-3,
,,,135.9999878E-6,40.00000283E-3,
,,,139.9999892E-6,36.00000218E-3,
,,,143.9999905E-6,40.00000283E-3,
,,,147.9999919E-6,42.00000316E-3,
,,,151.99999325E-6,42.00000316E-3,
,,,155.99999460E-6,42.00000316E-3,
,,,159.99999596E-6,46.00000381E-3,
,,,163.99999731E-6,46.00000381E-3,
,,,167.99999867E-6,44.00000349E-3,
,,,172.00000002E-6,48.00000042E-3,
,,,176.00000137E-6,50.00000075E-3,
,,,179.99998818E-6,46.00000381E-3,
,,,183.99998953E-6,50.00000075E-3,
,,,187.99999089E-6,50.00000075E-3,
,,,191.99999224E-6,52.00000107E-3,
,,,195.99999359E-6,52.00000107E-3,
,,,199.99999495E-6,54.00000140E-3,
,,,203.99999630E-6,56.000001729E-3,
,,,207.99999766E-6,56.000001729E-3,
,,,211.99999901E-6,54.00000140E-3,
,,,216.00000036E-6,56.000001729E-3,
,,,220.00000172E-6,58.000002056E-3,
,,,223.99998852E-6,60.000002384E-3,
,,,227.99998987E-6,58.000002056E-3,
,,,231.99999123E-6,60.000002384E-3,
,,,235.99999258E-6,62.000002712E-3,
,,,239.99999394E-6,62.000002712E-3,
,,,243.99999529E-6,62.000002712E-3,
,,,247.99999665E-6,62.000002712E-3,
,,,251.99999800E-6,65.999999642E-3,
,,,255.99999935E-6,65.999999642E-3,
,,,260.00000071E-6,62.000002712E-3,
,,,264.00000206E-6,65.999999642E-3,
,,,268.00000342E-6,68.000003695E-3,
,,,272.00000477E-6,65.999999642E-3,
,,,276.00000612E-6,65.999999642E-3,
,,,280.00000748E-6,68.000003695E-3,
,,,284.00000883E-6,68.000003695E-3,
,,,287.99998108E-6,72.000004351E-3,
,,,291.99998244E-6,70.000000298E-3,
,,,295.99998379E-6,70.000000298E-3,
,,,299.99998515E-6,72.000004351E-3,
,,,303.99998650E-6,72.000004351E-3,
,,,307.99998785E-6,70.000000298E-3,
,,,311.99998921E-6,70.000000298E-3,
,,,315.99999056E-6,74.000000954E-3,
,,,319.99999192E-6,72.000004351E-3,
,,,323.99999327E-6,74.000000954E-3,
,,,327.99999462E-6,72.000004351E-3,
,,,331.99999598E-6,76.000005007E-3,
,,,335.99999733E-6,76.000005007E-3,
,,,339.99999869E-6,76.000005007E-3,
,,,344.00000004E-6,76.000005007E-3,
,,,348.00000140E-6,76.000005007E-3,
,,,352.00000275E-6,78.000001609E-3,
,,,356.00000410E-6,78.000001609E-3,
,,,360.00000546E-6,78.000001609E-3,
,,,364.00000681E-6,76.000005007E-3,
,,,368.00000817E-6,76.000005007E-3,
,,,371.99998042E-6,78.000001609E-3,
,,,375.99998177E-6,80.000005662E-3,
,,,379.99998312E-6,80.000005662E-3,
,,,383.99998448E-6,80.000005662E-3,
,,,387.99998583E-6,80.000005662E-3,
,,,391.99998719E-6,80.000005662E-3,
,,,395.99998854E-6,82.000002265E-3,
,,,399.99998990E-6,80.000005662E-3,
,,,403.999991249E-6,80.000005662E-3,
,,,407.999992603E-6,82.000002265E-3,
,,,411.999993958E-6,82.000002265E-3,
,,,415.999995312E-6,80.000005662E-3,
,,,419.999996666E-6,84.000006318E-3,
,,,423.999998020E-6,82.000002265E-3,
,,,427.999999374E-6,84.000006318E-3,
,,,432.000000728E-6,84.000006318E-3,
,,,436.000002082E-6,82.000002265E-3,
,,,440.000003437E-6,82.000002265E-3,
,,,444.000004791E-6,82.000002265E-3,
,,,448.000006145E-6,82.000002265E-3,
,,,452.000007499E-6,84.000006318E-3,
,,,455.999979749E-6,80.000005662E-3,
,,,459.999981103E-6,84.000006318E-3,
,,,463.999982458E-6,82.000002265E-3,
,,,467.999983812E-6,84.000006318E-3,
,,,471.999985166E-6,86.000002921E-3,
,,,475.999986520E-6,84.000006318E-3,
,,,479.999987874E-6,84.000006318E-3,
,,,483.999989228E-6,84.000006318E-3,
,,,487.999990582E-6,82.000002265E-3,
,,,492.000021040E-6,84.000006318E-3,
,,,495.999993291E-6,84.000006318E-3,
,,,499.999965541E-6,82.000002265E-3,
,,,503.999995999E-6,84.000006318E-3,
,,,507.999968249E-6,84.000006318E-3,
,,,511.999998707E-6,86.000002921E-3,
,,,515.999970958E-6,82.000002265E-3,
,,,520.000001416E-6,82.000002265E-3,
,,,523.999973666E-6,84.000006318E-3,
,,,528.000004124E-6,82.000002265E-3,
,,,531.999976374E-6,82.000002265E-3,
,,,536.000006832E-6,80.000005662E-3,
,,,539.999979082E-6,82.000002265E-3,
,,,544.000009540E-6,82.000002265E-3,
,,,547.999981791E-6,82.000002265E-3,
,,,552.000012249E-6,80.000005662E-3,
,,,555.999984499E-6,84.000006318E-3,
,,,560.000014957E-6,82.000002265E-3,
,,,563.999987207E-6,80.000005662E-3,
,,,568.000017665E-6,80.000005662E-3,
,,,571.999989916E-6,82.000002265E-3,
,,,576.000020374E-6,80.000005662E-3,
,,,579.999992624E-6,80.000005662E-3,
,,,584.000023082E-6,78.000001609E-3,
,,,587.999995332E-6,80.000005662E-3,
,,,591.999967583E-6,78.000001609E-3,
,,,595.999998040E-6,78.000001609E-3,
,,,599.999970291E-6,78.000001609E-3,
,,,604.000000749E-6,78.000001609E-3,
,,,607.999972999E-6,76.000005007E-3,
,,,612.000003457E-6,76.000005007E-3,
,,,615.999975707E-6,76.000005007E-3,
,,,620.000006165E-6,74.000000954E-3,
,,,623.999978416E-6,72.000004351E-3,
,,,628.000008874E-6,74.000000954E-3,
,,,631.999981124E-6,72.000004351E-3,
,,,636.000011582E-6,72.000004351E-3,
,,,639.999983832E-6,74.000000954E-3,
,,,644.000014290E-6,72.000004351E-3,
,,,647.999986541E-6,72.000004351E-3,
,,,652.000016998E-6,68.000003695E-3,
,,,655.999989249E-6,72.000004351E-3,
,,,660.000019707E-6,70.000000298E-3,
,,,663.999991957E-6,68.000003695E-3,
,,,668.000022415E-6,70.000000298E-3,
,,,671.999994665E-6,68.000003695E-3,
,,,675.999966916E-6,70.000000298E-3,
,,,679.999997374E-6,68.000003695E-3,
,,,683.999969624E-6,65.999999642E-3,
,,,688.000000082E-6,68.000003695E-3,
,,,691.999972332E-6,64.000003040E-3,
,,,696.000002790E-6,64.000003040E-3,
,,,699.999975041E-6,62.000002712E-3,
,,,704.000005499E-6,64.000003040E-3,
,,,707.999977749E-6,60.000002384E-3,
,,,712.000008207E-6,60.000002384E-3,
,,,715.999980457E-6,64.000003040E-3,
,,,720.000010915E-6,62.000002712E-3,
,,,723.999983165E-6,60.000002384E-3,
,,,728.000013623E-6,60.000002384E-3,
,,,731.999985874E-6,60.000002384E-3,
,,,736.000016332E-6,58.000002056E-3,
,,,739.999988582E-6,58.000002056E-3,
,,,744.000019040E-6,58.000002056E-3,
,,,747.999991290E-6,58.000002056E-3,
,,,752.000021748E-6,54.00000140E-3,
,,,755.999993999E-6,54.00000140E-3,
,,,759.999966249E-6,54.00000140E-3,
,,,763.999996707E-6,52.00000107E-3,
,,,767.999968957E-6,50.00000075E-3,
,,,771.999999415E-6,52.00000107E-3,
,,,775.999971665E-6,50.00000075E-3,
,,,780.000002123E-6,50.00000075E-3,
,,,783.999974374E-6,48.00000042E-3,
,,,788.000004832E-6,48.00000042E-3,
,,,791.999977082E-6,44.00000349E-3,
,,,796.000007540E-6,48.00000042E-3,
,,,799.999979790E-6,46.00000381E-3,
,,,804.000010248E-6,46.00000381E-3,
,,,807.999982499E-6,42.00000316E-3,
,,,812.000012957E-6,44.00000349E-3,
,,,815.999985207E-6,42.00000316E-3,
,,,820.000015665E-6,42.00000316E-3,
,,,823.999987915E-6,40.00000283E-3,
,,,828.000018373E-6,40.00000283E-3,
,,,831.999990623E-6,40.00000283E-3,
,,,836.000021081E-6,38.00000250E-3,
,,,839.999993332E-6,34.00000185E-3,
,,,843.999965582E-6,36.00000218E-3,
,,,847.999996040E-6,34.00000185E-3,
,,,851.999968290E-6,32.00000152E-3,
,,,855.999998748E-6,34.00000185E-3,
,,,859.999970999E-6,30.00000119E-3,
,,,864.000001457E-6,32.00000152E-3,
,,,867.999973707E-6,30.00000119E-3,
,,,872.000004165E-6,30.00000119E-3,
,,,875.999976415E-6,26.00000054E-3,
,,,880.000006873E-6,26.00000054E-3,
,,,883.999979123E-6,30.00000119E-3,
,,,888.000009581E-6,28.00000086E-3,
,,,891.999981832E-6,22.00000174E-3,
,,,896.000012290E-6,22.00000174E-3,
,,,899.999984540E-6,24.00000021E-3,
,,,904.000014998E-6,22.00000174E-3,
,,,907.999987248E-6,18.0000011E-3,
,,,912.000017706E-6,22.00000174E-3,
,,,915.999989957E-6,22.00000174E-3,
,,,920.000020415E-6,16.0000008E-3,
,,,923.999992665E-6,20.0000014E-3,
,,,927.999964915E-6,18.0000011E-3,
,,,931.999995373E-6,14.0000004E-3,
,,,935.999967624E-6,12.0000001E-3,
,,,939.999998081E-6,14.0000004E-3,
,,,943.999970332E-6,12.0000001E-3,
,,,948.000000790E-6,12.0000001E-3,
,,,951.999973040E-6,10.0000007E-3,
,,,956.000003498E-6,12.0000001E-3,
,,,959.999975748E-6,12.0000001E-3,
,,,964.000006206E-6,10.0000007E-3,
,,,967.999978457E-6,8.000000380E-3,
,,,972.000008915E-6,8.000000380E-3,
,,,975.999981165E-6,6.00000005E-3,
,,,980.000011623E-6,6.00000005E-3,
,,,984.000042081E-6,2.0000001E-3,
,,,987.999956124E-6,4.00000019E-3,
,,,991.999986582E-6,4.00000019E-3,
,,,996.000017039E-6,-2.0000001E-3,
,,,1.0000000E-3,0.0,
,,,1.0040000E-3,-2.0000001E-3,
,,,1.0080000E-3,0.0,
,,,1.0120000E-3,-2.0000001E-3,
,,,1.0159999E-3,-4.00000019E-3,
,,,1.0200000E-3,-4.00000019E-3,
,,,1.0240000E-3,-6.00000005E-3,
,,,1.0280000E-3,-6.00000005E-3,
,,,1.0319999E-3,-4.00000019E-3,
,,,1.0360000E-3,-10.0000007E-3,
,,,1.0400000E-3,-8.000000380E-3,
,,,1.0440000E-3,-10.0000007E-3,
,,,1.0479999E-3,-12.0000001E-3,
,,,1.0520000E-3,-12.0000001E-3,
,,,1.0560000E-3,-12.0000001E-3,
,,,1.0600000E-3,-14.0000004E-3,
,,,1.0640000E-3,-14.0000004E-3,
,,,1.0680000E-3,-14.0000004E-3,
,,,1.0720000E-3,-18.0000011E-3,
,,,1.0760000E-3,-20.0000014E-3,
,,,1.0800000E-3,-18.0000011E-3,
,,,1.0840000E-3,-20.0000014E-3,
,,,1.0880000E-3,-22.00000174E-3,
,,,1.0920000E-3,-20.0000014E-3,
,,,1.0960000E-3,-20.0000014E-3,
,,,1.1000000E-3,-22.00000174E-3,
,,,1.1040000E-3,-24.00000021E-3,
,,,1.1079999E-3,-24.00000021E-3,
,,,1.1120000E-3,-24.00000021E-3,
,,,1.1160000E-3,-24.00000021E-3,
,,,1.1200000E-3,-28.00000086E-3,
,,,1.1239999E-3,-28.00000086E-3,
,,,1.1280000E-3,-26.00000054E-3,
,,,1.1320000E-3,-28.00000086E-3,
,,,1.1360000E-3,-30.00000119E-3,
,,,1.1399999E-3,-32.00000152E-3,
,,,1.1440000E-3,-30.00000119E-3,
,,,1.1480000E-3,-32.00000152E-3,
,,,1.1520000E-3,-32.00000152E-3,
,,,1.1560000E-3,-34.00000185E-3,
,,,1.1600000E-3,-34.00000185E-3,
,,,1.1640000E-3,-36.00000218E-3,
,,,1.1680000E-3,-36.00000218E-3,
,,,1.1720000E-3,-36.00000218E-3,
,,,1.1760000E-3,-40.00000283E-3,
,,,1.1800000E-3,-40.00000283E-3,
,,,1.1839999E-3,-40.00000283E-3,
,,,1.1880000E-3,-40.00000283E-3,
,,,1.1920000E-3,-40.00000283E-3,
,,,1.1960000E-3,-40.00000283E-3,
,,,1.1999999E-3,-42.00000316E-3,
,,,1.2040000E-3,-40.00000283E-3,
,,,1.2080000E-3,-44.00000349E-3,
,,,1.2120000E-3,-46.00000381E-3,
,,,1.2159999E-3,-46.00000381E-3,
,,,1.2200000E-3,-44.00000349E-3,
,,,1.2240000E-3,-46.00000381E-3,
,,,1.2280000E-3,-46.00000381E-3,
,,,1.2320000E-3,-48.00000042E-3,
,,,1.2360000E-3,-50.00000075E-3,
,,,1.2400000E-3,-48.00000042E-3,
,,,1.2440000E-3,-46.00000381E-3,
,,,1.2480000E-3,-48.00000042E-3,
,,,1.2520000E-3,-50.00000075E-3,
,,,1.2560000E-3,-52.00000107E-3,
,,,1.2600000E-3,-52.00000107E-3,
,,,1.2640000E-3,-52.00000107E-3,
,,,1.2680000E-3,-54.00000140E-3,
,,,1.2720000E-3,-52.00000107E-3,
,,,1.2759999E-3,-52.00000107E-3,
,,,1.2800000E-3,-54.00000140E-3,
,,,1.2840000E-3,-54.00000140E-3,
,,,1.2880000E-3,-54.00000140E-3,
,,,1.2919999E-3,-56.000001729E-3,
,,,1.2960000E-3,-56.000001729E-3,
,,,1.3000000E-3,-56.000001729E-3,
,,,1.3040000E-3,-56.000001729E-3,
,,,1.3079999E-3,-58.000002056E-3,
,,,1.3120000E-3,-58.000002056E-3,
,,,1.3160000E-3,-56.000001729E-3,
,,,1.3200000E-3,-58.000002056E-3,
,,,1.3240000E-3,-62.000002712E-3,
,,,1.3280000E-3,-60.000002384E-3,
,,,1.3320000E-3,-58.000002056E-3,
,,,1.3360000E-3,-58.000002056E-3,
,,,1.3400000E-3,-60.000002384E-3,
,,,1.3440000E-3,-60.000002384E-3,
,,,1.3480000E-3,-62.000002712E-3,
,,,1.3520001E-3,-62.000002712E-3,
,,,1.3560000E-3,-60.000002384E-3,
,,,1.3600000E-3,-62.000002712E-3,
,,,1.3640000E-3,-60.000002384E-3,
,,,1.3679999E-3,-62.000002712E-3,
,,,1.3720000E-3,-62.000002712E-3,
,,,1.3760000E-3,-62.000002712E-3,
,,,1.3800000E-3,-64.000003040E-3,
,,,1.3839999E-3,-65.999999642E-3,
,,,1.3880000E-3,-62.000002712E-3,
,,,1.3920000E-3,-64.000003040E-3,
,,,1.3960000E-3,-65.999999642E-3,
,,,1.4000000E-3,-62.000002712E-3,
,,,1.4040000E-3,-64.000003040E-3,
,,,1.4080000E-3,-65.999999642E-3,
,,,1.4120000E-3,-62.000002712E-3,
,,,1.4160000E-3,-65.999999642E-3,
,,,1.4200000E-3,-68.000003695E-3,
,,,1.4240000E-3,-64.000003040E-3,
,,,1.4280000E-3,-64.000003040E-3,
,,,1.4320000E-3,-64.000003040E-3,
,,,1.4360000E-3,-64.000003040E-3,
,,,1.4400000E-3,-64.000003040E-3,
,,,1.4439999E-3,-65.999999642E-3,
,,,1.4480000E-3,-64.000003040E-3,
,,,1.4520000E-3,-64.000003040E-3,
,,,1.4560000E-3,-64.000003040E-3,
,,,1.4599999E-3,-65.999999642E-3,
,,,1.4640000E-3,-65.999999642E-3,
,,,1.4680000E-3,-64.000003040E-3,
,,,1.4720000E-3,-65.999999642E-3,
,,,1.4759999E-3,-65.999999642E-3,
,,,1.4800000E-3,-64.000003040E-3,
,,,1.4840000E-3,-64.000003040E-3,
,,,1.4880000E-3,-64.000003040E-3,
,,,1.4920000E-3,-64.000003040E-3,
,,,1.4960000E-3,-65.999999642E-3,
,,,1.5000000E-3,-65.999999642E-3,
,,,1.5040000E-3,-64.000003040E-3,
,,,1.5080000E-3,-65.999999642E-3,
,,,1.5120000E-3,-64.000003040E-3,
,,,1.5160000E-3,-65.999999642E-3,
,,,1.5200000E-3,-62.000002712E-3,
,,,1.5240000E-3,-62.000002712E-3,
,,,1.5280000E-3,-64.000003040E-3,
,,,1.5320000E-3,-64.000003040E-3,
,,,1.5359999E-3,-64.000003040E-3,
,,,1.5400000E-3,-64.000003040E-3,
,,,1.5440000E-3,-62.000002712E-3,
,,,1.5480000E-3,-65.999999642E-3,
,,,1.5519999E-3,-64.000003040E-3,
,,,1.5560000E-3,-62.000002712E-3,
,,,1.5600000E-3,-62.000002712E-3,
,,,1.5640000E-3,-62.000002712E-3,
,,,1.5679999E-3,-62.000002712E-3,
,,,1.5720000E-3,-62.000002712E-3,
,,,1.5760000E-3,-62.000002712E-3,
,,,1.5800000E-3,-65.999999642E-3,
,,,1.5840000E-3,-60.000002384E-3,
,,,1.5880000E-3,-60.000002384E-3,
,,,1.5920000E-3,-58.000002056E-3,
,,,1.5960000E-3,-60.000002384E-3,
,,,1.6000000E-3,-58.000002056E-3,
,,,1.6040000E-3,-60.000002384E-3,
,,,1.6080000E-3,-58.000002056E-3,
,,,1.6119999E-3,-58.000002056E-3,
,,,1.6160000E-3,-58.000002056E-3,
,,,1.6200000E-3,-56.000001729E-3,
,,,1.6240000E-3,-58.000002056E-3,
,,,1.6279999E-3,-60.000002384E-3,
,,,1.6320000E-3,-56.000001729E-3,
,,,1.6360000E-3,-56.000001729E-3,
,,,1.6400000E-3,-56.000001729E-3,
,,,1.6439999E-3,-58.000002056E-3,
,,,1.6480000E-3,-56.000001729E-3,
,,,1.6520000E-3,-54.00000140E-3,
,,,1.6560000E-3,-56.000001729E-3,
,,,1.6600000E-3,-52.00000107E-3,
,,,1.6640000E-3,-52.00000107E-3,
,,,1.6680000E-3,-54.00000140E-3,
,,,1.6720000E-3,-52.00000107E-3,
,,,1.6760000E-3,-52.00000107E-3,
,,,1.6800000E-3,-54.00000140E-3,
,,,1.6840000E-3,-52.00000107E-3,
,,,1.6880000E-3,-48.00000042E-3,
,,,1.6920000E-3,-50.00000075E-3,
,,,1.6960000E-3,-52.00000107E-3,
,,,1.7000000E-3,-50.00000075E-3,
,,,1.7039999E-3,-50.00000075E-3,
,,,1.7080000E-3,-50.00000075E-3,
,,,1.7120000E-3,-46.00000381E-3,
,,,1.7160000E-3,-46.00000381E-3,
,,,1.7199999E-3,-48.00000042E-3,
,,,1.7240000E-3,-46.00000381E-3,
,,,1.7280000E-3,-46.00000381E-3,
,,,1.7320000E-3,-46.00000381E-3,
,,,1.7359999E-3,-46.00000381E-3,
,,,1.7400000E-3,-42.00000316E-3,
,,,1.7440000E-3,-40.00000283E-3,
,,,1.7480000E-3,-44.00000349E-3,
,,,1.7520000E-3,-44.00000349E-3,
,,,1.7560000E-3,-44.00000349E-3,
,,,1.7600000E-3,-40.00000283E-3,
,,,1.7640000E-3,-42.00000316E-3,
,,,1.7680000E-3,-40.00000283E-3,
,,,1.7720000E-3,-36.00000218E-3,
,,,1.7760000E-3,-36.00000218E-3,
,,,1.7799999E-3,-40.00000283E-3,
,,,1.7840000E-3,-34.00000185E-3,
,,,1.7880000E-3,-34.00000185E-3,
,,,1.7920000E-3,-36.00000218E-3,
,,,1.7959999E-3,-34.00000185E-3,
,,,1.8000000E-3,-34.00000185E-3,
,,,1.8040000E-3,-32.00000152E-3,
,,,1.8080000E-3,-32.00000152E-3,
,,,1.8119999E-3,-30.00000119E-3,
,,,1.8160000E-3,-30.00000119E-3,
,,,1.8200000E-3,-30.00000119E-3,
,,,1.8240000E-3,-28.00000086E-3,
,,,1.8279999E-3,-32.00000152E-3,
,,,1.8320000E-3,-30.00000119E-3,
,,,1.8360000E-3,-26.00000054E-3,
,,,1.8400000E-3,-28.00000086E-3,
,,,1.8440000E-3,-26.00000054E-3,
,,,1.8480000E-3,-26.00000054E-3,
,,,1.8520000E-3,-24.00000021E-3,
,,,1.8560000E-3,-22.00000174E-3,
,,,1.8600000E-3,-24.00000021E-3,
,,,1.8640000E-3,-24.00000021E-3,
,,,1.8680000E-3,-24.00000021E-3,
