Informe-2/Continua/RLC/20 mH 300 Ohm 1nF (amortiguado).csv

Record Length,2500,Points,-2.0000000E-6,-4.00000019E-3,,Record Length,2500,Points,-2.0000000E-6,-479.999989271E-3,
Sample Interval,200.00000234E-9,s,-1.7999999E-6,-4.00000019E-3,,Sample Interval,200.00000234E-9,s,-1.7999999E-6,-479.999989271E-3,
Trigger Point,9.999999858,Samples,-1.6000000E-6,4.00000019E-3,,Trigger Point,9.999999858,Samples,-1.6000000E-6,-479.999989271E-3,
,,,-1.4000000E-6,-2.0000001E-3,,,,,-1.4000000E-6,-479.999989271E-3,
,,,-1.2000000E-6,0.0,,,,,-1.2000000E-6,-479.999989271E-3,
,,,-1.000000E-6,2.0000001E-3,,,,,-1.000000E-6,-519.999980927E-3,
Source,CH1,,-799.999952505E-9,-4.00000019E-3,,Source,CH2,,-799.999952505E-9,-479.999989271E-3,
Vertical Units,Volts,,-599.999964379E-9,6.00000005E-3,,Vertical Units,Volts,,-599.999964379E-9,-479.999989271E-3,
Vertical Scale,50.00000237E-3,,-399.99997625E-9,4.00000019E-3,,Vertical Scale,1.000000,,-399.99997625E-9,-519.999980927E-3,
Vertical Offset,0,,-199.99997392E-9,8.000000380E-3,,Vertical Offset,0,,-199.99997392E-9,-519.999980927E-3,
Horizontal Units,s,,28.42170906E-15,6.00000005E-3,,Horizontal Units,s,,28.42170906E-15,-479.999989271E-3,
Horizontal Scale,50.00000058E-6,,200.00003076E-9,6.00000005E-3,,Horizontal Scale,50.00000058E-6,,200.00003076E-9,-479.999989271E-3,
Pt Fmt,Y,,400.00003310E-9,2.0000001E-3,,Pt Fmt,Y,,400.00003310E-9,-479.999989271E-3,
Yzero,0.0,,600.000021223E-9,-4.00000019E-3,,Yzero,40.00000000E-3,,600.000021223E-9,-479.999989271E-3,
Probe Atten,1.000000,,800.000066192E-9,4.00000019E-3,,Probe Atten,1.000000,,800.000066192E-9,-519.999980927E-3,
,,,1.000000E-6,6.00000005E-3,,,,,1.000000E-6,-479.999989271E-3,
Note,TBS 1052B-EDU - 09:38:12 a.m.   10/02/2016,,1.2000000E-6,0.0,,Note,TBS 1052B-EDU - 09:38:12 a.m.   10/02/2016,,1.2000000E-6,-439.999997616E-3,
,,,1.4000001E-6,188.00000846E-3,,,,,1.4000001E-6,2.4400001,
,,,1.6000000E-6,44.00000349E-3,,,,,1.6000000E-6,2.4400001,
,,,1.8000001E-6,60.000002384E-3,,,,,1.8000001E-6,2.4400001,
,,,2.0000000E-6,70.000000298E-3,,,,,2.0000000E-6,2.4400001,
,,,2.2000002E-6,74.000000954E-3,,,,,2.2000002E-6,2.4800000,
,,,2.4000001E-6,92.000007629E-3,,,,,2.4000001E-6,2.4400001,
,,,2.6000000E-6,94.000004232E-3,,,,,2.6000000E-6,2.4800000,
,,,2.79999995E-6,104.0000021E-3,,,,,2.79999995E-6,2.4800000,
,,,3.00000011E-6,108.0000028E-3,,,,,3.00000011E-6,2.3999999,
,,,3.20000004E-6,112.0000035E-3,,,,,3.20000004E-6,2.3999999,
,,,3.39999997E-6,108.0000028E-3,,,,,3.39999997E-6,2.4400001,
,,,3.60000013E-6,112.0000035E-3,,,,,3.60000013E-6,2.4400001,
,,,3.80000006E-6,118.0000082E-3,,,,,3.80000006E-6,2.3999999,
,,,3.99999999E-6,118.0000082E-3,,,,,3.99999999E-6,2.4400001,
,,,4.20000015E-6,124.0000054E-3,,,,,4.20000015E-6,2.4800000,
,,,4.39999985E-6,142.0000046E-3,,,,,4.39999985E-6,2.4400001,
,,,4.60000001E-6,138.0000114E-3,,,,,4.60000001E-6,2.4400001,
,,,4.80000017E-6,134.0000033E-3,,,,,4.80000017E-6,2.4800000,
,,,4.99999987E-6,130.0000101E-3,,,,,4.99999987E-6,2.4400001,
,,,5.20000003E-6,128.0000061E-3,,,,,5.20000003E-6,2.4800000,
,,,5.40000019E-6,128.0000061E-3,,,,,5.40000019E-6,2.4400001,
,,,5.59999989E-6,130.0000101E-3,,,,,5.59999989E-6,2.3999999,
,,,5.80000005E-6,116.0000041E-3,,,,,5.80000005E-6,2.4400001,
,,,6.00000021E-6,114.0000075E-3,,,,,6.00000021E-6,2.4400001,
,,,6.19999992E-6,108.0000028E-3,,,,,6.19999992E-6,2.4400001,
,,,6.40000007E-6,100.0000015E-3,,,,,6.40000007E-6,2.4800000,
,,,6.60000023E-6,106.0000062E-3,,,,,6.60000023E-6,2.4800000,
,,,6.79999994E-6,100.0000015E-3,,,,,6.79999994E-6,2.4400001,
,,,7.00000010E-6,102.0000055E-3,,,,,7.00000010E-6,2.4800000,
,,,7.20000025E-6,94.000004232E-3,,,,,7.20000025E-6,2.4800000,
,,,7.399999959E-6,88.000006974E-3,,,,,7.399999959E-6,2.4800000,
,,,7.600000117E-6,86.000002921E-3,,,,,7.600000117E-6,2.4800000,
,,,7.800000276E-6,84.000006318E-3,,,,,7.800000276E-6,2.4400001,
,,,7.999999980E-6,88.000006974E-3,,,,,7.999999980E-6,2.4400001,
,,,8.199999684E-6,82.000002265E-3,,,,,8.199999684E-6,2.4800000,
,,,8.400000297E-6,82.000002265E-3,,,,,8.400000297E-6,2.4800000,
,,,8.600000001E-6,90.000003576E-3,,,,,8.600000001E-6,2.4400001,
,,,8.799999705E-6,80.000005662E-3,,,,,8.799999705E-6,2.4400001,
,,,9.000000318E-6,88.000006974E-3,,,,,9.000000318E-6,2.4800000,
,,,9.200000022E-6,86.000002921E-3,,,,,9.200000022E-6,2.4400001,
,,,9.399999726E-6,88.000006974E-3,,,,,9.399999726E-6,2.4400001,
,,,9.600000340E-6,84.000006318E-3,,,,,9.600000340E-6,2.4400001,
,,,9.800000043E-6,96.000000834E-3,,,,,9.800000043E-6,2.4400001,
,,,9.999999747E-6,96.000000834E-3,,,,,9.999999747E-6,2.4400001,
,,,10.2000004E-6,96.000000834E-3,,,,,10.2000004E-6,2.4800000,
,,,10.4000001E-6,104.0000021E-3,,,,,10.4000001E-6,2.4400001,
,,,10.5999998E-6,104.0000021E-3,,,,,10.5999998E-6,2.4400001,
,,,10.8000004E-6,106.0000062E-3,,,,,10.8000004E-6,2.4800000,
,,,11.0000001E-6,110.0000069E-3,,,,,11.0000001E-6,2.4400001,
,,,11.1999998E-6,112.0000035E-3,,,,,11.1999998E-6,2.4800000,
,,,11.4000004E-6,118.0000082E-3,,,,,11.4000004E-6,2.5200000,
,,,11.6000001E-6,118.0000082E-3,,,,,11.6000001E-6,2.4800000,
,,,11.7999998E-6,118.0000082E-3,,,,,11.7999998E-6,2.4800000,
,,,12.0000004E-6,116.0000041E-3,,,,,12.0000004E-6,2.3999999,
,,,12.2000001E-6,118.0000082E-3,,,,,12.2000001E-6,2.4800000,
,,,12.3999998E-6,116.0000041E-3,,,,,12.3999998E-6,2.3999999,
,,,12.6000004E-6,124.0000054E-3,,,,,12.6000004E-6,2.4800000,
,,,12.8000001E-6,120.0000048E-3,,,,,12.8000001E-6,2.4400001,
,,,12.9999999E-6,116.0000041E-3,,,,,12.9999999E-6,2.4800000,
,,,13.2000005E-6,112.0000035E-3,,,,,13.2000005E-6,2.4400001,
,,,13.4000002E-6,110.0000069E-3,,,,,13.4000002E-6,2.4800000,
,,,13.5999999E-6,102.0000055E-3,,,,,13.5999999E-6,2.4800000,
,,,13.8000005E-6,112.0000035E-3,,,,,13.8000005E-6,2.4400001,
,,,14.0000002E-6,96.000000834E-3,,,,,14.0000002E-6,2.4400001,
,,,14.1999999E-6,98.000004888E-3,,,,,14.1999999E-6,2.5200000,
,,,14.4000005E-6,90.000003576E-3,,,,,14.4000005E-6,2.3999999,
,,,14.6000002E-6,80.000005662E-3,,,,,14.6000002E-6,2.5200000,
,,,14.7999999E-6,70.000000298E-3,,,,,14.7999999E-6,2.4400001,
,,,15.0000005E-6,68.000003695E-3,,,,,15.0000005E-6,2.4800000,
,,,15.2000002E-6,64.000003040E-3,,,,,15.2000002E-6,2.4800000,
,,,15.4000008E-6,50.00000075E-3,,,,,15.4000008E-6,2.4800000,
,,,15.6000006E-6,52.00000107E-3,,,,,15.6000006E-6,2.4800000,
,,,15.8000003E-6,42.00000316E-3,,,,,15.8000003E-6,2.4400001,
,,,16.0000000E-6,34.00000185E-3,,,,,16.0000000E-6,2.4800000,
,,,16.1999997E-6,28.00000086E-3,,,,,16.1999997E-6,2.5200000,
,,,16.3999994E-6,16.0000008E-3,,,,,16.3999994E-6,2.4800000,
,,,16.6000009E-6,10.0000007E-3,,,,,16.6000009E-6,2.4800000,
,,,16.8000006E-6,6.00000005E-3,,,,,16.8000006E-6,2.4800000,
,,,17.0000003E-6,0.0,,,,,17.0000003E-6,2.4800000,
,,,17.2000000E-6,-10.0000007E-3,,,,,17.2000000E-6,2.4800000,
,,,17.3999997E-6,-20.0000014E-3,,,,,17.3999997E-6,2.4400001,
,,,17.5999994E-6,-28.00000086E-3,,,,,17.5999994E-6,2.4800000,
,,,17.8000009E-6,-20.0000014E-3,,,,,17.8000009E-6,2.4800000,
,,,18.0000006E-6,-34.00000185E-3,,,,,18.0000006E-6,2.4800000,
,,,18.2000003E-6,-54.00000140E-3,,,,,18.2000003E-6,2.4800000,
,,,18.4000000E-6,-36.00000218E-3,,,,,18.4000000E-6,2.4800000,
,,,18.5999997E-6,-52.00000107E-3,,,,,18.5999997E-6,2.4800000,
,,,18.7999995E-6,-56.000001729E-3,,,,,18.7999995E-6,2.4800000,
,,,19.0000010E-6,-62.000002712E-3,,,,,19.0000010E-6,2.4800000,
,,,19.2000007E-6,-72.000004351E-3,,,,,19.2000007E-6,2.5200000,
,,,19.4000004E-6,-76.000005007E-3,,,,,19.4000004E-6,2.4800000,
,,,19.6000001E-6,-88.000006974E-3,,,,,19.6000001E-6,2.4800000,
,,,19.7999998E-6,-76.000005007E-3,,,,,19.7999998E-6,2.5200000,
,,,19.9999995E-6,-76.000005007E-3,,,,,19.9999995E-6,2.5200000,
,,,20.20000102E-6,-76.000005007E-3,,,,,20.20000102E-6,2.4400001,
,,,20.40000072E-6,-80.000005662E-3,,,,,20.40000072E-6,2.4400001,
,,,20.60000043E-6,-84.000006318E-3,,,,,20.60000043E-6,2.5200000,
,,,20.80000013E-6,-80.000005662E-3,,,,,20.80000013E-6,2.4800000,
,,,20.99999983E-6,-80.000005662E-3,,,,,20.99999983E-6,2.4800000,
,,,21.19999954E-6,-80.000005662E-3,,,,,21.19999954E-6,2.4800000,
,,,21.40000106E-6,-80.000005662E-3,,,,,21.40000106E-6,2.5200000,
,,,21.60000076E-6,-90.000003576E-3,,,,,21.60000076E-6,2.5200000,
,,,21.80000047E-6,-90.000003576E-3,,,,,21.80000047E-6,2.4800000,
,,,22.00000017E-6,-90.000003576E-3,,,,,22.00000017E-6,2.4800000,
,,,22.19999988E-6,-90.000003576E-3,,,,,22.19999988E-6,2.5200000,
,,,22.39999958E-6,-82.000002265E-3,,,,,22.39999958E-6,2.5200000,
,,,22.60000110E-6,-82.000002265E-3,,,,,22.60000110E-6,2.4800000,
,,,22.80000081E-6,-86.000002921E-3,,,,,22.80000081E-6,2.4800000,
,,,23.00000051E-6,-86.000002921E-3,,,,,23.00000051E-6,2.4800000,
,,,23.20000021E-6,-86.000002921E-3,,,,,23.20000021E-6,2.5200000,
,,,23.39999992E-6,-90.000003576E-3,,,,,23.39999992E-6,2.5200000,
,,,23.59999962E-6,-94.000004232E-3,,,,,23.59999962E-6,2.4800000,
,,,23.80000114E-6,-86.000002921E-3,,,,,23.80000114E-6,2.4400001,
,,,24.00000085E-6,-96.000000834E-3,,,,,24.00000085E-6,2.5599999,
,,,24.20000055E-6,-92.000007629E-3,,,,,24.20000055E-6,2.5200000,
,,,24.40000026E-6,-84.000006318E-3,,,,,24.40000026E-6,2.4800000,
,,,24.59999996E-6,-90.000003576E-3,,,,,24.59999996E-6,2.5200000,
,,,24.79999966E-6,-92.000007629E-3,,,,,24.79999966E-6,2.5200000,
,,,25.00000119E-6,-92.000007629E-3,,,,,25.00000119E-6,2.5200000,
,,,25.20000089E-6,-98.000004888E-3,,,,,25.20000089E-6,2.4800000,
,,,25.40000060E-6,-92.000007629E-3,,,,,25.40000060E-6,2.4800000,
,,,25.60000030E-6,-88.000006974E-3,,,,,25.60000030E-6,2.4800000,
,,,25.80000000E-6,-98.000004888E-3,,,,,25.80000000E-6,2.4800000,
,,,25.99999971E-6,-94.000004232E-3,,,,,25.99999971E-6,2.5200000,
,,,26.20000123E-6,-92.000007629E-3,,,,,26.20000123E-6,2.4800000,
,,,26.40000093E-6,-96.000000834E-3,,,,,26.40000093E-6,2.5200000,
,,,26.60000064E-6,-96.000000834E-3,,,,,26.60000064E-6,2.4800000,
,,,26.80000034E-6,-98.000004888E-3,,,,,26.80000034E-6,2.4800000,
,,,27.00000005E-6,-94.000004232E-3,,,,,27.00000005E-6,2.5200000,
,,,27.19999975E-6,-98.000004888E-3,,,,,27.19999975E-6,2.5200000,
,,,27.39999945E-6,-92.000007629E-3,,,,,27.39999945E-6,2.5200000,
,,,27.60000098E-6,-94.000004232E-3,,,,,27.60000098E-6,2.4800000,
,,,27.80000068E-6,-96.000000834E-3,,,,,27.80000068E-6,2.4800000,
,,,28.00000038E-6,-90.000003576E-3,,,,,28.00000038E-6,2.4800000,
,,,28.20000009E-6,-92.000007629E-3,,,,,28.20000009E-6,2.5200000,
,,,28.39999979E-6,-78.000001609E-3,,,,,28.39999979E-6,2.5200000,
,,,28.59999950E-6,-78.000001609E-3,,,,,28.59999950E-6,2.4400001,
,,,28.80000102E-6,-80.000005662E-3,,,,,28.80000102E-6,2.4400001,
,,,29.00000072E-6,-86.000002921E-3,,,,,29.00000072E-6,2.4800000,
,,,29.20000043E-6,-82.000002265E-3,,,,,29.20000043E-6,2.5200000,
,,,29.40000013E-6,-80.000005662E-3,,,,,29.40000013E-6,2.5200000,
,,,29.59999983E-6,-72.000004351E-3,,,,,29.59999983E-6,2.4800000,
,,,29.79999954E-6,-60.000002384E-3,,,,,29.79999954E-6,2.5200000,
,,,30.00000106E-6,-64.000003040E-3,,,,,30.00000106E-6,2.4400001,
,,,30.20000077E-6,-58.000002056E-3,,,,,30.20000077E-6,2.5200000,
,,,30.40000047E-6,-50.00000075E-3,,,,,30.40000047E-6,2.4800000,
,,,30.60000017E-6,-54.00000140E-3,,,,,30.60000017E-6,2.4800000,
,,,30.80000170E-6,-42.00000316E-3,,,,,30.80000170E-6,2.4800000,
,,,30.99999958E-6,-42.00000316E-3,,,,,30.99999958E-6,2.4800000,
,,,31.20000110E-6,-44.00000349E-3,,,,,31.20000110E-6,2.5200000,
,,,31.39999899E-6,-32.00000152E-3,,,,,31.39999899E-6,2.4800000,
,,,31.60000051E-6,-26.00000054E-3,,,,,31.60000051E-6,2.4800000,
,,,31.80000203E-6,-22.00000174E-3,,,,,31.80000203E-6,2.4400001,
,,,31.99999992E-6,-18.0000011E-3,,,,,31.99999992E-6,2.5200000,
,,,32.20000144E-6,-16.0000008E-3,,,,,32.20000144E-6,2.4800000,
,,,32.39999933E-6,-10.0000007E-3,,,,,32.39999933E-6,2.4800000,
,,,32.60000085E-6,-4.00000019E-3,,,,,32.60000085E-6,2.4800000,
,,,32.79999873E-6,8.000000380E-3,,,,,32.79999873E-6,2.4800000,
,,,33.00000026E-6,4.00000019E-3,,,,,33.00000026E-6,2.4800000,
,,,33.20000178E-6,4.00000019E-3,,,,,33.20000178E-6,2.5200000,
,,,33.39999967E-6,8.000000380E-3,,,,,33.39999967E-6,2.5200000,
,,,33.60000119E-6,14.0000004E-3,,,,,33.60000119E-6,2.5200000,
,,,33.79999907E-6,26.00000054E-3,,,,,33.79999907E-6,2.4800000,
,,,34.00000060E-6,26.00000054E-3,,,,,34.00000060E-6,2.5200000,
,,,34.20000212E-6,28.00000086E-3,,,,,34.20000212E-6,2.4400001,
,,,34.40000000E-6,42.00000316E-3,,,,,34.40000000E-6,2.4800000,
,,,34.60000153E-6,46.00000381E-3,,,,,34.60000153E-6,2.4800000,
,,,34.79999941E-6,38.00000250E-3,,,,,34.79999941E-6,2.4800000,
,,,35.00000093E-6,40.00000283E-3,,,,,35.00000093E-6,2.4400001,
,,,35.19999882E-6,54.00000140E-3,,,,,35.19999882E-6,2.4800000,
,,,35.40000034E-6,40.00000283E-3,,,,,35.40000034E-6,2.4800000,
,,,35.60000187E-6,50.00000075E-3,,,,,35.60000187E-6,2.4800000,
,,,35.79999975E-6,54.00000140E-3,,,,,35.79999975E-6,2.4800000,
,,,36.00000127E-6,56.000001729E-3,,,,,36.00000127E-6,2.5200000,
,,,36.19999916E-6,60.000002384E-3,,,,,36.19999916E-6,2.4800000,
,,,36.40000068E-6,56.000001729E-3,,,,,36.40000068E-6,2.4800000,
,,,36.60000220E-6,62.000002712E-3,,,,,36.60000220E-6,2.4400001,
,,,36.80000009E-6,72.000004351E-3,,,,,36.80000009E-6,2.5200000,
,,,37.00000161E-6,68.000003695E-3,,,,,37.00000161E-6,2.4400001,
,,,37.19999950E-6,60.000002384E-3,,,,,37.19999950E-6,2.4800000,
,,,37.40000102E-6,68.000003695E-3,,,,,37.40000102E-6,2.4400001,
,,,37.59999890E-6,76.000005007E-3,,,,,37.59999890E-6,2.4400001,
,,,37.80000043E-6,68.000003695E-3,,,,,37.80000043E-6,2.4800000,
,,,38.00000195E-6,76.000005007E-3,,,,,38.00000195E-6,2.4800000,
,,,38.19999984E-6,76.000005007E-3,,,,,38.19999984E-6,2.4800000,
,,,38.40000136E-6,76.000005007E-3,,,,,38.40000136E-6,2.4800000,
,,,38.59999924E-6,70.000000298E-3,,,,,38.59999924E-6,2.4800000,
,,,38.80000077E-6,86.000002921E-3,,,,,38.80000077E-6,2.4400001,
,,,39.00000229E-6,82.000002265E-3,,,,,39.00000229E-6,2.4800000,
,,,39.20000017E-6,76.000005007E-3,,,,,39.20000017E-6,2.4800000,
,,,39.40000170E-6,76.000005007E-3,,,,,39.40000170E-6,2.4800000,
,,,39.59999958E-6,74.000000954E-3,,,,,39.59999958E-6,2.4800000,
,,,39.80000110E-6,82.000002265E-3,,,,,39.80000110E-6,2.4400001,
,,,39.99999899E-6,84.000006318E-3,,,,,39.99999899E-6,2.4400001,
,,,40.20000051E-6,78.000001609E-3,,,,,40.20000051E-6,2.4400001,
,,,40.40000204E-6,80.000005662E-3,,,,,40.40000204E-6,2.4400001,
,,,40.59999992E-6,78.000001609E-3,,,,,40.59999992E-6,2.4800000,
,,,40.80000144E-6,80.000005662E-3,,,,,40.80000144E-6,2.4800000,
,,,40.99999933E-6,84.000006318E-3,,,,,40.99999933E-6,2.4800000,
,,,41.20000085E-6,86.000002921E-3,,,,,41.20000085E-6,2.5200000,
,,,41.39999874E-6,82.000002265E-3,,,,,41.39999874E-6,2.4800000,
,,,41.60000026E-6,80.000005662E-3,,,,,41.60000026E-6,2.4800000,
,,,41.80000178E-6,86.000002921E-3,,,,,41.80000178E-6,2.4800000,
,,,41.99999967E-6,76.000005007E-3,,,,,41.99999967E-6,2.4800000,
,,,42.20000119E-6,84.000006318E-3,,,,,42.20000119E-6,2.4800000,
,,,42.39999907E-6,82.000002265E-3,,,,,42.39999907E-6,2.4800000,
,,,42.60000060E-6,72.000004351E-3,,,,,42.60000060E-6,2.4400001,
,,,42.80000212E-6,84.000006318E-3,,,,,42.80000212E-6,2.4800000,
,,,43.00000001E-6,78.000001609E-3,,,,,43.00000001E-6,2.5200000,
,,,43.20000153E-6,76.000005007E-3,,,,,43.20000153E-6,2.4800000,
,,,43.39999941E-6,78.000001609E-3,,,,,43.39999941E-6,2.4800000,
,,,43.60000094E-6,82.000002265E-3,,,,,43.60000094E-6,2.4400001,
,,,43.79999882E-6,80.000005662E-3,,,,,43.79999882E-6,2.4800000,
,,,44.00000034E-6,76.000005007E-3,,,,,44.00000034E-6,2.4800000,
,,,44.20000187E-6,65.999999642E-3,,,,,44.20000187E-6,2.4400001,
,,,44.39999975E-6,65.999999642E-3,,,,,44.39999975E-6,2.4800000,
,,,44.60000127E-6,70.000000298E-3,,,,,44.60000127E-6,2.5200000,
,,,44.79999916E-6,64.000003040E-3,,,,,44.79999916E-6,2.4800000,
,,,45.00000068E-6,60.000002384E-3,,,,,45.00000068E-6,2.4800000,
,,,45.20000221E-6,64.000003040E-3,,,,,45.20000221E-6,2.4800000,
,,,45.40000009E-6,56.000001729E-3,,,,,45.40000009E-6,2.4400001,
,,,45.60000161E-6,52.00000107E-3,,,,,45.60000161E-6,2.4400001,
,,,45.79999950E-6,56.000001729E-3,,,,,45.79999950E-6,2.4800000,
,,,46.00000102E-6,46.00000381E-3,,,,,46.00000102E-6,2.4800000,
,,,46.19999891E-6,48.00000042E-3,,,,,46.19999891E-6,2.4800000,
,,,46.40000043E-6,36.00000218E-3,,,,,46.40000043E-6,2.4400001,
,,,46.60000195E-6,46.00000381E-3,,,,,46.60000195E-6,2.5200000,
,,,46.79999984E-6,36.00000218E-3,,,,,46.79999984E-6,2.4800000,
,,,47.00000136E-6,32.00000152E-3,,,,,47.00000136E-6,2.4800000,
,,,47.19999924E-6,32.00000152E-3,,,,,47.19999924E-6,2.4800000,
,,,47.40000077E-6,22.00000174E-3,,,,,47.40000077E-6,2.4400001,
,,,47.60000229E-6,24.00000021E-3,,,,,47.60000229E-6,2.4400001,
,,,47.80000017E-6,16.0000008E-3,,,,,47.80000017E-6,2.4800000,
,,,48.00000170E-6,16.0000008E-3,,,,,48.00000170E-6,2.4400001,
,,,48.19999958E-6,10.0000007E-3,,,,,48.19999958E-6,2.5200000,
,,,48.40000111E-6,16.0000008E-3,,,,,48.40000111E-6,2.4800000,
,,,48.59999899E-6,2.0000001E-3,,,,,48.59999899E-6,2.5200000,
,,,48.80000051E-6,0.0,,,,,48.80000051E-6,2.4800000,
,,,49.00000204E-6,0.0,,,,,49.00000204E-6,2.5200000,
,,,49.19999992E-6,-16.0000008E-3,,,,,49.19999992E-6,2.4800000,
,,,49.40000144E-6,-10.0000007E-3,,,,,49.40000144E-6,2.4800000,
,,,49.59999933E-6,-10.0000007E-3,,,,,49.59999933E-6,2.4800000,
,,,49.80000085E-6,-16.0000008E-3,,,,,49.80000085E-6,2.4800000,
,,,50.00000237E-6,-18.0000011E-3,,,,,50.00000237E-6,2.4800000,
,,,50.20000026E-6,-24.00000021E-3,,,,,50.20000026E-6,2.4800000,
,,,50.40000178E-6,-26.00000054E-3,,,,,50.40000178E-6,2.4800000,
,,,50.59999967E-6,-24.00000021E-3,,,,,50.59999967E-6,2.4800000,
,,,50.80000119E-6,-22.00000174E-3,,,,,50.80000119E-6,2.4800000,
,,,50.99999908E-6,-30.00000119E-3,,,,,50.99999908E-6,2.4800000,
,,,51.20000060E-6,-32.00000152E-3,,,,,51.20000060E-6,2.4800000,
,,,51.40000212E-6,-36.00000218E-3,,,,,51.40000212E-6,2.4800000,
,,,51.60000001E-6,-50.00000075E-3,,,,,51.60000001E-6,2.5200000,
,,,51.80000153E-6,-40.00000283E-3,,,,,51.80000153E-6,2.4800000,
,,,51.99999941E-6,-40.00000283E-3,,,,,51.99999941E-6,2.4400001,
,,,52.20000094E-6,-50.00000075E-3,,,,,52.20000094E-6,2.4800000,
,,,52.39999882E-6,-50.00000075E-3,,,,,52.39999882E-6,2.4400001,
,,,52.60000034E-6,-52.00000107E-3,,,,,52.60000034E-6,2.5200000,
,,,52.80000187E-6,-54.00000140E-3,,,,,52.80000187E-6,2.4400001,
,,,52.99999975E-6,-54.00000140E-3,,,,,52.99999975E-6,2.4800000,
,,,53.20000128E-6,-54.00000140E-3,,,,,53.20000128E-6,2.4400001,
,,,53.39999916E-6,-60.000002384E-3,,,,,53.39999916E-6,2.4800000,
,,,53.60000068E-6,-56.000001729E-3,,,,,53.60000068E-6,2.4800000,
,,,53.80000221E-6,-58.000002056E-3,,,,,53.80000221E-6,2.5200000,
,,,54.00000009E-6,-62.000002712E-3,,,,,54.00000009E-6,2.4800000,
,,,54.20000161E-6,-64.000003040E-3,,,,,54.20000161E-6,2.5200000,
,,,54.39999950E-6,-58.000002056E-3,,,,,54.39999950E-6,2.4800000,
,,,54.600001022E-6,-65.999999642E-3,,,,,54.600001022E-6,2.4800000,
,,,54.799998907E-6,-65.999999642E-3,,,,,54.799998907E-6,2.4800000,
,,,55.000000430E-6,-62.000002712E-3,,,,,55.000000430E-6,2.5200000,
,,,55.200001952E-6,-62.000002712E-3,,,,,55.200001952E-6,2.5200000,
,,,55.399999837E-6,-65.999999642E-3,,,,,55.399999837E-6,2.5200000,
,,,55.600001360E-6,-65.999999642E-3,,,,,55.600001360E-6,2.5200000,
,,,55.799999245E-6,-64.000003040E-3,,,,,55.799999245E-6,2.5200000,
,,,56.000000768E-6,-70.000000298E-3,,,,,56.000000768E-6,2.4800000,
,,,56.200002291E-6,-68.000003695E-3,,,,,56.200002291E-6,2.4800000,
,,,56.400000176E-6,-70.000000298E-3,,,,,56.400000176E-6,2.4800000,
,,,56.600001699E-6,-70.000000298E-3,,,,,56.600001699E-6,2.4800000,
,,,56.799999584E-6,-74.000000954E-3,,,,,56.799999584E-6,2.5200000,
,,,57.000001107E-6,-65.999999642E-3,,,,,57.000001107E-6,2.4800000,
,,,57.199998992E-6,-62.000002712E-3,,,,,57.199998992E-6,2.4800000,
,,,57.400000514E-6,-62.000002712E-3,,,,,57.400000514E-6,2.4800000,
,,,57.600002037E-6,-62.000002712E-3,,,,,57.600002037E-6,2.4800000,
,,,57.799999922E-6,-70.000000298E-3,,,,,57.799999922E-6,2.5200000,
,,,58.000001445E-6,-70.000000298E-3,,,,,58.000001445E-6,2.5200000,
,,,58.199999330E-6,-68.000003695E-3,,,,,58.199999330E-6,2.4800000,
,,,58.400000853E-6,-70.000000298E-3,,,,,58.400000853E-6,2.4800000,
,,,58.600002376E-6,-70.000000298E-3,,,,,58.600002376E-6,2.4800000,
