Practica-Especial/Sumador/FFT señal 5600,45 Hz.csv

Record Length,1024,Points,0.0,7.03089952,
Sample Interval,24.66066933,Hz,24.66066933,9.430899620,
Trigger Point,0.0,Samples,49.32133865,2.6308994,
,,,73.982009888,-60.969100952,
,,,98.642677307,-60.969100952,
,,,123.3033447,-60.969100952,
Source,FFT,,147.9640198,-58.569103241,
Vertical Units,dB,,172.62467957,-58.569103241,
Vertical Scale,10.0000001,,197.28535461,-52.56910324,
Vertical Offset,-20,9691,,221.94602966,-58.569103241,
Horizontal Units,Hz,,246.60668945,-58.569103241,
Horizontal Scale,2.5252527E3,,271.26736450,-60.969100952,
Pt Fmt,Y,,295.92803955,-58.569103241,
Yzero,0.0,,320.58871460,-60.969100952,
,,,345.24935913,-60.969100952,
,,,369.91003418,-60.969100952,
Note,TBS 1052B-EDU - 12:56:40 p.m.   04/03/2016,,394.57070923,-60.969100952,
,,,419.231384277,-58.569103241,
,,,443.892059326,-58.569103241,
,,,468.552703857,-60.969100952,
,,,493.213378906,-60.969100952,
,,,517.874084473,-60.969100952,
,,,542.534729004,-60.969100952,
,,,567.195373535,-60.969100952,
,,,591.856079102,-55.369102478,
,,,616.516723633,-55.369102478,
,,,641.177429199,-60.969100952,
,,,665.838073730,-60.969100952,
,,,690.498718262,-58.569103241,
,,,715.159423828,-60.969100952,
,,,739.820068359,-58.569103241,
,,,764.480773926,-58.569103241,
,,,789.141418457,-60.969100952,
,,,813.802062988,-60.969100952,
,,,838.462768555,-60.969100952,
,,,863.123413086,-60.969100952,
,,,887.784118652,-58.569103241,
,,,912.444763184,-60.969100952,
,,,937.105407715,-60.969100952,
,,,961.766113281,-54.56910324,
,,,986.426757813,-60.969100952,
,,,1.0110875E3,-60.969100952,
,,,1.0357482E3,-60.969100952,
,,,1.0604089E3,-60.969100952,
,,,1.0850695E3,-60.969100952,
,,,1.1097302E3,-60.969100952,
,,,1.1343908E3,-60.969100952,
,,,1.1590516E3,-60.969100952,
,,,1.1837122E3,-58.569103241,
,,,1.2083729E3,-60.969100952,
,,,1.2330335E3,-58.569103241,
,,,1.2576942E3,-60.969100952,
,,,1.2823549E3,-60.969100952,
,,,1.3070156E3,-58.569103241,
,,,1.3316762E3,-60.969100952,
,,,1.3563369E3,-60.969100952,
,,,1.3809975E3,-58.569103241,
,,,1.4056583E3,-58.569103241,
,,,1.4303189E3,-60.969100952,
,,,1.4549796E3,-60.969100952,
,,,1.4796402E3,-60.969100952,
,,,1.5043009E3,-60.969100952,
,,,1.5289616E3,-60.969100952,
,,,1.5536223E3,-54.56910324,
,,,1.5782829E3,-54.56910324,
,,,1.6029436E3,-54.56910324,
,,,1.6276042E3,-58.569103241,
,,,1.6522650E3,-58.569103241,
,,,1.6769256E3,-60.969100952,
,,,1.7015863E3,-58.569103241,
,,,1.7262469E3,-60.969100952,
,,,1.7509076E3,-60.969100952,
,,,1.7755683E3,-60.969100952,
,,,1.8002290E3,-60.969100952,
,,,1.8248896E3,-60.969100952,
,,,1.8495503E3,-60.969100952,
,,,1.8742109E3,-60.969100952,
,,,1.8988717E3,-58.569103241,
,,,1.9235323E3,-60.969100952,
,,,1.9481930E3,-60.969100952,
,,,1.9728536E3,-55.369102478,
,,,1.9975143E3,-60.969100952,
,,,2.0221750E3,-60.969100952,
,,,2.0468357E3,-60.969100952,
,,,2.0714964E3,-60.969100952,
,,,2.0961571E3,-60.969100952,
,,,2.1208177E3,-60.969100952,
,,,2.1454784E3,-60.969100952,
,,,2.1701390E3,-60.969100952,
,,,2.1947997E3,-60.969100952,
,,,2.2194603E3,-60.969100952,
,,,2.2441210E3,-60.969100952,
,,,2.2687816E3,-60.969100952,
,,,2.2934422E3,-60.969100952,
,,,2.3181031E3,-60.969100952,
,,,2.3427638E3,-60.969100952,
,,,2.3674244E3,-60.969100952,
,,,2.3920851E3,-58.569103241,
,,,2.4167457E3,-60.969100952,
,,,2.4414064E3,-55.369102478,
,,,2.4660670E3,-54.56910324,
,,,2.4907277E3,-55.369102478,
,,,2.5153883E3,-60.969100952,
,,,2.5400489E3,-60.969100952,
,,,2.5647098E3,-60.969100952,
,,,2.5893705E3,-58.569103241,
,,,2.6140311E3,-60.969100952,
,,,2.6386918E3,-55.369102478,
,,,2.6633524E3,-55.369102478,
,,,2.6880131E3,-58.569103241,
,,,2.7126737E3,-60.969100952,
,,,2.73733436E3,-60.969100952,
,,,2.76199500E3,-60.969100952,
,,,2.78665565E3,-60.969100952,
,,,2.81131654E3,-60.969100952,
,,,2.83597719E3,-60.969100952,
,,,2.86063783E3,-60.969100952,
,,,2.88529848E3,-60.969100952,
,,,2.90995912E3,-60.969100952,
,,,2.93461977E3,-60.969100952,
,,,2.95928041E3,-60.969100952,
,,,2.98394106E3,-60.969100952,
,,,3.00860171E3,-60.969100952,
,,,3.03326235E3,-60.969100952,
,,,3.05792324E3,-60.969100952,
,,,3.08258389E3,-60.969100952,
,,,3.10724453E3,-58.569103241,
,,,3.13190518E3,-60.969100952,
,,,3.15656582E3,-60.969100952,
,,,3.18122647E3,-58.569103241,
,,,3.20588712E3,-60.969100952,
,,,3.23054776E3,-58.569103241,
,,,3.25520841E3,-60.969100952,
,,,3.27986930E3,-58.569103241,
,,,3.30452994E3,-55.369102478,
,,,3.32919059E3,-54.56910324,
,,,3.35385123E3,-60.969100952,
,,,3.37851188E3,-60.969100952,
,,,3.40317252E3,-60.969100952,
,,,3.42783317E3,-60.969100952,
,,,3.45249382E3,-58.569103241,
,,,3.47715446E3,-58.569103241,
,,,3.50181511E3,-60.969100952,
,,,3.52647600E3,-60.969100952,
,,,3.55113664E3,-60.969100952,
,,,3.57579729E3,-60.969100952,
,,,3.60045793E3,-58.569103241,
,,,3.62511858E3,-60.969100952,
,,,3.64977923E3,-60.969100952,
,,,3.67443987E3,-60.969100952,
,,,3.69910052E3,-60.969100952,
,,,3.72376116E3,-60.969100952,
,,,3.74842181E3,-60.969100952,
,,,3.77308270E3,-60.969100952,
,,,3.79774334E3,-54.56910324,
,,,3.82240399E3,-60.969100952,
,,,3.84706464E3,-60.969100952,
,,,3.87172528E3,-60.969100952,
,,,3.89638593E3,-60.969100952,
,,,3.92104657E3,-60.969100952,
,,,3.94570722E3,-58.569103241,
,,,3.97036786E3,-60.969100952,
,,,3.99502851E3,-60.969100952,
,,,4.01968940E3,-58.569103241,
,,,4.04435005E3,-60.969100952,
,,,4.06901069E3,-60.969100952,
,,,4.09367134E3,-58.569103241,
,,,4.11833174E3,-58.569103241,
,,,4.14299287E3,-60.969100952,
,,,4.16765352E3,-60.969100952,
,,,4.19231416E3,-60.969100952,
,,,4.21697481E3,-55.369102478,
,,,4.24163546E3,-60.969100952,
,,,4.26629610E3,-55.369102478,
,,,4.29095675E3,-60.969100952,
,,,4.31561739E3,-60.969100952,
,,,4.34027804E3,-60.969100952,
,,,4.36493868E3,-60.969100952,
,,,4.38959933E3,-60.969100952,
,,,4.41425998E3,-60.969100952,
,,,4.43892062E3,-60.969100952,
,,,4.46358127E3,-60.969100952,
,,,4.48824191E3,-60.969100952,
,,,4.51290256E3,-60.969100952,
,,,4.53756320E3,-60.969100952,
,,,4.56222385E3,-60.969100952,
,,,4.58688450E3,-60.969100952,
,,,4.61154514E3,-60.969100952,
,,,4.63620627E3,-60.969100952,
,,,4.66086692E3,-60.969100952,
,,,4.68552757E3,-58.569103241,
,,,4.71018821E3,-58.569103241,
,,,4.73484886E3,-60.969100952,
,,,4.75950950E3,-60.969100952,
,,,4.78417015E3,-60.969100952,
,,,4.80883079E3,-60.969100952,
,,,4.83349144E3,-60.969100952,
,,,4.85815209E3,-60.969100952,
,,,4.88281273E3,-60.969100952,
,,,4.90747338E3,-60.969100952,
,,,4.93213402E3,-58.569103241,
,,,4.95679467E3,-60.969100952,
,,,4.98145531E3,-60.969100952,
,,,5.00611596E3,-60.969100952,
,,,5.03077661E3,-54.56910324,
,,,5.05543725E3,-54.56910324,
,,,5.08009790E3,-52.56910324,
,,,5.10475903E3,-54.56910324,
,,,5.12941968E3,-54.56910324,
,,,5.15408032E3,-60.969100952,
,,,5.17874097E3,-58.569103241,
,,,5.20340161E3,-54.56910324,
,,,5.22806226E3,-60.969100952,
,,,5.25272291E3,-60.969100952,
,,,5.27738355E3,-60.969100952,
,,,5.30204420E3,-60.969100952,
,,,5.32670484E3,-60.969100952,
,,,5.35136549E3,-60.969100952,
,,,5.37602613E3,-60.969100952,
,,,5.40068678E3,-60.969100952,
,,,5.42534743E3,-60.969100952,
,,,5.45000807E3,-60.969100952,
,,,5.47466872E3,-58.569103241,
,,,5.49932936E3,-50.16910172,
,,,5.52399001E3,-38.56909943,
,,,5.54865065E3,-10.5691004,
,,,5.57331130E3,-2.5691006,
,,,5.59797243E3,-1.7691007,
,,,5.62263308E3,-2.1691008,
,,,5.64729373E3,-7.769100666,
,,,5.67195437E3,-36.16910172,
,,,5.69661502E3,-48.96910095,
,,,5.72127566E3,-54.56910324,
,,,5.74593631E3,-60.969100952,
,,,5.77059695E3,-60.969100952,
,,,5.79525760E3,-58.569103241,
,,,5.81991825E3,-60.969100952,
,,,5.84457889E3,-60.969100952,
,,,5.86923954E3,-60.969100952,
,,,5.89390018E3,-60.969100952,
,,,5.91856083E3,-60.969100952,
,,,5.94322147E3,-58.569103241,
,,,5.96788212E3,-60.969100952,
,,,5.99254277E3,-60.969100952,
,,,6.01720341E3,-58.569103241,
,,,6.04186406E3,-60.969100952,
,,,6.06652470E3,-60.969100952,
,,,6.09118584E3,-58.569103241,
,,,6.11584648E3,-58.569103241,
,,,6.14050713E3,-58.569103241,
,,,6.16516777E3,-54.56910324,
,,,6.18982842E3,-60.969100952,
,,,6.21448906E3,-58.569103241,
,,,6.23914971E3,-60.969100952,
,,,6.26381036E3,-60.969100952,
,,,6.28847100E3,-60.969100952,
,,,6.31313165E3,-60.969100952,
,,,6.33779229E3,-60.969100952,
,,,6.36245294E3,-60.969100952,
,,,6.38711358E3,-60.969100952,
,,,6.41177423E3,-60.969100952,
,,,6.43643488E3,-60.969100952,
,,,6.46109552E3,-58.569103241,
,,,6.48575617E3,-60.969100952,
,,,6.51041681E3,-60.969100952,
,,,6.53507746E3,-60.969100952,
,,,6.55973859E3,-60.969100952,
,,,6.58439924E3,-60.969100952,
,,,6.60905988E3,-60.969100952,
,,,6.63372053E3,-60.969100952,
,,,6.65838118E3,-60.969100952,
,,,6.68304182E3,-60.969100952,
,,,6.70770247E3,-60.969100952,
,,,6.73236311E3,-58.569103241,
,,,6.75702376E3,-60.969100952,
,,,6.78168440E3,-60.969100952,
,,,6.80634505E3,-58.569103241,
,,,6.83100570E3,-58.569103241,
,,,6.85566634E3,-54.56910324,
,,,6.88032699E3,-60.969100952,
,,,6.90498763E3,-60.969100952,
,,,6.92964828E3,-58.569103241,
,,,6.95430892E3,-60.969100952,
,,,6.97896957E3,-60.969100952,
,,,7.00363022E3,-60.969100952,
,,,7.02829086E3,-60.969100952,
,,,7.05295200E3,-60.969100952,
,,,7.07761264E3,-60.969100952,
,,,7.10227329E3,-60.969100952,
,,,7.12693393E3,-60.969100952,
,,,7.15159458E3,-58.569103241,
,,,7.17625522E3,-60.969100952,
,,,7.20091587E3,-60.969100952,
,,,7.22557652E3,-60.969100952,
,,,7.25023716E3,-55.369102478,
,,,7.27489781E3,-54.56910324,
,,,7.29955845E3,-60.969100952,
,,,7.32421910E3,-60.969100952,
,,,7.34887974E3,-60.969100952,
,,,7.37354039E3,-60.969100952,
,,,7.398201035E3,-60.969100952,
,,,7.422861681E3,-60.969100952,
,,,7.447522326E3,-60.969100952,
,,,7.472182972E3,-58.569103241,
,,,7.496843618E3,-60.969100952,
,,,7.521504264E3,-60.969100952,
,,,7.546165397E3,-60.969100952,
,,,7.570826043E3,-60.969100952,
,,,7.595486689E3,-60.969100952,
,,,7.620147335E3,-58.569103241,
,,,7.644807980E3,-60.969100952,
,,,7.669468626E3,-60.969100952,
,,,7.694129272E3,-60.969100952,
,,,7.718789917E3,-58.569103241,
,,,7.743450563E3,-60.969100952,
,,,7.768111209E3,-60.969100952,
,,,7.792771855E3,-60.969100952,
,,,7.817432500E3,-60.969100952,
,,,7.842093146E3,-60.969100952,
,,,7.866753792E3,-55.369102478,
,,,7.891414437E3,-55.369102478,
,,,7.916075083E3,-58.569103241,
,,,7.940735729E3,-60.969100952,
,,,7.965396374E3,-60.969100952,
,,,7.990057020E3,-60.969100952,
,,,8.014718154E3,-54.56910324,
,,,8.039378800E3,-54.56910324,
,,,8.064039446E3,-54.56910324,
,,,8.088700091E3,-58.569103241,
,,,8.113360737E3,-60.969100952,
,,,8.138021383E3,-60.969100952,
,,,8.162682028E3,-60.969100952,
,,,8.187342674E3,-60.969100952,
,,,8.212003320E3,-60.969100952,
,,,8.236663477E3,-60.969100952,
,,,8.261324611E3,-60.969100952,
,,,8.285985745E3,-60.969100952,
,,,8.310645903E3,-60.969100952,
,,,8.335307037E3,-60.969100952,
,,,8.359967194E3,-60.969100952,
,,,8.384628328E3,-60.969100952,
,,,8.409288485E3,-60.969100952,
,,,8.433949619E3,-58.569103241,
,,,8.458609777E3,-58.569103241,
,,,8.483270911E3,-60.969100952,
,,,8.507931068E3,-60.969100952,
,,,8.532592202E3,-60.969100952,
,,,8.557252360E3,-60.969100952,
,,,8.581913494E3,-60.969100952,
,,,8.606573651E3,-58.569103241,
,,,8.631234785E3,-60.969100952,
,,,8.655894942E3,-60.969100952,
,,,8.680556076E3,-60.969100952,
,,,8.705216234E3,-60.969100952,
,,,8.729877368E3,-60.969100952,
,,,8.754538502E3,-58.569103241,
,,,8.779198659E3,-60.969100952,
,,,8.803859793E3,-60.969100952,
,,,8.828519951E3,-60.969100952,
,,,8.853181085E3,-60.969100952,
,,,8.877841242E3,-60.969100952,
,,,8.902502376E3,-60.969100952,
,,,8.927162533E3,-60.969100952,
,,,8.951823667E3,-60.969100952,
,,,8.976483825E3,-60.969100952,
,,,9.001144959E3,-60.969100952,
,,,9.025805116E3,-60.969100952,
,,,9.050466250E3,-60.969100952,
,,,9.075126408E3,-60.969100952,
,,,9.099787542E3,-60.969100952,
,,,9.124447699E3,-60.969100952,
,,,9.149108833E3,-60.969100952,
,,,9.173768990E3,-60.969100952,
,,,9.198430124E3,-60.969100952,
,,,9.223090282E3,-58.569103241,
,,,9.247751416E3,-60.969100952,
,,,9.272412550E3,-58.569103241,
,,,9.297072707E3,-60.969100952,
,,,9.321733841E3,-60.969100952,
,,,9.346393999E3,-60.969100952,
,,,9.371055133E3,-60.969100952,
,,,9.395715290E3,-60.969100952,
,,,9.420376424E3,-60.969100952,
,,,9.445036581E3,-60.969100952,
,,,9.469697715E3,-60.969100952,
,,,9.494357873E3,-60.969100952,
,,,9.519019007E3,-58.569103241,
,,,9.543679164E3,-60.969100952,
,,,9.568340298E3,-60.969100952,
,,,9.593000456E3,-60.969100952,
,,,9.617661590E3,-60.969100952,
,,,9.642321747E3,-60.969100952,
,,,9.666982881E3,-60.969100952,
,,,9.691643038E3,-60.969100952,
,,,9.716304172E3,-60.969100952,
,,,9.740965306E3,-60.969100952,
,,,9.765625464E3,-60.969100952,
,,,9.790286598E3,-58.569103241,
,,,9.814946755E3,-60.969100952,
,,,9.839607889E3,-60.969100952,
,,,9.864268047E3,-60.969100952,
,,,9.888929181E3,-60.969100952,
,,,9.913589338E3,-60.969100952,
,,,9.938250472E3,-60.969100952,
,,,9.962910629E3,-58.569103241,
,,,9.987571763E3,-58.569103241,
,,,10.0122319E3,-60.969100952,
,,,10.0368931E3,-60.969100952,
,,,10.0615532E3,-60.969100952,
,,,10.0862143E3,-60.969100952,
,,,10.1108745E3,-58.569103241,
,,,10.1355356E3,-60.969100952,
,,,10.1601958E3,-60.969100952,
,,,10.1848569E3,-60.969100952,
,,,10.2095181E3,-60.969100952,
,,,10.2341782E3,-60.969100952,
,,,10.2588394E3,-58.569103241,
,,,10.2834995E3,-58.569103241,
,,,10.3081606E3,-54.56910324,
,,,10.3328208E3,-52.56910324,
,,,10.3574819E3,-54.56910324,
,,,10.3821421E3,-58.569103241,
,,,10.4068032E3,-58.569103241,
,,,10.4314634E3,-60.969100952,
,,,10.4561245E3,-60.969100952,
,,,10.4807847E3,-60.969100952,
,,,10.5054458E3,-58.569103241,
,,,10.5301060E3,-58.569103241,
,,,10.5547671E3,-60.969100952,
,,,10.5794273E3,-60.969100952,
,,,10.6040884E3,-60.969100952,
,,,10.6287486E3,-60.969100952,
,,,10.6534097E3,-60.969100952,
,,,10.6780698E3,-60.969100952,
,,,10.7027310E3,-58.569103241,
,,,10.7273921E3,-60.969100952,
,,,10.7520523E3,-54.56910324,
,,,10.7767134E3,-48.96910095,
,,,10.8013736E3,-40.56909943,
,,,10.8260347E3,-26.96910095,
,,,10.8506949E3,-5.76910067,
,,,10.8753560E3,-1.3691007,
,,,10.9000161E3,-1.3691007,
,,,10.9246773E3,-2.5691006,
,,,10.9493374E3,-11.7691011,
,,,10.9739986E3,-34.16910172,
,,,10.9986587E3,-44.56909943,
,,,11.0233199E3,-52.56910324,
,,,11.0479800E3,-54.56910324,
,,,11.0726412E3,-60.969100952,
,,,11.0973013E3,-60.969100952,
,,,11.1219624E3,-58.569103241,
,,,11.1466226E3,-58.569103241,
,,,11.1712837E3,-58.569103241,
,,,11.1959449E3,-60.969100952,
,,,11.2206050E3,-60.969100952,
,,,11.2452662E3,-60.969100952,
,,,11.2699263E3,-58.569103241,
,,,11.2945875E3,-60.969100952,
,,,11.3192476E3,-58.569103241,
,,,11.3439087E3,-60.969100952,
,,,11.3685689E3,-60.969100952,
,,,11.3932300E3,-60.969100952,
,,,11.4178902E3,-60.969100952,
,,,11.4425513E3,-58.569103241,
,,,11.4672115E3,-60.969100952,
,,,11.4918726E3,-60.969100952,
,,,11.5165328E3,-60.969100952,
,,,11.5411939E3,-58.569103241,
,,,11.5658541E3,-54.56910324,
,,,11.5905152E3,-58.569103241,
,,,11.6151754E3,-58.569103241,
,,,11.6398365E3,-54.56910324,
,,,11.6644976E3,-54.56910324,
,,,11.6891578E3,-54.56910324,
,,,11.7138189E3,-52.56910324,
,,,11.7384791E3,-54.56910324,
,,,11.7631402E3,-58.569103241,
,,,11.7878004E3,-60.969100952,
,,,11.8124615E3,-60.969100952,
,,,11.8371217E3,-58.569103241,
,,,11.8617828E3,-54.56910324,
,,,11.8864429E3,-55.369102478,
,,,11.9111041E3,-54.56910324,
,,,11.9357642E3,-60.969100952,
,,,11.9604254E3,-60.969100952,
,,,11.9850855E3,-60.969100952,
,,,12.0097467E3,-58.569103241,
,,,12.0344068E3,-60.969100952,
,,,12.0590680E3,-60.969100952,
,,,12.0837281E3,-60.969100952,
,,,12.1083892E3,-60.969100952,
,,,12.1330494E3,-60.969100952,
,,,12.1577105E3,-58.569103241,
,,,12.1823717E3,-60.969100952,
,,,12.2070318E3,-60.969100952,
,,,12.2316930E3,-60.969100952,
,,,12.2563531E3,-60.969100952,
,,,12.2810143E3,-60.969100952,
,,,12.3056744E3,-60.969100952,
,,,12.3303355E3,-58.569103241,
,,,12.3549957E3,-60.969100952,
,,,12.3796568E3,-60.969100952,
,,,12.4043170E3,-60.969100952,
,,,12.4289781E3,-60.969100952,
,,,12.4536383E3,-58.569103241,
,,,12.4782994E3,-60.969100952,
,,,12.5029596E3,-60.969100952,
,,,12.5276207E3,-60.969100952,
,,,12.5522809E3,-60.969100952,
,,,12.5769420E3,-55.369102478,
,,,12.6016022E3,-58.569103241,
,,,12.6262633E3,-58.569103241,
,,,12.6509244E3,-58.569103241,
,,,12.6755846E3,-60.969100952,
,,,12.7002457E3,-60.969100952,
,,,12.7249059E3,-60.969100952,
,,,12.7495670E3,-60.969100952,
,,,12.7742272E3,-60.969100952,
,,,12.7988883E3,-60.969100952,
,,,12.8235485E3,-60.969100952,
,,,12.8482096E3,-60.969100952,
,,,12.8728698E3,-60.969100952,
,,,12.8975309E3,-60.969100952,
,,,12.9221910E3,-54.56910324,
,,,12.9468522E3,-58.569103241,
,,,12.9715123E3,-60.969100952,
,,,12.9961735E3,-60.969100952,
,,,13.0208336E3,-60.969100952,
,,,13.0454948E3,-60.969100952,
,,,13.0701549E3,-60.969100952,
,,,13.0948161E3,-60.969100952,
,,,13.1194772E3,-60.969100952,
,,,13.1441373E3,-60.969100952,
,,,13.1687985E3,-60.969100952,
,,,13.1934586E3,-60.969100952,
,,,13.2181198E3,-60.969100952,
,,,13.2427799E3,-60.969100952,
,,,13.2674411E3,-60.969100952,
,,,13.2921012E3,-60.969100952,
,,,13.3167624E3,-60.969100952,
,,,13.3414225E3,-60.969100952,
,,,13.3660836E3,-55.369102478,
,,,13.3907438E3,-58.569103241,
,,,13.4154049E3,-58.569103241,
,,,13.4400651E3,-55.369102478,
,,,13.4647262E3,-60.969100952,
,,,13.4893864E3,-58.569103241,
,,,13.5140475E3,-55.369102478,
,,,13.5387077E3,-60.969100952,
,,,13.5633688E3,-58.569103241,
,,,13.5880290E3,-60.969100952,
,,,13.6126901E3,-58.569103241,
,,,13.6373512E3,-60.969100952,
,,,13.6620114E3,-60.969100952,
,,,13.6866725E3,-58.569103241,
,,,13.7113327E3,-60.969100952,
,,,13.7359938E3,-60.969100952,
,,,13.7606540E3,-60.969100952,
,,,13.7853151E3,-60.969100952,
,,,13.8099753E3,-60.969100952,
,,,13.8346364E3,-60.969100952,
,,,13.8592966E3,-60.969100952,
,,,13.8839577E3,-58.569103241,
,,,13.9086178E3,-60.969100952,
,,,13.9332790E3,-58.569103241,
,,,13.9579391E3,-58.569103241,
,,,13.9826003E3,-60.969100952,
,,,14.0072604E3,-58.569103241,
,,,14.0319216E3,-60.969100952,
,,,14.0565817E3,-58.569103241,
,,,14.0812429E3,-58.569103241,
,,,14.1059040E3,-58.569103241,
,,,14.1305641E3,-58.569103241,
,,,14.1552253E3,-60.969100952,
,,,14.1798854E3,-60.969100952,
,,,14.2045466E3,-58.569103241,
,,,14.2292067E3,-60.969100952,
,,,14.2538679E3,-55.369102478,
,,,14.2785280E3,-60.969100952,
,,,14.3031892E3,-54.56910324,
,,,14.3278493E3,-58.569103241,
,,,14.3525104E3,-60.969100952,
,,,14.3771706E3,-58.569103241,
,,,14.4018317E3,-58.569103241,
,,,14.4264919E3,-54.56910324,
,,,14.4511530E3,-60.969100952,
,,,14.4758132E3,-60.969100952,
,,,14.5004743E3,-58.569103241,
,,,14.5251345E3,-60.969100952,
,,,14.5497956E3,-58.569103241,
,,,14.5744567E3,-55.369102478,
,,,14.5991169E3,-55.369102478,
,,,14.6237780E3,-58.569103241,
,,,14.6484382E3,-54.56910324,
,,,14.6730993E3,-58.569103241,
,,,14.6977595E3,-55.369102478,
,,,14.7224206E3,-60.969100952,
,,,14.7470808E3,-60.969100952,
,,,14.7717419E3,-60.969100952,
,,,14.7964021E3,-60.969100952,
,,,14.8210632E3,-60.969100952,
,,,14.8457234E3,-60.969100952,
,,,14.8703845E3,-60.969100952,
,,,14.8950447E3,-60.969100952,
,,,14.9197058E3,-54.56910324,
,,,14.9443659E3,-60.969100952,
,,,14.9690271E3,-60.969100952,
,,,14.9936872E3,-60.969100952,
,,,15.0183484E3,-60.969100952,
,,,15.0430085E3,-60.969100952,
,,,15.0676697E3,-60.969100952,
,,,15.0923308E3,-60.969100952,
,,,15.1169910E3,-60.969100952,
,,,15.1416521E3,-60.969100952,
,,,15.1663122E3,-58.569103241,
,,,15.1909734E3,-60.969100952,
,,,15.2156335E3,-60.969100952,
,,,15.2402947E3,-58.569103241,
,,,15.2649548E3,-60.969100952,
,,,15.2896160E3,-58.569103241,
,,,15.3142761E3,-60.969100952,
,,,15.3389373E3,-60.969100952,
,,,15.3635974E3,-58.569103241,
,,,15.3882585E3,-60.969100952,
,,,15.4129187E3,-60.969100952,
,,,15.4375798E3,-58.569103241,
,,,15.4622400E3,-60.969100952,
,,,15.4869011E3,-60.969100952,
,,,15.5115613E3,-58.569103241,
,,,15.5362224E3,-58.569103241,
,,,15.5608836E3,-60.969100952,
,,,15.5855437E3,-60.969100952,
,,,15.6102048E3,-60.969100952,
,,,15.6348650E3,-58.569103241,
,,,15.6595261E3,-60.969100952,
,,,15.6841863E3,-60.969100952,
,,,15.7088474E3,-60.969100952,
