Informe-2/Alterna/RL/(circuito RL) 1,012 H 9899 Ohm 4000 Hz 2 V.csv

Record Length,2500,Points,-1.0900000E-3,-239.99999464E-3,,Record Length,2500,Points,-1.0900000E-3,-1.9599999,
Sample Interval,1.000000E-6,s,-1.0890000E-3,-280.00000119E-3,,Sample Interval,1.000000E-6,s,-1.0890000E-3,-1.9599999,
Trigger Point,1.0900001E3,Samples,-1.0880000E-3,-280.00000119E-3,,Trigger Point,1.0900001E3,Samples,-1.0880000E-3,-1.9200000,
,,,-1.0870000E-3,-319.99999285E-3,,,,,-1.0870000E-3,-1.9200000,
,,,-1.0860000E-3,-319.99999285E-3,,,,,-1.0860000E-3,-1.9200000,
,,,-1.0850000E-3,-319.99999285E-3,,,,,-1.0850000E-3,-1.9200000,
Source,CH1,,-1.0840000E-3,-359.99998450E-3,,Source,CH2,,-1.0840000E-3,-1.8800000,
Vertical Units,Volts,,-1.0830000E-3,-359.99998450E-3,,Vertical Units,Volts,,-1.0830000E-3,-1.8800000,
Vertical Scale,1.000000,,-1.0820001E-3,-399.99997616E-3,,Vertical Scale,1.000000,,-1.0820001E-3,-1.8800000,
Vertical Offset,0,,-1.0810001E-3,-399.99997616E-3,,Vertical Offset,0,,-1.0810001E-3,-1.8399999,
Horizontal Units,s,,-1.0800001E-3,-399.99997616E-3,,Horizontal Units,s,,-1.0800001E-3,-1.8399999,
Horizontal Scale,249.99999937E-6,,-1.0790001E-3,-439.999997616E-3,,Horizontal Scale,249.99999937E-6,,-1.0790001E-3,-1.8399999,
Pt Fmt,Y,,-1.0780001E-3,-439.999997616E-3,,Pt Fmt,Y,,-1.0780001E-3,-1.8399999,
Yzero,0.0,,-1.0770001E-3,-439.999997616E-3,,Yzero,0.0,,-1.0770001E-3,-1.8000000,
Probe Atten,1.000000,,-1.0760000E-3,-479.999989271E-3,,Probe Atten,1.000000,,-1.0760000E-3,-1.8000000,
,,,-1.0750000E-3,-479.999989271E-3,,,,,-1.0750000E-3,-1.7600000,
Note,TBS 1052B-EDU - 01:01:33 p.m.   10/02/2016,,-1.0740000E-3,-479.999989271E-3,,Note,TBS 1052B-EDU - 01:01:33 p.m.   10/02/2016,,-1.0740000E-3,-1.7199999,
,,,-1.0730000E-3,-519.999980927E-3,,,,,-1.0730000E-3,-1.7199999,
,,,-1.0720000E-3,-519.999980927E-3,,,,,-1.0720000E-3,-1.6799999,
,,,-1.0710000E-3,-519.999980927E-3,,,,,-1.0710000E-3,-1.6400000,
,,,-1.0700000E-3,-519.999980927E-3,,,,,-1.0700000E-3,-1.6400000,
,,,-1.0690000E-3,-560.000002384E-3,,,,,-1.0690000E-3,-1.5999999,
,,,-1.0680000E-3,-560.000002384E-3,,,,,-1.0680000E-3,-1.5599999,
,,,-1.0670001E-3,-560.000002384E-3,,,,,-1.0670001E-3,-1.5200000,
,,,-1.0660001E-3,-560.000002384E-3,,,,,-1.0660001E-3,-1.5200000,
,,,-1.0650001E-3,-599.999964237E-3,,,,,-1.0650001E-3,-1.4800000,
,,,-1.0640001E-3,-599.999964237E-3,,,,,-1.0640001E-3,-1.4399999,
,,,-1.0630001E-3,-599.999964237E-3,,,,,-1.0630001E-3,-1.4000000,
,,,-1.0620001E-3,-599.999964237E-3,,,,,-1.0620001E-3,-1.3600000,
,,,-1.0610000E-3,-599.999964237E-3,,,,,-1.0610000E-3,-1.3199999,
,,,-1.0600000E-3,-639.999985695E-3,,,,,-1.0600000E-3,-1.3199999,
,,,-1.0590000E-3,-639.999985695E-3,,,,,-1.0590000E-3,-1.2800000,
,,,-1.0580000E-3,-639.999985695E-3,,,,,-1.0580000E-3,-1.2400000,
,,,-1.0570000E-3,-639.999985695E-3,,,,,-1.0570000E-3,-1.1999999,
,,,-1.0560000E-3,-639.999985695E-3,,,,,-1.0560000E-3,-1.1600000,
,,,-1.0550000E-3,-639.999985695E-3,,,,,-1.0550000E-3,-1.0799999,
,,,-1.0540000E-3,-639.999985695E-3,,,,,-1.0540000E-3,-1.0400000,
,,,-1.0530000E-3,-639.999985695E-3,,,,,-1.0530000E-3,-1.000000,
,,,-1.0520000E-3,-639.999985695E-3,,,,,-1.0520000E-3,-959.999978542E-3,
,,,-1.0510001E-3,-680.000007153E-3,,,,,-1.0510001E-3,-919.999957085E-3,
,,,-1.0500001E-3,-680.000007153E-3,,,,,-1.0500001E-3,-879.999995232E-3,
,,,-1.0490001E-3,-680.000007153E-3,,,,,-1.0490001E-3,-839.999973774E-3,
,,,-1.0480001E-3,-680.000007153E-3,,,,,-1.0480001E-3,-799.999952316E-3,
,,,-1.0470001E-3,-680.000007153E-3,,,,,-1.0470001E-3,-759.999990463E-3,
,,,-1.0460000E-3,-680.000007153E-3,,,,,-1.0460000E-3,-719.999969006E-3,
,,,-1.0450000E-3,-680.000007153E-3,,,,,-1.0450000E-3,-639.999985695E-3,
,,,-1.0440000E-3,-680.000007153E-3,,,,,-1.0440000E-3,-639.999985695E-3,
,,,-1.0430000E-3,-680.000007153E-3,,,,,-1.0430000E-3,-560.000002384E-3,
,,,-1.0420000E-3,-680.000007153E-3,,,,,-1.0420000E-3,-519.999980927E-3,
,,,-1.0410000E-3,-680.000007153E-3,,,,,-1.0410000E-3,-479.999989271E-3,
,,,-1.0400000E-3,-680.000007153E-3,,,,,-1.0400000E-3,-399.99997616E-3,
,,,-1.0390000E-3,-680.000007153E-3,,,,,-1.0390000E-3,-359.99998450E-3,
,,,-1.0380000E-3,-639.999985695E-3,,,,,-1.0380000E-3,-319.99999285E-3,
,,,-1.0370000E-3,-639.999985695E-3,,,,,-1.0370000E-3,-280.00000119E-3,
,,,-1.0360001E-3,-639.999985695E-3,,,,,-1.0360001E-3,-199.99998808E-3,
,,,-1.0350001E-3,-639.999985695E-3,,,,,-1.0350001E-3,-159.99999642E-3,
,,,-1.0340001E-3,-639.999985695E-3,,,,,-1.0340001E-3,-119.9999973E-3,
,,,-1.0330001E-3,-639.999985695E-3,,,,,-1.0330001E-3,-79.999998212E-3,
,,,-1.0320001E-3,-639.999985695E-3,,,,,-1.0320001E-3,0.0,
,,,-1.0310001E-3,-639.999985695E-3,,,,,-1.0310001E-3,39.99999911E-3,
,,,-1.0300000E-3,-639.999985695E-3,,,,,-1.0300000E-3,79.999998212E-3,
,,,-1.0290000E-3,-639.999985695E-3,,,,,-1.0290000E-3,119.9999973E-3,
,,,-1.0280000E-3,-639.999985695E-3,,,,,-1.0280000E-3,199.99998808E-3,
,,,-1.0270000E-3,-599.999964237E-3,,,,,-1.0270000E-3,239.99999464E-3,
,,,-1.0260000E-3,-599.999964237E-3,,,,,-1.0260000E-3,280.00000119E-3,
,,,-1.0250000E-3,-599.999964237E-3,,,,,-1.0250000E-3,359.99998450E-3,
,,,-1.0240000E-3,-599.999964237E-3,,,,,-1.0240000E-3,399.99997616E-3,
,,,-1.0230000E-3,-560.000002384E-3,,,,,-1.0230000E-3,439.999997616E-3,
,,,-1.0220000E-3,-560.000002384E-3,,,,,-1.0220000E-3,479.999989271E-3,
,,,-1.0210001E-3,-560.000002384E-3,,,,,-1.0210001E-3,519.999980927E-3,
,,,-1.0200001E-3,-560.000002384E-3,,,,,-1.0200001E-3,560.000002384E-3,
,,,-1.0190001E-3,-560.000002384E-3,,,,,-1.0190001E-3,639.999985695E-3,
,,,-1.0180001E-3,-519.999980927E-3,,,,,-1.0180001E-3,680.000007153E-3,
,,,-1.0170001E-3,-519.999980927E-3,,,,,-1.0170001E-3,719.999969006E-3,
,,,-1.0160001E-3,-519.999980927E-3,,,,,-1.0160001E-3,759.999990463E-3,
,,,-1.0150000E-3,-479.999989271E-3,,,,,-1.0150000E-3,839.999973774E-3,
,,,-1.0140000E-3,-479.999989271E-3,,,,,-1.0140000E-3,879.999995232E-3,
,,,-1.0130000E-3,-479.999989271E-3,,,,,-1.0130000E-3,919.999957085E-3,
,,,-1.0120000E-3,-439.999997616E-3,,,,,-1.0120000E-3,959.999978542E-3,
,,,-1.0110000E-3,-439.999997616E-3,,,,,-1.0110000E-3,1.000000,
,,,-1.0100000E-3,-439.999997616E-3,,,,,-1.0100000E-3,1.0400000,
,,,-1.0090000E-3,-399.99997616E-3,,,,,-1.0090000E-3,1.0799999,
,,,-1.0080000E-3,-399.99997616E-3,,,,,-1.0080000E-3,1.1200000,
,,,-1.0070000E-3,-399.99997616E-3,,,,,-1.0070000E-3,1.1600000,
,,,-1.0060000E-3,-359.99998450E-3,,,,,-1.0060000E-3,1.1999999,
,,,-1.0050001E-3,-359.99998450E-3,,,,,-1.0050001E-3,1.2400000,
,,,-1.0040001E-3,-319.99999285E-3,,,,,-1.0040001E-3,1.2800000,
,,,-1.0030001E-3,-319.99999285E-3,,,,,-1.0030001E-3,1.3199999,
,,,-1.0020001E-3,-319.99999285E-3,,,,,-1.0020001E-3,1.3600000,
,,,-1.0010001E-3,-280.00000119E-3,,,,,-1.0010001E-3,1.4000000,
,,,-1.0000000E-3,-280.00000119E-3,,,,,-1.0000000E-3,1.4399999,
,,,-999.000039883E-6,-239.99999464E-3,,,,,-999.000039883E-6,1.4800000,
,,,-998.000032268E-6,-239.99999464E-3,,,,,-998.000032268E-6,1.5200000,
,,,-997.000024654E-6,-239.99999464E-3,,,,,-997.000024654E-6,1.5599999,
,,,-996.000017039E-6,-199.99998808E-3,,,,,-996.000017039E-6,1.5599999,
,,,-995.000009425E-6,-199.99998808E-3,,,,,-995.000009425E-6,1.5999999,
,,,-994.000001810E-6,-159.99999642E-3,,,,,-994.000001810E-6,1.6400000,
,,,-992.999994196E-6,-159.99999642E-3,,,,,-992.999994196E-6,1.6799999,
,,,-991.999986582E-6,-159.99999642E-3,,,,,-991.999986582E-6,1.6799999,
,,,-990.999978967E-6,-119.9999973E-3,,,,,-990.999978967E-6,1.7199999,
,,,-990.000087768E-6,-119.9999973E-3,,,,,-990.000087768E-6,1.7600000,
,,,-989.000080153E-6,-79.999998212E-3,,,,,-989.000080153E-6,1.7600000,
,,,-988.000072539E-6,-79.999998212E-3,,,,,-988.000072539E-6,1.8000000,
,,,-987.000064924E-6,-39.99999911E-3,,,,,-987.000064924E-6,1.8000000,
,,,-986.000057310E-6,-39.99999911E-3,,,,,-986.000057310E-6,1.8399999,
,,,-985.000049695E-6,0.0,,,,,-985.000049695E-6,1.8399999,
,,,-984.000042081E-6,0.0,,,,,-984.000042081E-6,1.8800000,
,,,-983.000034466E-6,39.99999911E-3,,,,,-983.000034466E-6,1.8800000,
,,,-982.000026852E-6,39.99999911E-3,,,,,-982.000026852E-6,1.9200000,
,,,-981.000019237E-6,39.99999911E-3,,,,,-981.000019237E-6,1.9200000,
,,,-980.000011623E-6,79.999998212E-3,,,,,-980.000011623E-6,1.9200000,
,,,-979.000004008E-6,79.999998212E-3,,,,,-979.000004008E-6,1.9599999,
,,,-977.999996394E-6,119.9999973E-3,,,,,-977.999996394E-6,1.9599999,
,,,-976.999988779E-6,119.9999973E-3,,,,,-976.999988779E-6,1.9599999,
,,,-976.000039373E-6,119.9999973E-3,,,,,-976.000039373E-6,2.0000000,
,,,-975.000031758E-6,159.99999642E-3,,,,,-975.000031758E-6,2.0000000,
,,,-974.000024144E-6,159.99999642E-3,,,,,-974.000024144E-6,2.0000000,
,,,-973.000016529E-6,199.99998808E-3,,,,,-973.000016529E-6,2.0000000,
,,,-972.000008915E-6,199.99998808E-3,,,,,-972.000008915E-6,2.0000000,
,,,-971.000059508E-6,239.99999464E-3,,,,,-971.000059508E-6,2.0000000,
,,,-970.000051893E-6,239.99999464E-3,,,,,-970.000051893E-6,2.0000000,
,,,-969.000044279E-6,239.99999464E-3,,,,,-969.000044279E-6,2.0400000,
,,,-968.000036664E-6,280.00000119E-3,,,,,-968.000036664E-6,2.0400000,
,,,-967.000029050E-6,280.00000119E-3,,,,,-967.000029050E-6,2.0400000,
,,,-966.000021435E-6,319.99999285E-3,,,,,-966.000021435E-6,2.0000000,
,,,-965.000013821E-6,319.99999285E-3,,,,,-965.000013821E-6,2.0000000,
,,,-964.000006206E-6,319.99999285E-3,,,,,-964.000006206E-6,2.0000000,
,,,-963.000056800E-6,359.99998450E-3,,,,,-963.000056800E-6,2.0000000,
,,,-962.000049185E-6,359.99998450E-3,,,,,-962.000049185E-6,2.0000000,
,,,-961.000041571E-6,359.99998450E-3,,,,,-961.000041571E-6,2.0000000,
,,,-960.000033956E-6,399.99997616E-3,,,,,-960.000033956E-6,2.0000000,
,,,-959.000026342E-6,399.99997616E-3,,,,,-959.000026342E-6,1.9599999,
,,,-958.000018727E-6,439.999997616E-3,,,,,-958.000018727E-6,1.9599999,
,,,-957.000011113E-6,439.999997616E-3,,,,,-957.000011113E-6,1.9599999,
,,,-956.000061706E-6,439.999997616E-3,,,,,-956.000061706E-6,1.9200000,
,,,-955.000054091E-6,479.999989271E-3,,,,,-955.000054091E-6,1.9200000,
,,,-954.000046477E-6,479.999989271E-3,,,,,-954.000046477E-6,1.8800000,
,,,-953.000038862E-6,479.999989271E-3,,,,,-953.000038862E-6,1.8800000,
,,,-952.000031248E-6,519.999980927E-3,,,,,-952.000031248E-6,1.8399999,
,,,-951.000023633E-6,519.999980927E-3,,,,,-951.000023633E-6,1.8399999,
,,,-950.000016019E-6,519.999980927E-3,,,,,-950.000016019E-6,1.8000000,
,,,-949.000008404E-6,519.999980927E-3,,,,,-949.000008404E-6,1.8000000,
,,,-948.000058997E-6,560.000002384E-3,,,,,-948.000058997E-6,1.7600000,
,,,-947.000051383E-6,560.000002384E-3,,,,,-947.000051383E-6,1.7199999,
,,,-946.000043768E-6,560.000002384E-3,,,,,-946.000043768E-6,1.7199999,
,,,-945.000036154E-6,599.999964237E-3,,,,,-945.000036154E-6,1.6799999,
,,,-944.000028539E-6,599.999964237E-3,,,,,-944.000028539E-6,1.6799999,
,,,-943.000020925E-6,599.999964237E-3,,,,,-943.000020925E-6,1.6400000,
,,,-942.000013310E-6,599.999964237E-3,,,,,-942.000013310E-6,1.5999999,
,,,-941.000005696E-6,639.999985695E-3,,,,,-941.000005696E-6,1.5599999,
,,,-940.000056289E-6,639.999985695E-3,,,,,-940.000056289E-6,1.5200000,
,,,-939.000048675E-6,639.999985695E-3,,,,,-939.000048675E-6,1.5200000,
,,,-938.000041060E-6,639.999985695E-3,,,,,-938.000041060E-6,1.4800000,
,,,-937.000033446E-6,639.999985695E-3,,,,,-937.000033446E-6,1.4399999,
,,,-936.000025831E-6,680.000007153E-3,,,,,-936.000025831E-6,1.4000000,
,,,-935.000018217E-6,680.000007153E-3,,,,,-935.000018217E-6,1.3600000,
,,,-934.000010602E-6,680.000007153E-3,,,,,-934.000010602E-6,1.3199999,
,,,-933.000061195E-6,680.000007153E-3,,,,,-933.000061195E-6,1.2800000,
,,,-932.000053581E-6,680.000007153E-3,,,,,-932.000053581E-6,1.2400000,
,,,-931.000045966E-6,680.000007153E-3,,,,,-931.000045966E-6,1.1999999,
,,,-930.000038352E-6,719.999969006E-3,,,,,-930.000038352E-6,1.1600000,
,,,-929.000030737E-6,719.999969006E-3,,,,,-929.000030737E-6,1.1200000,
,,,-928.000023123E-6,719.999969006E-3,,,,,-928.000023123E-6,1.0799999,
,,,-927.000015508E-6,719.999969006E-3,,,,,-927.000015508E-6,1.0400000,
,,,-926.000007894E-6,719.999969006E-3,,,,,-926.000007894E-6,1.000000,
,,,-925.000058487E-6,719.999969006E-3,,,,,-925.000058487E-6,959.999978542E-3,
,,,-924.000050873E-6,719.999969006E-3,,,,,-924.000050873E-6,919.999957085E-3,
,,,-923.000043258E-6,719.999969006E-3,,,,,-923.000043258E-6,879.999995232E-3,
,,,-922.000035644E-6,719.999969006E-3,,,,,-922.000035644E-6,839.999973774E-3,
,,,-921.000028029E-6,719.999969006E-3,,,,,-921.000028029E-6,759.999990463E-3,
,,,-920.000020415E-6,719.999969006E-3,,,,,-920.000020415E-6,719.999969006E-3,
,,,-919.000012800E-6,719.999969006E-3,,,,,-919.000012800E-6,680.000007153E-3,
,,,-918.000063393E-6,719.999969006E-3,,,,,-918.000063393E-6,639.999985695E-3,
,,,-917.000055779E-6,719.999969006E-3,,,,,-917.000055779E-6,560.000002384E-3,
,,,-916.000048164E-6,719.999969006E-3,,,,,-916.000048164E-6,519.999980927E-3,
,,,-915.000040550E-6,719.999969006E-3,,,,,-915.000040550E-6,479.999989271E-3,
,,,-914.000032935E-6,719.999969006E-3,,,,,-914.000032935E-6,439.999997616E-3,
,,,-913.000025321E-6,719.999969006E-3,,,,,-913.000025321E-6,399.99997616E-3,
,,,-912.000017706E-6,719.999969006E-3,,,,,-912.000017706E-6,359.99998450E-3,
,,,-911.000010092E-6,719.999969006E-3,,,,,-911.000010092E-6,280.00000119E-3,
,,,-910.000060685E-6,719.999969006E-3,,,,,-910.000060685E-6,239.99999464E-3,
,,,-909.000053070E-6,719.999969006E-3,,,,,-909.000053070E-6,199.99998808E-3,
,,,-908.000045456E-6,680.000007153E-3,,,,,-908.000045456E-6,119.9999973E-3,
,,,-907.000037841E-6,680.000007153E-3,,,,,-907.000037841E-6,79.999998212E-3,
,,,-906.000030227E-6,680.000007153E-3,,,,,-906.000030227E-6,39.99999911E-3,
,,,-905.000022613E-6,680.000007153E-3,,,,,-905.000022613E-6,0.0,
,,,-904.000014998E-6,680.000007153E-3,,,,,-904.000014998E-6,-79.999998212E-3,
,,,-903.000007384E-6,680.000007153E-3,,,,,-903.000007384E-6,-119.9999973E-3,
,,,-902.000057977E-6,639.999985695E-3,,,,,-902.000057977E-6,-159.99999642E-3,
,,,-901.000050362E-6,639.999985695E-3,,,,,-901.000050362E-6,-199.99998808E-3,
,,,-900.000042748E-6,639.999985695E-3,,,,,-900.000042748E-6,-280.00000119E-3,
,,,-899.000035133E-6,639.999985695E-3,,,,,-899.000035133E-6,-319.99999285E-3,
,,,-898.000027519E-6,639.999985695E-3,,,,,-898.000027519E-6,-359.99998450E-3,
,,,-897.000019904E-6,599.999964237E-3,,,,,-897.000019904E-6,-399.99997616E-3,
,,,-896.000012290E-6,599.999964237E-3,,,,,-896.000012290E-6,-479.999989271E-3,
,,,-895.000062883E-6,599.999964237E-3,,,,,-895.000062883E-6,-519.999980927E-3,
,,,-894.000055268E-6,599.999964237E-3,,,,,-894.000055268E-6,-560.000002384E-3,
,,,-893.000047654E-6,560.000002384E-3,,,,,-893.000047654E-6,-599.999964237E-3,
,,,-892.000040039E-6,560.000002384E-3,,,,,-892.000040039E-6,-680.000007153E-3,
,,,-891.000032425E-6,560.000002384E-3,,,,,-891.000032425E-6,-719.999969006E-3,
,,,-890.000024810E-6,519.999980927E-3,,,,,-890.000024810E-6,-759.999990463E-3,
,,,-889.000017196E-6,519.999980927E-3,,,,,-889.000017196E-6,-799.999952316E-3,
,,,-888.000009581E-6,519.999980927E-3,,,,,-888.000009581E-6,-839.999973774E-3,
,,,-887.000060175E-6,519.999980927E-3,,,,,-887.000060175E-6,-879.999995232E-3,
,,,-886.000052560E-6,479.999989271E-3,,,,,-886.000052560E-6,-919.999957085E-3,
,,,-885.000044946E-6,479.999989271E-3,,,,,-885.000044946E-6,-959.999978542E-3,
,,,-884.000037331E-6,479.999989271E-3,,,,,-884.000037331E-6,-1.000000,
,,,-883.000029717E-6,439.999997616E-3,,,,,-883.000029717E-6,-1.0400000,
,,,-882.000022102E-6,439.999997616E-3,,,,,-882.000022102E-6,-1.0799999,
,,,-881.000014488E-6,439.999997616E-3,,,,,-881.000014488E-6,-1.1600000,
,,,-880.000006873E-6,399.99997616E-3,,,,,-880.000006873E-6,-1.1999999,
,,,-879.000057466E-6,399.99997616E-3,,,,,-879.000057466E-6,-1.2400000,
,,,-878.000049852E-6,359.99998450E-3,,,,,-878.000049852E-6,-1.2800000,
,,,-877.000042237E-6,359.99998450E-3,,,,,-877.000042237E-6,-1.2800000,
,,,-876.000034623E-6,359.99998450E-3,,,,,-876.000034623E-6,-1.3600000,
,,,-875.000027008E-6,319.99999285E-3,,,,,-875.000027008E-6,-1.3600000,
,,,-874.000019394E-6,319.99999285E-3,,,,,-874.000019394E-6,-1.4000000,
,,,-873.000011779E-6,319.99999285E-3,,,,,-873.000011779E-6,-1.4399999,
,,,-872.000062373E-6,280.00000119E-3,,,,,-872.000062373E-6,-1.4800000,
,,,-871.000054758E-6,280.00000119E-3,,,,,-871.000054758E-6,-1.5200000,
,,,-870.000047144E-6,239.99999464E-3,,,,,-870.000047144E-6,-1.5200000,
,,,-869.000039529E-6,239.99999464E-3,,,,,-869.000039529E-6,-1.5599999,
,,,-868.000031915E-6,239.99999464E-3,,,,,-868.000031915E-6,-1.5999999,
,,,-867.000024300E-6,199.99998808E-3,,,,,-867.000024300E-6,-1.5999999,
,,,-866.000016686E-6,199.99998808E-3,,,,,-866.000016686E-6,-1.6400000,
,,,-865.000009071E-6,159.99999642E-3,,,,,-865.000009071E-6,-1.6799999,
,,,-864.000059664E-6,159.99999642E-3,,,,,-864.000059664E-6,-1.6799999,
,,,-863.000052050E-6,119.9999973E-3,,,,,-863.000052050E-6,-1.7199999,
,,,-862.000044435E-6,119.9999973E-3,,,,,-862.000044435E-6,-1.7600000,
,,,-861.000036821E-6,119.9999973E-3,,,,,-861.000036821E-6,-1.8000000,
,,,-860.000029206E-6,79.999998212E-3,,,,,-860.000029206E-6,-1.8000000,
,,,-859.000021592E-6,79.999998212E-3,,,,,-859.000021592E-6,-1.8000000,
,,,-858.000013977E-6,39.99999911E-3,,,,,-858.000013977E-6,-1.8399999,
,,,-857.000006363E-6,39.99999911E-3,,,,,-857.000006363E-6,-1.8399999,
,,,-856.000056956E-6,0.0,,,,,-856.000056956E-6,-1.8399999,
,,,-855.000049341E-6,0.0,,,,,-855.000049341E-6,-1.8800000,
,,,-854.000041727E-6,0.0,,,,,-854.000041727E-6,-1.8800000,
,,,-853.000034112E-6,-39.99999911E-3,,,,,-853.000034112E-6,-1.8800000,
,,,-852.000026498E-6,-39.99999911E-3,,,,,-852.000026498E-6,-1.9200000,
,,,-851.000018883E-6,-79.999998212E-3,,,,,-851.000018883E-6,-1.9200000,
,,,-850.000011269E-6,-79.999998212E-3,,,,,-850.000011269E-6,-1.9200000,
,,,-849.000061862E-6,-119.9999973E-3,,,,,-849.000061862E-6,-1.9200000,
,,,-848.000054248E-6,-119.9999973E-3,,,,,-848.000054248E-6,-1.9599999,
,,,-847.000046633E-6,-119.9999973E-3,,,,,-847.000046633E-6,-1.9599999,
,,,-846.000039019E-6,-159.99999642E-3,,,,,-846.000039019E-6,-1.9599999,
,,,-845.000031404E-6,-159.99999642E-3,,,,,-845.000031404E-6,-1.9599999,
,,,-844.000023790E-6,-199.99998808E-3,,,,,-844.000023790E-6,-1.9599999,
,,,-843.000016175E-6,-199.99998808E-3,,,,,-843.000016175E-6,-1.9599999,
,,,-842.000008561E-6,-239.99999464E-3,,,,,-842.000008561E-6,-1.9599999,
,,,-841.000059154E-6,-239.99999464E-3,,,,,-841.000059154E-6,-1.9599999,
,,,-840.000051539E-6,-239.99999464E-3,,,,,-840.000051539E-6,-1.9599999,
,,,-839.000043925E-6,-280.00000119E-3,,,,,-839.000043925E-6,-1.9599999,
,,,-838.000036310E-6,-280.00000119E-3,,,,,-838.000036310E-6,-1.9200000,
,,,-837.000028696E-6,-319.99999285E-3,,,,,-837.000028696E-6,-1.9200000,
,,,-836.000021081E-6,-319.99999285E-3,,,,,-836.000021081E-6,-1.9200000,
,,,-835.000013467E-6,-319.99999285E-3,,,,,-835.000013467E-6,-1.9200000,
,,,-834.000064060E-6,-359.99998450E-3,,,,,-834.000064060E-6,-1.8800000,
,,,-833.000056446E-6,-359.99998450E-3,,,,,-833.000056446E-6,-1.8800000,
,,,-832.000048831E-6,-399.99997616E-3,,,,,-832.000048831E-6,-1.8800000,
,,,-831.000041217E-6,-399.99997616E-3,,,,,-831.000041217E-6,-1.8399999,
,,,-830.000033602E-6,-399.99997616E-3,,,,,-830.000033602E-6,-1.8399999,
,,,-829.000025988E-6,-439.999997616E-3,,,,,-829.000025988E-6,-1.8399999,
,,,-828.000018373E-6,-439.999997616E-3,,,,,-828.000018373E-6,-1.8399999,
,,,-827.000010759E-6,-439.999997616E-3,,,,,-827.000010759E-6,-1.8000000,
,,,-826.000061352E-6,-479.999989271E-3,,,,,-826.000061352E-6,-1.7600000,
,,,-825.000053737E-6,-479.999989271E-3,,,,,-825.000053737E-6,-1.7600000,
,,,-824.000046123E-6,-479.999989271E-3,,,,,-824.000046123E-6,-1.7199999,
,,,-823.000038508E-6,-519.999980927E-3,,,,,-823.000038508E-6,-1.7199999,
,,,-822.000030894E-6,-519.999980927E-3,,,,,-822.000030894E-6,-1.6799999,
,,,-821.000023279E-6,-519.999980927E-3,,,,,-821.000023279E-6,-1.6400000,
,,,-820.000015665E-6,-519.999980927E-3,,,,,-820.000015665E-6,-1.5999999,
,,,-819.000008050E-6,-560.000002384E-3,,,,,-819.000008050E-6,-1.5999999,
,,,-818.000058644E-6,-560.000002384E-3,,,,,-818.000058644E-6,-1.5599999,
,,,-817.000051029E-6,-560.000002384E-3,,,,,-817.000051029E-6,-1.5200000,
,,,-816.000043415E-6,-599.999964237E-3,,,,,-816.000043415E-6,-1.5200000,
